[Event "Mate - Dovetail, Exposed King, Coercion "]
[Date "1206.??.??"]
[Site "97916"]
[FEN "8/7k/p1p2Q1p/P3P2P/1P1K1P2/2P3r1/2q5/7R b - - 1 1"]

1... Qxc3+
( 1... Qxc3+ 2. Ke4 Qd3# )
2. Ke4 Qd3# *

[Event "Exposed King, Coercion, Mate - Dovetail "]
[Date "1209.??.??"]
[Site "40122"]
[FEN "8/7R/1p1q1kr1/p1b1p3/8/4B1P1/P4P2/6KQ w - - 1 1"]

1. Qf3+
( 1. Qf3+ Ke6 2. Qf7# )
1... Ke6 
2. Qf7# *

[Event "Exposed King, Mate - Dovetail "]
[Date "1211.??.??"]
[Site "98827"]
[FEN "6r1/pq3rk1/1p3pp1/3R4/2P2P1Q/6P1/P5K1/7R w - - 1 1"]

1. Qh6#
( 1. Qh6# ) *

[Event "Exposed King, Coercion, Mate - Dovetail - Bishop "]
[Date "1216.??.??"]
[Site "64742"]
[FEN "r1b1k2n/pp4pQ/4p3/3pP1P1/4q3/4B1K1/PP4P1/5R2 w - - 1 1"]

1. Qxh8+
( 1. Qxh8+ Kd7 2. Rf7+ Kc6 3. Qe8+ Bd7 4. Qxd7# )
1... Kd7 
2. Rf7+ Kc6 
3. Qe8+ Bd7 
4. Qxd7# *

[Event "Exposed King, Coercion, Mate - Dovetail - Bishop "]
[Date "1219.??.??"]
[Site "43896"]
[FEN "7r/pp5p/2r4k/4B1p1/6B1/q1PQ4/P1P2PPP/1K6 w - - 1 1"]

1. Qh3+
( 1. Qh3+ Kg6 2. Qh5# )
1... Kg6 
2. Qh5# *

[Event "Coercion, Exposed King, Mate - Dovetail, Mate - Swallow's Tail (+4, -3) "]
[Date "1219.??.??"]
[Site "75305"]
[FEN "1q2b1r1/1r3p2/p1pnpQpk/2B1N3/3P1P2/8/PPP3PP/1R4K1 w - - 0 1"]

1. Ng4+
( 1. Ng4+ Kh7 2. Qh4+ Kg7 3. Qh6# )
1... Kh7 
2. Qh4+ Kg7 
3. Qh6# *

[Event "Mate - Triangle, Mate - Dovetail, Exposed King "]
[Date "1221.??.??"]
[Site "93605"]
[FEN "5krR/3p1p2/p7/2PPQ3/3P4/6P1/5PK1/qq6 w - - 0 1"]

1. Qd6+
( 1. Qd6+ Kg7 2. Qh6# )
1... Kg7 
2. Qh6# *

[Event "Exposed King, Mate - Dovetail, Coercion (+2, -0) "]
[Date "1222.??.??"]
[Site "75656"]
[FEN "Q7/5pkp/4p1p1/4P3/2PP1PK1/6P1/1r5q/7R b - - 1 1"]

1... h5+
( 1... h5+ 2. Kf3 Qe2# )
2. Kf3 Qe2# *

[Event "Clearance, Exposed King, Attraction, Mate - Dovetail "]
[Date "1224.??.??"]
[Site "75471"]
[FEN "r2b3Q/2q2p2/1p4p1/2pPp1k1/4Pr2/3PK3/1R3P2/1R6 w - - 1 1"]

1. Rg1+
( 1. Rg1+ Rg4 2. Rxg4+ Kxg4 3. f3+ Kg3 4. Qh2# )
1... Rg4 
2. Rxg4+ Kxg4 
3. f3+ Kg3 
4. Qh2# *

[Event "Exposed King, Coercion, Mate - Dovetail "]
[Date "1225.??.??"]
[Site "59635"]
[FEN "1R6/5pkp/6p1/3p2q1/1Q1Nn3/4P2P/1P3P1K/5r2 w - - 1 1"]

1. Qf8+
( 1. Qf8+ Kf6 2. Qh8+ Ke7 3. Qd8# )
1... Kf6 
2. Qh8+ Ke7 
3. Qd8# *

[Event "Coercion, Mate - Dovetail - Bishop, Attraction (+3, -0) "]
[Date "1226.??.??"]
[Site "102926"]
[FEN "8/pp4kp/3bQr2/1PPP1n1q/P3Rp2/5P2/1BN3Pp/7K w - - 1 1"]

1. Qxf6+
( 1. Qxf6+ Kg8 2. Qh8+ Kf7 3. Qe8# )
1... Kg8 
2. Qh8+ Kf7 
3. Qe8# *

[Event "Coercion, Mate - Dovetail - Bishop, Attraction (+3, -0) "]
[Date "1226.??.??"]
[Site "54061"]
[FEN "8/pp4kp/3bQr2/1PPP1n1q/P3Rp2/5P2/1BN3Pp/7K w - - 1 1"]

1. Qxf6+
( 1. Qxf6+ Kg8 2. Qh8+ Kf7 3. Qe8# )
1... Kg8 
2. Qh8+ Kf7 
3. Qe8# *

[Event "Exposed King, Mate - Dovetail "]
[Date "1226.??.??"]
[Site "63825"]
[FEN "2r5/p5p1/1p2pp1k/3bR3/r7/5PQ1/P5PK/8 w - - 0 1"]

1. Qh3+
( 1. Qh3+ Rh4 2. Qxh4+ Kg6 3. Qh5# )
1... Rh4 
2. Qxh4+ Kg6 
3. Qh5# *

[Event "Exposed King, Coercion, Mate - Dovetail "]
[Date "1229.??.??"]
[Site "18935"]
[FEN "1r6/4Q3/1q1P2p1/2pkpp2/2nbN3/7P/6P1/2B2R1K w - - 1 1"]

1. Nf6+
( 1. Nf6+ Kc6 2. Qd7# )
1... Kc6 
2. Qd7# *

[Event "Clearance, Distraction, Exposed King, Mate - Dovetail "]
[Date "1229.??.??"]
[Site "73074"]
[FEN "3r3k/3q3p/1p2R1p1/2B2p2/1QBb4/2nP2P1/r6P/4R2K w - - 0 1"]

1. Bxd4+
( 1. Bxd4+ Qxd4 2. Re8+ Rxe8 3. Rxe8+ Kg7 4. Qf8# )
1... Qxd4 
2. Re8+ Rxe8 
3. Rxe8+ Kg7 
4. Qf8# *

[Event "Clearance, Sacrifice, Exposed King, Mate - Dovetail, Coercion (+2, -0) "]
[Date "1230.??.??"]
[Site "80326"]
[FEN "6k1/5p1R/p5p1/2p1b3/2pr4/2q2PP1/P3Q1K1/7R w - - 1 1"]

1. Rh8+
( 1. Rh8+ Bxh8 2. Qe8+ Kg7 3. Qxh8# )
1... Bxh8 
2. Qe8+ Kg7 
3. Qxh8# *

[Event "Pin, Exposed King, Coercion, Mate - Dovetail "]
[Date "1232.??.??"]
[Site "53530"]
[FEN "r1bR4/pp2bq1k/4p1p1/2n1P1Qp/8/2PB4/P4PPP/4R1K1 w - - 1 1"]

1. Qxh5+
( 1. Qxh5+ Kg7 2. Qh8# )
1... Kg7 
2. Qh8# *

[Event "Exposed King, Hanging Piece, Capturing Defender, Mate - Dovetail (+2, -0), Coercion (+1, -0) "]
[Date "1235.??.??"]
[Site "64870"]
[FEN "2k2r2/pp4p1/2pQ4/7n/2q4p/5P1P/P5PK/3R4 w - - 0 1"]

1. Qxf8+
( 1. Qxf8+ Kc7 2. Qd8# )
1... Kc7 
2. Qd8# *

[Event "Exposed King, Mate - Dovetail - Bishop (+3, -0), Coercion (+1, -0) "]
[Date "1236.??.??"]
[Site "106801"]
[FEN "8/p4p2/2Q2qp1/4k3/1PP1p3/3B3R/5r2/7K w - - 1 1"]

1. Qd5+
( 1. Qd5+ Kf4 2. Qxe4+ Kg5 3. Qh4# )
1... Kf4 
2. Qxe4+ Kg5 
3. Qh4# *

[Event "Exposed King, Mate - Dovetail, Coercion "]
[Date "1236.??.??"]
[Site "39045"]
[FEN "5rk1/1p6/p6Q/3N1r2/6P1/5p1P/Pq6/4R2K w - - 1 1"]

1. Ne7+
( 1. Ne7+ Kf7 2. Qg6# )
1... Kf7 
2. Qg6# *

[Event "Exposed King, Coercion, Mate - Dovetail (+3, -1) "]
[Date "1236.??.??"]
[Site "78591"]
[FEN "6r1/pBk1bp2/4p3/1p2P3/2pq4/6P1/PP3PQP/4K2R b K - 0 1"]

1... Bb4+
( 1... Bb4+ 2. Kf1 Qd1# )
2. Ke2 Qd3# *

[Event "Attraction, Sacrifice, Exposed King, Mate - Dovetail "]
[Date "1236.??.??"]
[Site "99059"]
[FEN "r1r5/3qp2Q/1p3kp1/3PnP2/6P1/5RP1/P4PK1/4R3 w - - 1 1"]

1. g5+
( 1. g5+ Kxg5 2. Qh4# )
1... Kxg5 
2. Qh4# *

[Event "Mate - Dovetail - Bishop, Exposed King "]
[Date "1238.??.??"]
[Site "93783"]
[FEN "rR6/5k2/2p3q1/4Qpb1/2PB1Pb1/4P3/r5R1/6K1 w - - 0 1"]

1. Qe8#
( 1. Qe8# ) *

[Event "Exposed King, Coercion, Mate - Dovetail (+2, -0), X-Ray Attack (+1, -0) "]
[Date "1241.??.??"]
[Site "104959"]
[FEN "7Q/1p6/p3q3/4Nk1p/4b1pP/P4PK1/1P6/8 w - - 1 1"]

1. Qxh5+
( 1. Qxh5+ Kf6 2. Qg5# )
1... Kf6 
2. Qg5# *

[Event "Pin, Exposed King, Mate - Dovetail (+1, -0) "]
[Date "1243.??.??"]
[Site "46092"]
[FEN "6k1/6rp/p2qP3/2pP4/8/5Q2/1P1r3P/6RK w - - 0 1"]

1. Qf7+
( 1. Qf7+ Kh8 2. Qxg7# )
1... Kh8 
2. Qxg7# *

[Event "Distraction, Sacrifice, Mate - Dovetail, Blocking, Overloading, Exposed King, Coercion, Attraction (+7, -8) "]
[Date "1243.??.??"]
[Site "71607"]
[FEN "8/4nkp1/6p1/2R2p2/1P1Pp3/2P1N1P1/3QKPP1/1q5r b - - 1 1"]

1... Re1+
( 1... Re1+ 2. Qxe1 Qd3# )
2. Qxe1 Qd3# *

[Event "Mate - Dovetail, Exposed King "]
[Date "1243.??.??"]
[Site "92214"]
[FEN "5QR1/2rk1p2/3q4/5P1n/4pP1P/rPnp4/P7/K1N3R1 w - - 1 1"]

1. Qe8#
( 1. Qe8# ) *

[Event "Exposed King, Mate - Dovetail "]
[Date "1243.??.??"]
[Site "99656"]
[FEN "8/6kp/p5p1/2p5/5Q2/3q4/1P4PP/3q1RK1 w - - 0 1"]

1. Qf8#
( 1. Qf8# ) *

[Event "Exposed King, Coercion, Mate - Dovetail "]
[Date "1244.??.??"]
[Site "54771"]
[FEN "8/2Q5/4pp2/1p1k3p/7P/3pPP1q/1P3K2/8 w - - 1 1"]

1. e4+
( 1. e4+ Kd4 2. Qc3# )
1... Kd4 
2. Qc3# *

[Event "Sacrifice, Advanced Pawn, Attraction, Exposed King, Mate - Dovetail, Coercion (+1, -0) "]
[Date "1244.??.??"]
[Site "56357"]
[FEN "4Rr1k/p2PNpp1/1p2p3/4P3/nP6/5qPp/PB1R1P1P/6K1 w - - 0 1"]

1. Rxf8+
( 1. Rxf8+ Kh7 2. Rh8+ Kxh8 3. d8=Q+ Kh7 4. Qg8+ Kh6 5. Qh8+ Kg5 6. Qh4# )
1... Kh7 
2. Rh8+ Kxh8 
3. d8=Q+ Kh7 
4. Qg8+ Kh6 
5. Qh8+ Kg5 
6. Qh4# *

[Event "Sacrifice, Mate - Dovetail (+1, -0), Clearance (+4, -4) "]
[Date "1246.??.??"]
[Site "92050"]
[FEN "5Q2/7p/6p1/1R3p1k/2r1BK2/4P1P1/P4P1P/3q4 w - f6 0 1"]

1. Rxf5+
( 1. Rxf5+ gxf5 2. Qxf5+ Kh6 3. Qxh7# )
1... gxf5 
2. Qxf5+ Kh6 
3. Qg5# *

[Event "Mate - Dovetail, Interference, Coercion "]
[Date "1249.??.??"]
[Site "100039"]
[FEN "R2Q4/1p3p1k/p1b3p1/8/8/1P2P2P/P4PPK/b3q3 w - - 1 1"]

1. Qh4+
( 1. Qh4+ Kg7 2. Qh8# )
1... Kg7 
2. Qh8# *

[Event "Mate - Dovetail, Exposed King "]
[Date "1250.??.??"]
[Site "90159"]
[FEN "8/1pk2b2/2p2p2/1p5q/r6p/3QP3/5PPP/2RR2K1 w - - 1 1"]

1. Qd8#
( 1. Qd8# ) *

[Event "Mate - Dovetail, Exposed King, Coercion "]
[Date "1251.??.??"]
[Site "106716"]
[FEN "r5k1/1p5p/3pp1p1/8/p1K2Q2/P1P5/B1P3qP/R6R b - - 0 1"]

1... Qd5+
( 1... Qd5+ 2. Kb4 Qc5# )
2. Kb4 Qc5# *

[Event "Exposed King, Mate - Dovetail, Coercion "]
[Date "1251.??.??"]
[Site "54293"]
[FEN "3b3k/p1P3pp/8/4P3/2Q2P2/1P5K/q2r4/5R2 b - - 0 1"]

1... Rh2+
( 1... Rh2+ 2. Kg4 Qg2+ 3. Kf5 Qg6# )
2. Kg4 Qg2+ 
3. Kf5 Qg6# *

[Event "Exposed King, Coercion, Mate - Dovetail "]
[Date "1251.??.??"]
[Site "61405"]
[FEN "6rk/1p1n3p/p2N3q/2pPp3/2P5/P1N2P1b/1P2QK1R/8 b - - 0 1"]

1... Qh4+
( 1... Qh4+ 2. Ke3 Qd4# )
2. Ke3 Qd4# *

[Event "Exposed King, Blocking, Coercion, Mate - Dovetail "]
[Date "1251.??.??"]
[Site "63053"]
[FEN "2r1r3/3qb2k/3p1Pp1/p2Q3p/1p1B4/P1P5/1P5P/5RK1 w - - 0 1"]

1. Qf7+
( 1. Qf7+ Kh6 2. Be3+ g5 3. Qg7# )
1... Kh6 
2. Be3+ g5 
3. Qg7# *

[Event "Mate - Dovetail (+2, -0), Exposed King (+1, -0), Coercion (+1, -0) "]
[Date "1252.??.??"]
[Site "158464"]
[FEN "4qk2/p1r2p2/5Q1p/1P1pB1p1/3P2P1/5P1b/4PK1P/8 w - - 1 1"]

1. Qxh6+
( 1. Qxh6+ Ke7 2. Qd6# )
1... Ke7 
2. Qd6# *

[Event "Skewer, Exposed King, Coercion, Mate - Dovetail "]
[Date "1254.??.??"]
[Site "98326"]
[FEN "1qRr1k2/5p2/3bpp2/pr1p3Q/P2P4/6P1/1P3P2/2R3K1 w - - 0 1"]

1. Qh8+
( 1. Qh8+ Ke7 2. Qxd8# )
1... Ke7 
2. Qxd8# *

[Event "Attraction, Sacrifice, Exposed King, Blocking, Mate - Triangle, Mate - Dovetail (+1, -0), X-Ray Attack (+2, -2), Distraction (+7, -10) "]
[Date "1255.??.??"]
[Site "62203"]
[FEN "5nk1/ppp3r1/3pR2Q/3P3p/6qP/8/PP4P1/5RK1 w - - 1 1"]

1. Rxf8+
( 1. Rxf8+ Kxf8 2. Qh8+ Kf7 3. Qe8# )
1... Kxf8 
2. Qh8+ Kf7 
3. Qe8# *

[Event "Exposed King, Coercion (+3, -1), Mate - Dovetail (+1, -0) "]
[Date "1256.??.??"]
[Site "71624"]
[FEN "5r1k/1p6/p5Q1/3N1r2/6P1/5p1P/Pq6/4R2K w - - 1 1"]

1. Qh6+
( 1. Qh6+ Kg8 2. Ne7+ Kf7 3. Qg6# )
1... Kg8 
2. Ne7+ Kf7 
3. Qg6# *

[Event "Exposed King, Coercion, Mate - Dovetail, Attraction (+2, -2) "]
[Date "1259.??.??"]
[Site "49284"]
[FEN "4R3/1pp2p1k/6r1/p3P2p/P1P1q1rp/2P2Q2/6PP/5R1K w - - 1 1"]

1. Qxf7+
( 1. Qxf7+ Kh6 2. Rh8+ Kg5 3. Qe7+ Rf6 4. Qxf6# )
1... Kh6 
2. Rh8+ Kg5 
3. Qe7+ Rf6 
4. Qxf6# *

[Event "Sacrifice, Clearance, Attraction, Exposed King, Mate - Dovetail, Coercion (+1, -0) "]
[Date "1260.??.??"]
[Site "45441"]
[FEN "3Q4/pp3rkp/q1r3p1/4P3/8/1b3P2/PPP3P1/2KR3R w - - 0 1"]

1. Rxh7+
( 1. Rxh7+ Kxh7 2. Rh1+ Kg7 3. Qh8# )
1... Kxh7 
2. Rh1+ Kg7 
3. Qh8# *

[Event "Exposed King, Sacrifice, Attraction, Mate - Dovetail, Skewer (+1, -0) "]
[Date "1261.??.??"]
[Site "39559"]
[FEN "r2q2r1/pp1n3Q/3ppkp1/4p3/3pP1P1/3P1P2/PPP1N3/R3K2R w KQ - 1 1"]

1. g5+
( 1. g5+ Kxg5 2. Qh4# )
1... Kxg5 
2. Qh4# *

[Event "Exposed King, Sacrifice, Mate - Dovetail (+1, -0) "]
[Date "1262.??.??"]
[Site "73936"]
[FEN "1r2kb2/5p1Q/pq2p3/7N/7P/2PR1PP1/1P6/1K6 w - - 1 1"]

1. Nf6+
( 1. Nf6+ Ke7 2. Rd7+ Kxf6 3. Qxf7+ Ke5 4. Qf4# )
1... Ke7 
2. Rd7+ Kxf6 
3. Qxf7+ Ke5 
4. Qf4# *

[Event "Pin, Exposed King, Mate - Dovetail "]
[Date "1262.??.??"]
[Site "77311"]
[FEN "5r2/1p1b4/p1k1pq2/P2p1r1p/2pP3P/2P1RB2/1P2Q1P1/R6K w - - 1 1"]

1. Qxc4+
( 1. Qxc4+ Kd6 2. Qc5# )
1... Kd6 
2. Qc5# *

[Event "Exposed King, Mate - Dovetail, X-Ray Attack "]
[Date "1263.??.??"]
[Site "27606"]
[FEN "k3r3/p7/R1p4p/3p4/3P1Q2/P1nB4/2PK4/1q6 b - - 1 1"]

1... Qe1#
( 1... Qe1# ) *

[Event "Sacrifice, Distraction (+3, -0), Exposed King (+3, -0), Coercion (+3, -0), Mate - Dovetail (+3, -0) "]
[Date "1267.??.??"]
[Site "102860"]
[FEN "6k1/6pp/bQ2p3/3p4/PR3P2/4PNPK/2q4P/7r b - - 0 1"]

1... Bf1+
( 1... Bf1+ 2. Kh4 Rxh2+ 3. Nxh2 Qxh2+ 4. Kg4 Be2+ 5. Kg5 Qxg3# )
2. Kh4 Rxh2+ 
3. Nxh2 Qxh2+ 
4. Kg4 Be2+ 
5. Kg5 Qxg3# *

[Event "Exposed King, Mate - Dovetail, Coercion "]
[Date "1270.??.??"]
[Site "59266"]
[FEN "5k2/p4p2/4pQ1p/5p2/3R3K/2P3P1/3rqP1P/8 w - - 1 1"]

1. Qh8+
( 1. Qh8+ Ke7 2. Qd8# )
1... Ke7 
2. Qd8# *

[Event "Attraction, Sacrifice, Exposed King, Mate - Dovetail, Coercion (+2, -1) "]
[Date "1274.??.??"]
[Site "60613"]
[FEN "8/3p1p2/1p5Q/p1bPqkp1/P3rp2/1P4P1/2R2PK1/7R w - - 1 1"]

1. g4+
( 1. g4+ Kxg4 2. Qh3# )
1... Kxg4 
2. Qh3# *

[Event "Sacrifice, Attraction, Exposed King, Mate - Dovetail - Bishop, Coercion (+1, -0) "]
[Date "1278.??.??"]
[Site "43588"]
[FEN "1r2nr2/2q3kp/p2pQ1pR/4n1P1/Np2P3/1B6/PPP4P/2KR4 w - - 1 1"]

1. Rxh7+
( 1. Rxh7+ Kxh7 2. Qh3+ Kg7 3. Qh6# )
1... Kxh7 
2. Qh3+ Kg7 
3. Qh6# *

[Event "Exposed King, Mate - Dovetail, Coercion "]
[Date "1283.??.??"]
[Site "99333"]
[FEN "4k3/5p1p/4p1p1/1q6/8/1r4P1/5P1P/Q2R2K1 w - - 0 1"]

1. Qh8+
( 1. Qh8+ Ke7 2. Qd8# )
1... Ke7 
2. Qd8# *

[Event "Discovered Attack, Double Check, Exposed King, Mate - Dovetail (+2, -0) "]
[Date "1284.??.??"]
[Site "72851"]
[FEN "r1b4r/pp4k1/1qnbp3/3pNpBn/3P1PQ1/2PB4/PP4PP/R4RK1 w - - 0 1"]

1. Bh6+
( 1. Bh6+ Kxh6 2. Qg6# )
1... Kf6 
2. Qg5# *

[Event "Exposed King, Mate - Dovetail (+3, -0), Coercion (+3, -2) "]
[Date "1285.??.??"]
[Site "80293"]
[FEN "Q7/6k1/6p1/3Q4/1p1P4/1P1K1Pq1/8/4q3 b - - 1 1"]

1... Qc3+
( 1... Qc3+ 2. Ke2 Qge1# )
2. Ke4 Qcxf3# *

[Event "Pin, Exposed King, Attraction, Mate - Dovetail "]
[Date "1285.??.??"]
[Site "96447"]
[FEN "4qkn1/5r2/2p3RR/p1Pb1Q1P/1p6/5P2/PPP5/2K5 w - - 1 1"]

1. Rxg8+
( 1. Rxg8+ Ke7 2. Qe5+ Kd7 3. Qxe8+ Kc7 4. Qc8# )
1... Kxg8 
2. Qg6+ Kf8 
3. Rh8+ Ke7 
4. Qd6# *

[Event "Exposed King, Coercion, Mate - Dovetail (+3, -0) "]
[Date "1288.??.??"]
[Site "47708"]
[FEN "4q1r1/2rnbp1k/p3p1p1/1pnpP3/5BQ1/PPP2NN1/5PPP/3R2K1 w - - 0 1"]

1. Qh3+
( 1. Qh3+ Bh4 2. Qxh4+ Kg7 3. Qh6# )
1... Bh4 
2. Qxh4+ Kg7 
3. Qh6# *

[Event "Distraction, Sacrifice, Mate - Dovetail, Blocking (+18, -16) "]
[Date "1289.??.??"]
[Site "48057"]
[FEN "8/4nkp1/6p1/2R5/1P1PpP2/2P1N3/3QKPP1/1q5r b - - 0 1"]

1... Re1+
( 1... Re1+ 2. Qxe1 Qd3# )
2. Qxe1 Qd3# *

[Event "Mate - Dovetail, Sacrifice, Clearance, Exposed King, Attraction, Coercion (+2, -0) "]
[Date "1292.??.??"]
[Site "101549"]
[FEN "3R4/p1r3kp/6r1/2p1pRQ1/4P1p1/b2N2Pq/7P/6K1 w - - 1 1"]

1. Rg8+
( 1. Rg8+ Kxg8 2. Qd8+ Kg7 3. Qf8# )
1... Kxg8 
2. Qd8+ Kg7 
3. Qf8# *

[Event "Advanced Pawn, Sacrifice, Mate - Pawn, Coercion, Mate - Dovetail, Attraction "]
[Date "1292.??.??"]
[Site "61958"]
[FEN "4R2r/p4pk1/3P2p1/P1pP2n1/2Pb1RP1/3Q1NPq/5P1p/3N3K b - - 0 1"]

1... Qg2+
( 1... Qg2+ 2. Kxg2 h1=Q# )
2. Kxg2 h1=Q# *

[Event "Exposed King, Mate - Dovetail, Coercion (+4, -1) "]
[Date "1292.??.??"]
[Site "63064"]
[FEN "8/8/6q1/8/2Q5/8/4p1PK/4k3 w - - 0 1"]

1. Qc1+
( 1. Qc1+ Kf2 2. Qg1# )
1... Kf2 
2. Qg1# *

[Event "Exposed King, Mate - Dovetail, Coercion "]
[Date "1294.??.??"]
[Site "56500"]
[FEN "6r1/2p2k2/1p6/p2P4/2P1RK2/1P3P2/3NR3/7q b - - 0 1"]

1... Qh6+
( 1... Qh6+ 2. Ke5 Qf6# )
2. Ke5 Qf6# *

[Event "Exposed King (+2, -0), Mate - Dovetail (+3, -1) "]
[Date "1295.??.??"]
[Site "165581"]
[FEN "2Q5/5k1P/p1N2qp1/8/8/P1P2P2/P4KP1/7r w - - 1 1"]

1. Qg8#
( 1. Qg8# ) *

[Event "Mate - Dovetail - Bishop, Exposed King, Coercion "]
[Date "1295.??.??"]
[Site "91557"]
[FEN "8/5ppk/1b6/p3K2p/PpQ1P3/1P6/1B3q2/5B2 b - - 1 1"]

1... Qf6+
( 1... Qf6+ 2. Kd5 Qe6# )
2. Kd5 Qe6# *

[Event "Exposed King, Zwischenzug, Mate - Dovetail, Coercion (+1, -0) "]
[Date "1301.??.??"]
[Site "62612"]
[FEN "3k1b1r/1R6/p1p1rp2/2P3pq/2PPQ3/P5B1/5P2/4R1K1 w - - 0 1"]

1. Rb8+
( 1. Rb8+ Kd7 2. Qxe6# )
1... Kd7 
2. Qxe6# *

[Event "Mate - Dovetail "]
[Date "1302.??.??"]
[Site "165010"]
[FEN "6k1/Q4p2/6p1/4q3/1P4P1/6P1/5R1K/4r3 b - - 0 1"]

1... Qh8+
( 1... Qh8+ 2. Kg2 Qh1# )
2. Kg2 Qh1# *

[Event "Exposed King, Interference, Coercion, Skewer (+1, -0), Mate - Dovetail (+2, -1) "]
[Date "1304.??.??"]
[Site "90454"]
[FEN "2r2k2/pp3p1p/3pbQp1/8/q2BPP2/2R4P/P5PK/8 w - - 1 1"]

1. Qh8+
( 1. Qh8+ Ke7 2. Bf6+ Kd7 3. Qxc8# )
1... Ke7 
2. Bf6+ Kd7 
3. Qxc8# *

[Event "Exposed King, Coercion, Mate - Dovetail (+2, -0), Mate - Lawnmower (+2, -0) "]
[Date "1305.??.??"]
[Site "90191"]
[FEN "5nk1/1pb2ppp/5r2/1N1R4/8/P2RP1PQ/2q4P/6K1 b - - 0 1"]

1... Qf2+
( 1... Qf2+ 2. Kh1 Qe1+ 3. Kg2 Rf2# )
2. Kh1 Qe1+ 
3. Kg2 Qf1# *

[Event "Exposed King, Coercion, Mate - Dovetail "]
[Date "1307.??.??"]
[Site "50828"]
[FEN "2k5/1p1n1N2/2p1Q3/3p3P/pP6/2P5/3q2PK/8 w - - 1 1"]

1. Qe8+
( 1. Qe8+ Kc7 2. Qd8# )
1... Kc7 
2. Qd8# *

[Event "Exposed King, Coercion, Mate - Dovetail, Sacrifice (+3, -0), Attraction (+3, -0) "]
[Date "1307.??.??"]
[Site "62718"]
[FEN "6rk/p6p/1p3b1Q/8/P1P1KPq1/1P1p4/3B4/4R3 b - - 1 1"]

1... Re8+
( 1... Re8+ 2. Kxd3 Qf5+ 3. Re4 Qxe4# )
2. Kxd3 Qf5+ 
3. Re4 Qxe4# *

[Event "Quiet Move, Exposed King, Mate - Dovetail (+1, -0) "]
[Date "1308.??.??"]
[Site "53156"]
[FEN "6k1/1p6/p1p1p1P1/2PpP1K1/1PnB2P1/5P2/P6q/2QB1b2 b - - 1 1"]

1... Kg7
( 1... Kg7 2. Qf4 Qh6# )
2. Qf4 Qh6# *

[Event "Attraction, Sacrifice, Mate - Dovetail, Exposed King, Clearance (+4, -1) "]
[Date "1309.??.??"]
[Site "53644"]
[FEN "3r2k1/p4pp1/1p4bp/8/1B2P3/3BKPbP/P1Q3q1/3R4 b - - 1 1"]

1... Bf4+
( 1... Bf4+ 2. Kxf4 Qg5# )
2. Kxf4 Qg5# *

[Event "Mate - Dovetail (+2, -0) "]
[Date "1312.??.??"]
[Site "162442"]
[FEN "b1R1Q3/p4pkp/P3p1p1/r3q3/4P1K1/5PP1/B6P/8 b - - 1 1"]

1... Qh5+
( 1... Qh5+ 2. Kf4 Qg5# )
2. Kf4 Qg5# *

[Event "Mate - Dovetail, Exposed King (+2, -0) "]
[Date "1313.??.??"]
[Site "101394"]
[FEN "3q4/5pk1/5Np1/6K1/2b3P1/8/8/Q6B b - - 0 1"]

1... Qd2+
( 1... Qd2+ 2. Kh4 Qh2+ 3. Kg5 Qh6# )
2. Kh4 Qh2+ 
3. Kg5 Qh6# *

[Event "Exposed King, Coercion, Mate - Dovetail, Mate - Swallow's Tail (+1, -0) "]
[Date "1313.??.??"]
[Site "49003"]
[FEN "r2qkr2/ppp4Q/8/4ppb1/2B1N3/3P3P/PP4P1/n2K1R2 w q - 0 1"]

1. Qg6+
( 1. Qg6+ Kd7 2. Qe6# )
1... Kd7 
2. Qe6# *

[Event "Exposed King, Coercion, Mate - Dovetail "]
[Date "1318.??.??"]
[Site "36218"]
[FEN "2b5/3k2pp/p4P1N/2pP2Q1/2n5/8/Prq4P/3R1R1K w - - 1 1"]

1. Qxg7+
( 1. Qxg7+ Kd6 2. Qe7# )
1... Kd6 
2. Qe7# *

[Event "Exposed King, Coercion, Mate - Dovetail (+2, -0) "]
[Date "1319.??.??"]
[Site "92849"]
[FEN "3Q4/4Q3/2q3kp/8/8/5P2/6K1/2q5 w - - 0 1"]

1. Qg8+
( 1. Qg8+ Kh5 2. Qg4# )
1... Kf5 
2. Qg4# *

[Event "Attraction, Sacrifice, Exposed King, Mate - Dovetail "]
[Date "1324.??.??"]
[Site "28593"]
[FEN "rn2r2k/p4pR1/2pb1p2/1p1b3P/3P3P/2PBB3/1PKQNP2/q2R4 b - - 1 1"]

1... Bb3+
( 1... Bb3+ 2. Kxb3 Qa4# )
2. Kxb3 Qa4# *

[Event "Clearance, Sacrifice, Exposed King, Mate - Dovetail - Bishop (+4, -2) "]
[Date "1325.??.??"]
[Site "44149"]
[FEN "5q2/3r2pk/5BRp/1p1r1P1Q/p7/P6P/1PP3PK/8 w - - 1 1"]

1. Rxh6+
( 1. Rxh6+ gxh6 2. Qg6# )
1... gxh6 
2. Qg6# *

[Event "Exposed King, Coercion, Mate - Dovetail "]
[Date "1330.??.??"]
[Site "73883"]
[FEN "3rk2r/2p1b3/p4P2/6Np/1q5P/1P4P1/P1P1Q3/1K3R1b w k - 0 1"]

1. f7+
( 1. f7+ Kd7 2. Qe6# )
1... Kd7 
2. Qe6# *

[Event "Exposed King, Mate - Dovetail "]
[Date "1331.??.??"]
[Site "51410"]
[FEN "8/8/p1p1pkpQ/2p4p/2P4P/1P1q2P1/P5K1/8 w - - 0 1"]

1. Qf8+
( 1. Qf8+ Ke5 2. Qf4# )
1... Ke5 
2. Qf4# *

[Event "Exposed King, Mate - Dovetail "]
[Date "1331.??.??"]
[Site "59993"]
[FEN "6k1/p4n2/P4QK1/3p4/3P1PP1/8/7q/8 b - - 1 1"]

1... Qh7#
( 1... Qh7# ) *

[Event "Coercion, Exposed King, Mate - Dovetail - Bishop "]
[Date "1333.??.??"]
[Site "62212"]
[FEN "1R6/5p2/1pk1pPp1/3pP1K1/p3b3/P1P1B3/1P3Q2/3q4 b - - 0 1"]

1... Qh5+
( 1... Qh5+ 2. Kf4 g5+ 3. Kg3 Qh4# )
2. Kf4 g5+ 
3. Kg3 Qh4# *

[Event "Mate - Anastasia's, Mate - Dovetail (+3, -0), Pin (+1, -0) "]
[Date "1333.??.??"]
[Site "73012"]
[FEN "6k1/p5p1/2p2qN1/7p/1K2Q1P1/PR5P/2P2r2/5r2 w - - 1 1"]

1. Qe8+
( 1. Qe8+ Kh7 2. Qh8+ Kxg6 3. Qxh5# )
1... Qf8+ 
2. Ne7+ Kh7 
3. Qxh5# *

[Event "Exposed King, Mate - Dovetail - Bishop, Coercion (+3, -2) "]
[Date "1335.??.??"]
[Site "34235"]
[FEN "7b/7P/4k3/1pBbq3/1P1pB3/5Q2/5PK1/8 w - - 0 1"]

1. Qg4+
( 1. Qg4+ Kf6 2. Qg6# )
1... Kf7 
2. Qg6# *

[Event "Exposed King, Mate - Dovetail (+1, -0) "]
[Date "1336.??.??"]
[Site "27549"]
[FEN "5Q2/1q2r3/1p2k1r1/3pP3/3B4/1PP5/1K3R2/8 w - - 1 1"]

1. Qf5#
( 1. Qf5# ) *

[Event "Exposed King, Coercion, Mate - Dovetail "]
[Date "1338.??.??"]
[Site "74387"]
[FEN "1n3rk1/Q4ppp/4p3/2pP4/bqP4P/2R1BPb1/PP1K2P1/5B1R b - - 0 1"]

1... Qxb2+
( 1... Qxb2+ 2. Kd3 Qb1+ 3. Kd2 Qd1# )
2. Kd3 Qb1+ 
3. Ke2 Qd1# *

[Event "Exposed King, Coercion, Mate - Dovetail, Attraction (+9, -6) "]
[Date "1340.??.??"]
[Site "63589"]
[FEN "r6r/pb2Q1p1/1pp4p/3k1p2/8/1P6/P1P2P1P/1K6 w - - 0 1"]

1. c4+
( 1. c4+ Kd4 2. Qe3# )
1... Kd4 
2. Qe3# *

[Event "Attraction, Sacrifice, Exposed King, Mate - Dovetail - Bishop "]
[Date "1342.??.??"]
[Site "45873"]
[FEN "r2q1r2/pb2b1k1/1p1p2p1/4p1P1/2B1nP2/2N1B3/PPPQ4/2K4R w - - 1 1"]

1. Rh7+
( 1. Rh7+ Kxh7 2. Qh2+ Kg7 3. Qh6# )
1... Kxh7 
2. Qh2+ Kg7 
3. Qh6# *

[Event "Discovered Attack, Exposed King, Coercion, Mate - Dovetail (+1, -0) "]
[Date "1345.??.??"]
[Site "92582"]
[FEN "6k1/3Q4/1pp2q1p/p5p1/P1bb4/2N4P/1PP3P1/4B2K b - - 0 1"]

1... Qf1+
( 1... Qf1+ 2. Kh2 Bg1+ 3. Kh1 Bf2+ 4. Kh2 Qg1# )
2. Kh2 Bg1+ 
3. Kh1 Bf2+ 
4. Kh2 Qg1# *

[Event "Exposed King, Sacrifice, Mate - Dovetail, Coercion (+2, -0) "]
[Date "1348.??.??"]
[Site "17727"]
[FEN "r1q2r2/4bNk1/p2pb1p1/2pP4/2p2Q1P/2N5/PP5B/1K4R1 w - - 0 1"]

1. Qh6+
( 1. Qh6+ Kxf7 2. Qxg6# )
1... Kxf7 
2. Qxg6# *

[Event "Distraction, Clearance, Mate - Dovetail, Sacrifice, Exposed King "]
[Date "1348.??.??"]
[Site "8849"]
[FEN "1R1r2k1/6p1/2p5/2Pn3p/7P/4P1B1/2Q1KP2/7q b - - 1 1"]

1... Nc3+
( 1... Nc3+ 2. Qxc3 Qd1# )
2. Qxc3 Qd1# *

[Event "Coercion, Exposed King, Mate - Dovetail, Weak Back Rank (+1, -0) "]
[Date "1348.??.??"]
[Site "96176"]
[FEN "q2r2k1/5ppp/8/2R1P3/2Q5/4B1PP/5P1n/4K3 b - - 1 1"]

1... Qh1+
( 1... Qh1+ 2. Ke2 Qf1# )
2. Ke2 Qd1# *

[Event "Fork/Double Attack, Exposed King, Capturing Defender, Coercion, Mate - Dovetail (+2, -1) "]
[Date "1349.??.??"]
[Site "73477"]
[FEN "r7/3kb1p1/4p3/p2pP3/3q4/8/2Q2PPP/2R3K1 w - - 0 1"]

1. Qc6+
( 1. Qc6+ Kd8 2. Qxa8+ Kd7 3. Qc8# )
1... Kd8 
2. Qxa8+ Kd7 
3. Qc8# *

[Event "Mate - Dovetail, Exposed King, Coercion "]
[Date "1350.??.??"]
[Site "103328"]
[FEN "5k2/4rP1p/P1pQ1p2/7q/1r6/2n1p3/2P4P/6RK w - - 0 1"]

1. Qd8+
( 1. Qd8+ Kxf7 2. Qg8# )
1... Kxf7 
2. Qg8# *

[Event "Exposed King, Mate - Dovetail, Coercion (+5, -2) "]
[Date "1351.??.??"]
[Site "45559"]
[FEN "6k1/pp1Q1p2/3P4/3Bq3/6P1/3R3P/P5K1/3nr3 b - - 1 1"]

1... Qe2+
( 1... Qe2+ 2. Kg3 Qf2# )
2. Kg3 Qf2# *

[Event "Sacrifice, Exposed King, Attraction, Coercion, Mate - Dovetail - Bishop "]
[Date "1355.??.??"]
[Site "35581"]
[FEN "5Q2/3b1ppk/7p/1p6/2pBn1P1/2P1K3/2q5/3R4 b - - 1 1"]

1... Qf2+
( 1... Qf2+ 2. Kxe4 Bc6+ 3. Ke5 Qf6# )
2. Kxe4 Bc6+ 
3. Ke5 Qf6# *

[Event "Distraction, Sacrifice, Exposed King, Blocking, Mate - Dovetail "]
[Date "1355.??.??"]
[Site "40263"]
[FEN "4QR2/1p2r1qk/p1np2p1/4p2p/P3P2N/2P1b3/BP4PP/7K w - - 1 1"]

1. Rh8+
( 1. Rh8+ Qxh8 2. Qxg6# )
1... Qxh8 
2. Qxg6# *

[Event "Discovered Attack, Interference, Exposed King, Mate - Dovetail - Bishop "]
[Date "1355.??.??"]
[Site "63251"]
[FEN "r4rk1/7p/pb1p2p1/1p1Pp2q/1P2PP2/6Pb/P1N1B2K/R2QR3 b - - 0 1"]

1... Bg4+
( 1... Bg4+ 2. Kg2 Qh3# )
2. Kg2 Qh3# *

[Event "Double Check, Mate - Dovetail - Bishop, Discovered Attack, Sacrifice, Attraction, Mate - Dovetail (+5, -2) "]
[Date "1359.??.??"]
[Site "94909"]
[FEN "r3n2k/2r1q3/3p1bpB/4p2Q/1p2P3/1B5R/PP5P/1K6 w - - 0 1"]

1. Bg7+
( 1. Bg7+ Kxg7 2. Qh6# )
1... Kxg7 
2. Qh6# *

[Event "Exposed King, Attraction, Mate - Dovetail, Sacrifice, Coercion "]
[Date "1360.??.??"]
[Site "38656"]
[FEN "5k2/4Np1p/4p3/1q3p2/3Q1P1b/2PR3P/r5PK/8 w - - 1 1"]

1. Qh8+
( 1. Qh8+ Kxe7 2. Qd8# )
1... Kxe7 
2. Qd8# *

[Event "Attraction, Exposed King, Mate - Dovetail - Bishop, Sacrifice (+1, -0) "]
[Date "1360.??.??"]
[Site "90928"]
[FEN "r2q2nr/ppp4p/1b1p2p1/n2P1kN1/4b3/2Q5/P4PPP/R1B2RK1 w - - 1 1"]

1. g4+
( 1. g4+ Kxg4 2. Qh3# )
1... Kxg4 
2. Qh3# *

[Event "Exposed King, Coercion, Mate - Damiano's, Mate - Dovetail "]
[Date "1365.??.??"]
[Site "29015"]
[FEN "2b3k1/pp3p1p/2pr2qB/3P1p2/PPP3p1/6P1/3QBP2/6RK b - - 0 1"]

1... Qh5+
( 1... Qh5+ 2. Kg2 Qh3# )
2. Kg2 Qh3# *

[Event "Exposed King, Mate - Dovetail, Interference (+4, -2) "]
[Date "1365.??.??"]
[Site "58110"]
[FEN "3r1k2/1pr2p2/4b1p1/pP6/4N2Q/P3qP2/1bP3P1/1K3B1R w - - 0 1"]

1. Qxd8+
( 1. Qxd8+ Kg7 2. Qh8# )
1... Kg7 
2. Qh8# *

[Event "Pin, Exposed King, Sacrifice, Clearance, Mate - Dovetail, Blocking (+1, -0), Coercion (+1, -0) "]
[Date "1366.??.??"]
[Site "73699"]
[FEN "R6r/4q1kp/4pb1R/1p1p2pQ/1P1P4/7P/5P2/7K w - - 1 1"]

1. Rg6+
( 1. Rg6+ hxg6 2. Qxh8+ Kf7 3. Qg8# )
1... hxg6 
2. Qxh8+ Kf7 
3. Qg8# *

[Event "Mate - Dovetail, Exposed King "]
[Date "1368.??.??"]
[Site "56878"]
[FEN "6k1/p4p1p/3r1q2/6p1/PN1pK3/1P2n1PP/1Q2P3/3R1R2 b - - 1 1"]

1... Qg6+
( 1... Qg6+ 2. Ke5 Qe6# )
2. Rf5 Qxf5# *

[Event "Exposed King, Coercion, Mate - Dovetail (+3, -0), Advanced Pawn (+6, -9), Mate - Swallow's Tail (+3, -6) "]
[Date "1369.??.??"]
[Site "35594"]
[FEN "6k1/p3Pp1p/5qp1/Pp2r3/5b2/2P2Q1P/1P1R1PP1/6K1 w - - 1 1"]

1. Qa8+
( 1. Qa8+ Kg7 2. Qf8# )
1... Kg7 
2. Qf8# *

[Event "Double Check, Exposed King, Attraction, Mate - Dovetail - Bishop, Coercion (+4, -2) "]
[Date "1370.??.??"]
[Site "100819"]
[FEN "2b1Qrk1/2q4p/p3p1P1/3p4/8/2B1b3/P1r4P/K2R2R1 w - - 0 1"]

1. gxh7+
( 1. gxh7+ Kxh7 2. Qg6# )
1... Kxh7 
2. Qg6# *

[Event "Sacrifice, Mate - Dovetail - Bishop "]
[Date "1371.??.??"]
[Site "143464"]
[FEN "6kr/p4R2/6p1/2pq4/3bP1p1/3P1RP1/2P4P/4Q2K b - e3 0 1"]

1... Rxh2+
( 1... Rxh2+ 2. Kxh2 Qh5+ 3. Kg2 Qh3# )
2. Kxh2 Qh5+ 
3. Kg2 Qh3# *

[Event "Exposed King, Sacrifice, Mate - Dovetail - Bishop "]
[Date "1372.??.??"]
[Site "39754"]
[FEN "r3B1k1/pp2qp1p/6pn/8/Q2b4/2N2bK1/PP5P/R3R3 b - - 1 1"]

1... Qg5+
( 1... Qg5+ 2. Kxf3 Qg4# )
2. Kxf3 Qg4# *

[Event "Exposed King, Coercion, Mate - Dovetail, Attraction "]
[Date "1374.??.??"]
[Site "55452"]
[FEN "4r3/4kp1p/4q3/p4Q2/1p5P/8/PP3P2/K2R4 w - - 1 1"]

1. Qc5+
( 1. Qc5+ Kf6 2. Qg5# )
1... Kf6 
2. Qg5# *

[Event "Exposed King, Coercion, Mate - Dovetail "]
[Date "1375.??.??"]
[Site "77397"]
[FEN "1r3r2/p4p1p/1n1Qp1p1/1k1pP3/8/3N3P/5PP1/6K1 w - - 1 1"]

1. Qc5+
( 1. Qc5+ Ka6 2. Nb4+ Kb7 3. Qc6# )
1... Ka6 
2. Nb4+ Kb7 
3. Qc6# *

[Event "Distraction, Sacrifice, Overloading, Blocking, Mate - Dovetail "]
[Date "1377.??.??"]
[Site "43473"]
[FEN "2r4k/1b5p/4p1p1/1p4P1/1P3P2/p2Q1nP1/PqN2K2/1R3R2 b - - 0 1"]

1... Rxc2+
( 1... Rxc2+ 2. Ke3 Re2+ 3. Qxe2 Qd4# )
2. Ke3 Re2+ 
3. Qxe2 Qd4# *

[Event "Pin, Exposed King, Mate - Dovetail - Bishop "]
[Date "1377.??.??"]
[Site "52296"]
[FEN "4k3/5p2/p2Qbr2/1p1p4/3b1N2/5KP1/PP4Nq/4R3 b - - 1 1"]

1... Qh5+
( 1... Qh5+ 2. g4 Qxg4# )
2. g4 Qxg4# *

[Event "Exposed King, Coercion, Mate - Dovetail "]
[Date "1382.??.??"]
[Site "61741"]
[FEN "5k2/1r3p2/b2p2p1/p1pP4/P3N1PQ/3n1BP1/1q3PK1/7R w - - 1 1"]

1. Qd8+
( 1. Qd8+ Kg7 2. Qh8# )
1... Kg7 
2. Qh8# *

[Event "Sacrifice, Exposed King, Coercion, Mate - Dovetail, Distraction (+1, -0), Different Opponent Move (1...Kg7 (+2, -0)) "]
[Date "1384.??.??"]
[Site "103976"]
[FEN "r1n2r2/pp1bqn2/3p3k/2pP2N1/2P2pP1/8/PPQNB3/2KR4 w - - 1 1"]

1. Rh1+
( 1. Rh1+ Kxg5 2. Nf3+ Kf6 3. g5+ Nxg5 4. Rh6+ Kf7 5. Qg6# )
1... Kxg5 
2. Nf3+ Kf6 
3. g5+ Nxg5 
4. Rh6+ Kf7 
5. Qg6# *

[Event "Exposed King, Coercion, Mate - Dovetail, Advanced Pawn (+6, -4) "]
[Date "1384.??.??"]
[Site "72260"]
[FEN "1r6/8/1q1Pk1p1/2p1pp2/2nbN2Q/7P/6P1/2B2R1K w - - 1 1"]

1. Qe7+
( 1. Qe7+ Kd5 2. Nf6+ Kc6 3. Qd7# )
1... Kd5 
2. Nf6+ Kc6 
3. Qd7# *

[Event "Sacrifice, Attraction, Mate - Dovetail, Clearance (+3, -1) "]
[Date "1384.??.??"]
[Site "95826"]
[FEN "8/Q7/p2ppkr1/5p2/2P2P2/qP4rP/P2RR1P1/5K2 w - - 1 1"]

1. Rxe6+
( 1. Rxe6+ Kxe6 2. Re2+ Re3 3. Rxe3+ Kf6 4. Qe7# )
1... Kxe6 
2. Re2+ Re3 
3. Rxe3+ Kf6 
4. Qe7# *

[Event "Mate - Dovetail (+2, -0), Coercion (+1, -0) "]
[Date "1385.??.??"]
[Site "162933"]
[FEN "4r1k1/1p3p2/2p2Q2/4P2p/p6P/P2R4/1q3PK1/8 w - - 1 1"]

1. Rg3+
( 1. Rg3+ Kf8 2. Qh6+ Ke7 3. Qd6# )
1... Kf8 
2. Qh6+ Ke7 
3. Qd6# *

[Event "Exposed King, Mate - Dovetail "]
[Date "1385.??.??"]
[Site "64151"]
[FEN "8/8/Q7/8/5p2/2P5/1KP1q3/3k4 w - - 1 1"]

1. Qa1+
( 1. Qa1+ Kd2 2. Qc1# )
1... Kd2 
2. Qc1# *

[Event "Exposed King, Mate - Dovetail, Coercion (+4, -2), Discovered Attack (+2, -1) "]
[Date "1386.??.??"]
[Site "25788"]
[FEN "6r1/3rkp2/3q1np1/p1p1P3/Pp3pP1/1P3P2/R3KQ2/2N1R3 b - - 0 1"]

1... Qa6+
( 1... Qa6+ 2. Nd3 Qxd3# )
2. Nd3 Qxd3# *

[Event "Advanced Pawn, Double Check, Discovered Attack, Exposed King, Overloading, Mate - Dovetail "]
[Date "1389.??.??"]
[Site "48211"]
[FEN "3r2k1/p1p2p1p/Br2PQp1/1p6/8/2P4P/PP3PP1/3qR1K1 w - - 0 1"]

1. exf7+
( 1. exf7+ Kf8 2. Qe7+ Kg7 3. f8=Q# )
1... Kf8 
2. Qe7+ Kg7 
3. f8=Q# *

[Event "Exposed King, Coercion, Quiet Move, Mate - Dovetail "]
[Date "1391.??.??"]
[Site "144012"]
[FEN "8/1p3p1k/1Q3P1p/3pq1r1/P7/5RP1/1P3P1K/8 b - - 1 1"]

1... Rh5+
( 1... Rh5+ 2. Kg2 Qe1 3. g4 Qh1+ 4. Kg3 Qh2# )
2. Kg2 Qe1 
3. g4 Qh1+ 
4. Kg3 Qh2# *

[Event "Sacrifice, Exposed King, Capturing Defender, Mate - Dovetail - Bishop (+5, -3) "]
[Date "1391.??.??"]
[Site "40331"]
[FEN "1r3r1k/7p/3p2p1/1b1Np3/1N2Q2b/2P3Pq/1P3P2/R3R1K1 b - - 0 1"]

1... Rxf2
( 1... Rxf2 2. Qh1 Qxg3+ 3. Qg2 Qxg2# )
2. Qh1 Qxg3+ 
3. Qg2 Qxg2# *

[Event "Coercion, Exposed King, Mate - Dovetail "]
[Date "1392.??.??"]
[Site "95716"]
[FEN "8/5r1k/1R4p1/1B1Q1p1p/P7/5PK1/3p2P1/7q b - - 1 1"]

1... f4+
( 1... f4+ 2. Kf2 Qe1# )
2. Kf2 Qe1# *

[Event "Sacrifice, Exposed King, Mate - Hook, Mate - Dovetail (+4, -1) "]
[Date "1395.??.??"]
[Site "748"]
[FEN "2r3r1/p1pb2p1/1p2p1k1/3pQpN1/5PP1/2Bq4/P6P/4R2K w - - 0 1"]

1. Qxe6+
( 1. Qxe6+ Bxe6 2. Rxe6# )
1... Bxe6 
2. Rxe6# *

[Event "Sacrifice, Mate - Dovetail, Clearance, Exposed King, Attraction "]
[Date "1396.??.??"]
[Site "74513"]
[FEN "r3kr2/ppp1n1pR/4Pp2/4q1p1/8/8/PP2QPPP/3R2K1 w q - 1 1"]

1. Qh5+
( 1. Qh5+ g6 2. Rxe7+ Kxe7 3. Qh7+ Kxe6 4. Qd7# )
1... g6 
2. Rxe7+ Kxe7 
3. Qh7+ Kxe6 
4. Qd7# *

[Event "Sacrifice, Mate - Dovetail "]
[Date "1398.??.??"]
[Site "103805"]
[FEN "3qr2r/pbpQ4/1p1p3k/3PbR1p/2P5/P5P1/1PB4P/R6K w - - 1 1"]

1. Rxh5+
( 1. Rxh5+ Kxh5 2. Qf7+ Kg5 3. Qg6# )
1... Kxh5 
2. Qf7+ Kg4 
3. Qf5# *

[Event "Coercion, Exposed King, Mate - Dovetail "]
[Date "1400.??.??"]
[Site "33581"]
[FEN "6r1/1q1pQ2p/1p1P2p1/1p3k2/8/7P/rP3PP1/6K1 w - - 1 1"]

1. g4+
( 1. g4+ Kf4 2. Qe3# )
1... Kf4 
2. Qe3# *

[Event "Exposed King, Quiet Move, Mate - Triangle, Mate - Dovetail (+5, -3) "]
[Date "1402.??.??"]
[Site "46485"]
[FEN "1nQ1q2r/6R1/p2p1k1B/1p1Pp3/PP6/8/2P2P2/5K2 w - - 1 1"]

1. Qg4
( 1. Qg4 Rxh6 2. Qg5# )
1... Rxh6 
2. Qg5# *

[Event "Exposed King, Mate - Dovetail, Coercion, X-Ray Attack (+6, -3) "]
[Date "1404.??.??"]
[Site "76225"]
[FEN "k3r3/p7/Rqp4p/3p4/3P1Q2/P1nB4/2P5/2K5 b - - 1 1"]

1... Qb1+
( 1... Qb1+ 2. Kd2 Qe1# )
2. Kd2 Qe1# *

[Event "Exposed King, Mate - Dovetail (+4, -1) "]
[Date "1404.??.??"]
[Site "90359"]
[FEN "3r3k/4b1pp/pp6/4p3/1PK1P3/2Q1P1PP/P4q2/2R4R b - - 1 1"]

1... Qf7#
( 1... Qf7# ) *

[Event "Exposed King, Coercion, Mate - Dovetail - Bishop "]
[Date "1404.??.??"]
[Site "98147"]
[FEN "4Q3/p3r1p1/1r2kbN1/q2p4/3P4/6B1/PP3P2/1K1R4 w - - 1 1"]

1. Nf8+
( 1. Nf8+ Kf5 2. Qg6# )
1... Kf5 
2. Qg6# *

[Event "Discovered Attack, Defensive Move, Exposed King, Attraction (+4, -1), Mate - Dovetail (+2, -0) "]
[Date "1405.??.??"]
[Site "45506"]
[FEN "8/p3R1kp/q2p1pp1/8/1p1Q4/2n5/b1P3PP/K1N5 b - - 1 1"]

1... Bf7+
( 1... Bf7+ 2. Kb2 Qa3# )
2. Kb2 Qa3# *

[Event "Exposed King, Discovered Attack, Coercion, Mate - Damiano's Bishop, Mate - Dovetail "]
[Date "1406.??.??"]
[Site "51713"]
[FEN "2kr4/2p5/7Q/1p2pP2/1q6/7P/5BP1/6K1 w - - 0 1"]

1. Qa6+
( 1. Qa6+ Kb8 2. Ba7+ Ka8 3. Bb6+ Kb8 4. Qa7+ Kc8 5. Qxc7# )
1... Kb8 
2. Ba7+ Ka8 
3. Bb6+ Kb8 
4. Qa7+ Kc8 
5. Qxc7# *

[Event "Exposed King, Mate - Dovetail (+1, -0) "]
[Date "1407.??.??"]
[Site "94713"]
[FEN "8/p6k/6pp/3Q1p2/N2p1K2/1P3P1P/P4q2/8 b - - 1 1"]

1... Qh2#
( 1... Qh2# ) *

[Event "Exposed King, Coercion, Mate - Dovetail "]
[Date "1408.??.??"]
[Site "77071"]
[FEN "8/3Q4/4pp2/1pk4p/7P/3pPP1q/1P3K2/8 w - - 1 1"]

1. Qc7+
( 1. Qc7+ Kb4 2. Qc3+ Ka4 3. Qa3# )
1... Kd5 
2. e4+ Kd4 
3. Qc3# *

[Event "Exposed King, Mate - Dovetail "]
[Date "1410.??.??"]
[Site "100715"]
[FEN "2b5/p2p1kpQ/3P3p/4P1b1/5q2/2PB1N2/2K5/8 w - - 1 1"]

1. Bg6+
( 1. Bg6+ Ke6 2. Qg8+ Qf7 3. Qxf7# )
1... Ke6 
2. Qg8+ Qf7 
3. Qxf7# *

[Event "Capturing Defender, Exposed King, Coercion (+5, -2), Mate - Dovetail (+1, -0), Mate - Escalator (+1, -0) "]
[Date "1413.??.??"]
[Site "94607"]
[FEN "2r3k1/6pp/p2p4/1p6/1p2P3/1PNK1bQ1/1BP3qP/R7 b - - 1 1"]

1... Rxc3+
( 1... Rxc3+ 2. Bxc3 Qe2+ 3. Kd4 Qxe4# )
2. Bxc3 Qe2+ 
3. Kd4 Qxe4# *

[Event "Sacrifice, Distraction, Mate - Dovetail, Exposed King, Attraction, Weak Back Rank (+5, -2), Coercion (+2, -0) "]
[Date "1415.??.??"]
[Site "78377"]
[FEN "4r1k1/b2N1pp1/8/p2P3p/Pp3P2/6Pq/Q1B2P1P/5RK1 b - - 0 1"]

1... Bxf2+
( 1... Bxf2+ 2. Rxf2 Re1+ 3. Rf1 Rxf1# )
2. Kxf2 Qxh2+ 
3. Kf3 Qe2# *

[Event "Exposed King, Mate - Dovetail, Clearance, Distraction "]
[Date "1421.??.??"]
[Site "65429"]
[FEN "5Q2/1b6/p1q3p1/2p1p1kp/Pp5b/1B4n1/1PP2PPP/3N1RK1 w - - 1 1"]

1. f4+
( 1. f4+ exf4 2. Qxf4# )
1... exf4 
2. Qxf4# *

[Event "Exposed King, Coercion, Mate - Dovetail "]
[Date "1423.??.??"]
[Site "57518"]
[FEN "3qk3/p1r5/1p1p1P2/3Pp1Q1/P1r5/2P5/6K1/R7 w - - 1 1"]

1. Qg8+
( 1. Qg8+ Kd7 2. Qe6# )
1... Kd7 
2. Qe6# *

[Event "Sacrifice, Attraction, Mate - Dovetail, Exposed King, Blocking "]
[Date "1424.??.??"]
[Site "77777"]
[FEN "r5q1/pp1b1kr1/2p2p2/2Q5/2PpB3/1P4NP/P4P2/4RK2 w - - 1 1"]

1. Bg6+
( 1. Bg6+ Rxg6 2. Qe7# )
1... Kxg6 
2. Qh5# *

[Event "Discovered Attack, Exposed King, Mate - Dovetail "]
[Date "1424.??.??"]
[Site "96114"]
[FEN "4r3/QP3k2/3p2q1/3P1p2/2p2Pn1/2P4R/6B1/6K1 b - - 0 1"]

1... Re1+
( 1... Re1+ 2. Bf1 Ne3+ 3. Kf2 Rxf1+ 4. Kxe3 Qg1+ 5. Ke2 Qg2+ 6. Ke3 Qf2# )
2. Bf1 Ne3+ 
3. Kf2 Rxf1+ 
4. Kxe3 Qg1+ 
5. Kd2 Qg2+ 
6. Ke3 Qf2# *

[Event "Mate - Dovetail - Bishop (+6, -3), Sacrifice (+1, -0), Exposed King (+1, -0), Coercion (+1, -0), Mate - Pawn (+1, -0), Mate - Hook (+1, -0), Mate - Suffocation (+1, -0), Mate - Swallow's Tail (+1, -0) "]
[Date "1425.??.??"]
[Site "103823"]
[FEN "1q6/6k1/1bP1Q1p1/pp1B2P1/8/8/PP6/5K2 w - - 1 1"]

1. Qd7+
( 1. Qd7+ Kh8 2. Qh3+ Kg7 3. Qh6# )
1... Kh8 
2. Qh3+ Kg7 
3. Qh6# *

[Event "Exposed King, Coercion, Mate - Dovetail "]
[Date "1426.??.??"]
[Site "39216"]
[FEN "5Bk1/7p/2p5/2P2p2/1PP1p2n/5q1P/1Q3P1b/4RK2 b - - 1 1"]

1... Qxh3+
( 1... Qxh3+ 2. Ke2 Qd3# )
2. Ke2 Qd3# *

[Event "Exposed King, Coercion, Mate - Dovetail "]
[Date "1428.??.??"]
[Site "53954"]
[FEN "6k1/R5pp/b3p3/5p2/2pNBP2/4P3/2Q2PKP/1r2q3 b - - 0 1"]

1... Qg1+
( 1... Qg1+ 2. Kf3 Qg4# )
2. Kf3 Qg4# *

[Event "Exposed King, Coercion, Mate - Dovetail "]
[Date "1428.??.??"]
[Site "65503"]
[FEN "8/6kp/1p6/r4p2/1Q1P1R2/4Pp1P/3K1P2/q7 b - - 1 1"]

1... Ra2+
( 1... Ra2+ 2. Kd3 Qf1+ 3. Kc3 Qc1+ 4. Kb3 Qc2# )
2. Kd3 Qf1+ 
3. Kc3 Qc1+ 
4. Kd3 Qc2# *

[Event "Coercion, Exposed King, Zwischenzug, Mate - Swallow's Tail (+5, -3), Mate - Dovetail (+1, -0) "]
[Date "1429.??.??"]
[Site "18619"]
[FEN "2r5/R4p1k/3p2p1/5N1p/3n1P2/2p1B2P/1b3KP1/8 w - - 0 1"]

1. Rxf7+
( 1. Rxf7+ Kg8 2. Nh6+ Kh8 3. Bxd4# )
1... Kg8 
2. Nh6+ Kh8 
3. Bxd4# *

[Event "Exposed King, Sacrifice, Mate - Dovetail (+1, -0) "]
[Date "1429.??.??"]
[Site "65106"]
[FEN "r7/p1qn1pp1/2pb3k/1p4Nb/3P2P1/2P1r2P/P1Q2P2/1R2R1K1 w - - 1 1"]

1. Qh7+
( 1. Qh7+ Kxg5 2. Qf5+ Kh4 3. Qxh5# )
1... Kxg5 
2. Qf5+ Kh4 
3. Qxh5# *

[Event "Mate - Dovetail (+2, -0) "]
[Date "1430.??.??"]
[Site "162925"]
[FEN "8/p5kp/6p1/1pQq2n1/3r2P1/P5N1/1PP4P/1K3R2 w - - 1 1"]

1. Qf8#
( 1. Qf8# ) *

[Event "Exposed King, Mate - Dovetail "]
[Date "1431.??.??"]
[Site "35079"]
[FEN "r6k/3pq2r/2R3Q1/1pP2pR1/8/2P5/4PP1P/6K1 b - - 0 1"]

1... Ra1+
( 1... Ra1+ 2. Kg2 Qe4+ 3. f3 Qxe2+ 4. Kg3 Qxh2# )
2. Kg2 Qe4+ 
3. f3 Qxe2+ 
4. Kg3 Qxh2# *

[Event "Sacrifice, Distraction, Mate - Dovetail, Exposed King, Blocking "]
[Date "1434.??.??"]
[Site "76157"]
[FEN "8/7k/1p6/5p2/1P6/4QKPN/2q5/2r5 b - - 1 1"]

1... Rf1+
( 1... Rf1+ 2. Nf2 Rxf2+ 3. Qxf2 Qe4# )
2. Nf2 Rxf2+ 
3. Qxf2 Qe4# *


[Event "Advanced Pawn, Mate - Dovetail, Distraction "]
[Date "1436.??.??"]
[Site "91899"]
[FEN "5r2/1Q4P1/3qk3/2bppb1B/P6p/7P/P2p4/K1R5 w - - 0 1"]

1. g8=Q+
( 1. g8=Q+ Rxg8 2. Qf7# )
1... Rxg8 
2. Qf7# *

[Event "Pin, Sacrifice, Attraction, Exposed King, Mate - Dovetail, Coercion "]
[Date "1440.??.??"]
[Site "63885"]
[FEN "2rR4/5pkp/p5p1/1p6/1P1R4/1KP5/1P2QP2/rq6 b - - 1 1"]

1... Ra3+
( 1... Ra3+ 2. Kxa3 Qa1+ 3. Kb3 Qa4# )
2. Kxa3 Qa1+ 
3. Kb3 Qa4# *

[Event "Exposed King, Coercion, Mate - Dovetail "]
[Date "1441.??.??"]
[Site "50799"]
[FEN "8/p5k1/4Q1pp/4n3/3q4/1B3pbP/PP3P2/3N2K1 w - - 0 1"]

1. Qe7+
( 1. Qe7+ Kh8 2. Qf8+ Kh7 3. Qg8# )
1... Kh8 
2. Qf8+ Kh7 
3. Qg8# *

[Event "Blocking, Exposed King, Attraction, Mate - Dovetail, Distraction (+2, -1) "]
[Date "1441.??.??"]
[Site "56359"]
[FEN "6R1/1r4Q1/p1pkq3/Pp1p1p2/1P3P2/K3P3/8/8 w - - 1 1"]

1. Rd8+
( 1. Rd8+ Rd7 2. Rxd7+ Qxd7 3. Qe5# )
1... Rd7 
2. Rxd7+ Qxd7 
3. Qe5# *

[Event "Blocking (+1, -0), Mate - Dovetail (+1, -0) "]
[Date "1442.??.??"]
[Site "169385"]
[FEN "4N3/1p2R3/1p3Qpk/3r2q1/8/P3R3/1P2KP2/7r b - - 0 1"]

1... Qg4+
( 1... Qg4+ 2. Qf3 Re1+ 3. Kxe1 Qg1+ 4. Ke2 Qd1# )
2. Qf3 Re1+ 
3. Kxe1 Qg1+ 
4. Ke2 Qd1# *

[Event "Exposed King, Coercion, Mate - Dovetail "]
[Date "1443.??.??"]
[Site "61380"]
[FEN "2Q2R2/2p3pk/3q3p/8/8/3r3P/PP4r1/5R1K w - - 0 1"]

1. Rh8+
( 1. Rh8+ Kg6 2. Qf5# )
1... Kg6 
2. Qf5# *

[Event "Exposed King, Coercion, Mate - Dovetail, Mate - Triangle, Weak Back Rank "]
[Date "1445.??.??"]
[Site "95523"]
[FEN "Rqk4r/2p1b3/2Q3p1/1Pp1Pp2/3p1P2/6P1/P1P5/3KB2q w - - 0 1"]

1. Qe6+
( 1. Qe6+ Kb7 2. Qa6# )
1... Kb7 
2. Qa6# *

[Event "Distraction, Sacrifice, Clearance, Attraction, Mate - Dovetail - Bishop, Exposed King "]
[Date "1446.??.??"]
[Site "63542"]
[FEN "1k1q3r/5pp1/4p3/1Pbb4/4BPp1/3R2P1/1PP1Q2P/4R2K b - - 1 1"]

1... Bxe4+
( 1... Bxe4+ 2. Qxe4 Rxh2+ 3. Kxh2 Qh8+ 4. Qh7 Qxh7+ 5. Kg2 Qh3# )
2. Qxe4 Rxh2+ 
3. Kxh2 Qh8+ 
4. Qh7 Qxh7+ 
5. Kg2 Qh3# *

[Event "Exposed King, Coercion, Mate - Dovetail (+3, -0) "]
[Date "1452.??.??"]
[Site "48714"]
[FEN "1rn4r/p1q2p2/2k1b1p1/P1ppPp1p/2pP3B/Q1P2N2/2P2PPP/1R1K4 w - - 0 1"]

1. Qa4+
( 1. Qa4+ Rb5 2. Qxb5# )
1... Rb5 
2. Qxb5# *

[Event "Clearance, Sacrifice, Exposed King, Mate - Dovetail (+1, -0) "]
[Date "1452.??.??"]
[Site "71055"]
[FEN "3r4/4Q2p/q5pk/1p1p1p2/1PnN1P2/4P1P1/5K1P/8 w - - 1 1"]

1. Nxf5+
( 1. Nxf5+ gxf5 2. Qg5# )
1... gxf5 
2. Qg5# *

[Event "Exposed King, Mate - Dovetail, Coercion "]
[Date "1452.??.??"]
[Site "7304"]
[FEN "8/p1k3q1/1p5p/2p1p2P/3pNp1Q/P2P3b/1PP2K1P/3B4 b - - 0 1"]

1... Qg2+
( 1... Qg2+ 2. Ke1 Qg1+ 3. Kd2 Qe3# )
2. Ke1 Qg1+ 
3. Kd2 Qe3# *

[Event "Exposed King, Coercion, Mate - Dovetail "]
[Date "1452.??.??"]
[Site "89287"]
[FEN "r5k1/ppp2ppp/8/3P1b1q/2P5/2Q2PK1/P4P2/R3B1R1 b - - 1 1"]

1... Qg5+
( 1... Qg5+ 2. Kh2 Qh4+ 3. Kg2 Qh3# )
2. Kh2 Qh4+ 
3. Kg2 Qh3# *

[Event "Exposed King, Coercion, Mate - Dovetail, Attraction (+9, -6) "]
[Date "1454.??.??"]
[Site "61926"]
[FEN "6k1/2p2p2/1p1p1Qp1/7p/1PP2R2/4P1P1/5PKP/rq6 b - - 1 1"]

1... Qf1+
( 1... Qf1+ 2. Kf3 Qh1+ 3. Ke2 Qd1# )
2. Kf3 Qh1+ 
3. Ke2 Qd1# *

[Event "Exposed King, Coercion, Mate - Dovetail (+3, -0) "]
[Date "1455.??.??"]
[Site "93305"]
[FEN "2Q5/8/2K5/4k3/8/4Np1r/1P5P/6q1 w - - 0 1"]

1. Qf5+
( 1. Qf5+ Kd4 2. Nc2+ Kc4 3. Qd5# )
1... Kd4 
2. Nc2+ Kc4 
3. Qb5# *

[Event "Sacrifice, Distraction, Exposed King, Blocking, Mate - Dovetail (+5, -2), Mate - Swallow's Tail (+7, -8) "]
[Date "1461.??.??"]
[Site "59028"]
[FEN "8/7k/1p6/5p2/1P6/4QKP1/2q2N2/5r2 b - - 1 1"]

1... Rxf2+
( 1... Rxf2+ 2. Qxf2 Qe4# )
2. Qxf2 Qe4# *

[Event "Attraction, Sacrifice, Exposed King, Mate - Dovetail (+3, -0) "]
[Date "1461.??.??"]
[Site "89838"]
[FEN "3R4/4r1k1/p3qp2/2p4Q/2P2p2/1B1P1p2/P1P2n2/2K5 b - - 1 1"]

1... Qe1+
( 1... Qe1+ 2. Kb2 Nd1+ 3. Kb1 Nc3+ 4. Kb2 Qb1+ 5. Kxc3 Qa1+ 6. Kd2 Qe1# )
2. Kb2 Nd1+ 
3. Kb1 Nc3+ 
4. Kb2 Qb1+ 
5. Kxc3 Qa1+ 
6. Kd2 Qe1# *

[Event "Sacrifice, Attraction, Mate - Dovetail, Exposed King (+5, -2) "]
[Date "1463.??.??"]
[Site "71129"]
[FEN "5bk1/5pp1/6r1/7Q/2B2P1P/1PB2P1K/4R3/6q1 w - - 1 1"]

1. Bxf7+
( 1. Bxf7+ Kxf7 2. Qd5+ Re6 3. Qxe6# )
1... Kxf7 
2. Qd5+ Re6 
3. Qxe6# *

[Event "Distraction, Sacrifice, Exposed King, Mate - Swallow's Tail (+9, -6), Overloading (+3, -1), Mate - Dovetail (+1, -0) "]
[Date "1467.??.??"]
[Site "58448"]
[FEN "4r3/1p3q2/2p1r2k/P6p/5pQR/1P2n2P/1B4PK/8 w - - 0 1"]

1. Rxh5+
( 1. Rxh5+ Qxh5 2. Qg7# )
1... Qxh5 
2. Qg7# *

[Event "Sacrifice, Attraction, Coercion, Mate - Dovetail (+1, -0) "]
[Date "1468.??.??"]
[Site "99473"]
[FEN "6r1/3R1pk1/4p1p1/2p1P1Q1/2P1bP2/1R1p4/6PP/4qB1K w - - 1 1"]

1. Rxf7+
( 1. Rxf7+ Kxf7 2. Qf6+ Ke8 3. Rb8+ Kd7 4. Qf7+ Kc6 5. Qb7# )
1... Kxf7 
2. Qf6+ Ke8 
3. Rb8+ Kd7 
4. Qf7+ Kc6 
5. Qb7# *

[Event "Distraction, Sacrifice, Mate - Dovetail - Bishop, Clearance (+5, -3) "]
[Date "1472.??.??"]
[Site "103858"]
[FEN "3q2r1/p2b1k2/1pnBp1N1/3p1pQP/6P1/5R2/2r2P2/4RK2 w - - 1 1"]

1. Nh8+
( 1. Nh8+ Rxh8 2. Qg6# )
1... Rxh8 
2. Qg6# *

[Event "Exposed King, Coercion, Mate - Dovetail "]
[Date "1474.??.??"]
[Site "63086"]
[FEN "4r1k1/6pp/p7/1P4q1/3B4/1PPK1p1P/6r1/R2Q1R2 b - - 1 1"]

1... Qf5+
( 1... Qf5+ 2. Kc4 Qxb5# )
2. Kc4 Qxb5# *

[Event "Pin, Exposed King, Mate - Dovetail (+2, -1) "]
[Date "1478.??.??"]
[Site "102041"]
[FEN "r3br1b/pn2Rq1k/R6p/1Ppp1p1N/3p1P2/6QP/1PP2BP1/6K1 w - - 1 1"]

1. Qg6#
( 1. Qg6# ) *

[Event "Exposed King, Mate - Dovetail, Coercion "]
[Date "1482.??.??"]
[Site "77526"]
[FEN "r5k1/6pp/p7/1P4q1/3BK3/1PP2p1P/6r1/R2Q1R2 b - - 0 1"]

1... Re8+
( 1... Re8+ 2. Be5 Qxe5+ 3. Kxf3 Qe4# )
2. Kd3 Qf5+ 
3. Kc4 Qxb5# *

[Event "Sacrifice, Distraction, Attraction, Exposed King, Mate Threat, Mate - Dovetail (+2, -1), Different Opponent Move (2.Kxa3) "]
[Date "1482.??.??"]
[Site "92239"]
[FEN "2r3k1/2q2ppp/3R4/rp4P1/4p3/1KQ1P3/1P3P2/3R4 b - - 1 1"]

1... Ra3+
( 1... Ra3+ 2. bxa3 Qxc3+ 3. Ka2 Qc2+ 4. Ka1 h5 5. R1d2 Qc1+ 6. Ka2 Rc2+ 7. Rxc2 Qxc2+ 8. Ka1 Qxf2 9. Kb1 )
2. bxa3 Qxc3+ *

[Event "Advanced Pawn, Attraction, Mate - Dovetail, Zwischenzug (+1, -0) "]
[Date "1491.??.??"]
[Site "80320"]
[FEN "k7/1p5p/p1q3pb/P4p2/2P1r2P/1PBQ2P1/3p1P2/3R1K2 b - - 1 1"]

1... Re1+
( 1... Re1+ 2. Rxe1 Qh1+ 3. Ke2 Qxe1+ 4. Kf3 d1=Q+ 5. Qxd1 Qe4# )
2. Rxe1 Qh1+ 
3. Ke2 Qxe1+ 
4. Kf3 d1=Q+ 
5. Qxd1 Qe4# *

[Event "Exposed King, Coercion, Mate - Dovetail "]
[Date "1492.??.??"]
[Site "75482"]
[FEN "8/5kB1/3p4/1p3q1p/7P/KPPn2Q1/P7/8 b - - 1 1"]

1... Qc5+
( 1... Qc5+ 2. b4 Qa7+ 3. Kb3 Qa4# )
2. b4 Qa7+ 
3. Kb3 Qa4# *

[Event "Sacrifice, Attraction, Exposed King, Mate - Dovetail "]
[Date "1493.??.??"]
[Site "49065"]
[FEN "8/1p5k/2pbR1n1/p2p2p1/6B1/2P4P/PP2Q1K1/2q5 b - - 1 1"]

1... Nh4+
( 1... Nh4+ 2. Kf2 Bg3+ 3. Kxg3 Qf4# )
2. Kf2 Bg3+ 
3. Kxg3 Qf4# *

[Event "Exposed King, Mate - Dovetail - Bishop, Coercion, Interference, Mate - Dovetail (+4, -5) "]
[Date "1493.??.??"]
[Site "62653"]
[FEN "k2r2r1/pp6/2p4q/3BPR1p/3PQ3/8/PP2K1PB/2b2R2 b - - 0 1"]

1... Qd2+
( 1... Qd2+ 2. Kf3 Qxg2# )
2. Kf3 Qxg2# *

[Event "Exposed King, Coercion, Mate - Dovetail "]
[Date "1495.??.??"]
[Site "102295"]
[FEN "2R5/1p2b1kp/4B1p1/r2Pp3/3qP3/6P1/7P/5Q1K w - - 1 1"]

1. Rg8+
( 1. Rg8+ Kh6 2. Qh3+ Kg5 3. Qh4# )
1... Kh6 
2. Qh3+ Kg5 
3. Qh4# *

[Event "Fork/Double Attack, Pin, Mate Threat, Exposed King, Sacrifice, Mate - Dovetail, Clearance"]
[Date "1502.??.??"]
[Site "47490"]
[FEN "r1b4r/1pk3p1/p3p1Q1/3pP1Pp/5q2/2N5/PP3PP1/4R1K1 w - - 0 1"]

1. Nxd5+
( 1. Nxd5+ Kc6 2. Nxf4 Kb6 3. Qxg7 Rd8 4. Qe7 Rd7 5. Qxe6+ Ka7 6. Qh3 Rd6 7. e6 Rb6 8. Re2 )
1... Kb8 
2. Nxf4 *

[Event "Sacrifice, Exposed King, Clearance, Mate - Dovetail - Bishop "]
[Date "1504.??.??"]
[Site "44051"]
[FEN "2bk3N/1p1p3p/3bn1p1/4r3/6P1/5Q1K/PPq4P/R1B2R2 b - - 1 1"]

1... Rh5+
( 1... Rh5+ 2. gxh5 Qxh2+ 3. Kg4 Qxh5# )
2. gxh5 Qxh2+ 
3. Kg4 Qxh5# *

[Event "Mate - Dovetail, Exposed King, Coercion "]
[Date "1507.??.??"]
[Site "101076"]
[FEN "2Nn4/1p2Qp2/p1k3p1/3p4/3P4/P7/1P2r3/3KB2q w - - 0 1"]

1. Na7+
( 1. Na7+ Kb6 2. Qc5# )
1... Kb6 
2. Qc5# *

[Event "Exposed King, Coercion, Mate - Dovetail "]
[Date "1507.??.??"]
[Site "38700"]
[FEN "6RQ/1pq2r2/4p3/p1p1pk2/PbP4P/1P4P1/5P2/6K1 w - - 1 1"]

1. Qh5+
( 1. Qh5+ Ke4 2. Qe2+ Kd4 3. Qe3# )
1... Ke4 
2. Qe2+ Kd4 
3. Qe3# *

[Event "Clearance, Distraction, Mate Threat, Quiet Move, Mate - Dovetail - Bishop (+3, -0), Attraction (+1, -0), Zwischenzug (+1, -0) "]
[Date "1509.??.??"]
[Site "146381"]
[FEN "6k1/4b1p1/2p1p2p/5p2/1qb1P3/1P4N1/1PQ3PP/5RK1 b - - 0 1"]

1... Bc5+
( 1... Bc5+ 2. Kh1 Bxf1 3. Qd1 Bb5 4. exf5 exf5 5. Nxf5 Bd3 6. Ng3 Qd4 7. b4 Bxb4 8. Ne2 Qe4 9. Nc3 Qe3 10. Qa1 )
2. Kh1 Bxf1 *

[Event "Discovered Attack, Clearance, Exposed King, Mate - Dovetail - Bishop, Sacrifice, Pin, Fork/Double Attack "]
[Date "1509.??.??"]
[Site "24686"]
[FEN "4k3/p2rbp1p/6rB/1QqN1p2/2P5/8/PP4PP/3R3K w - - 1 1"]

1. Nf6+
( 1. Nf6+ Bxf6 2. Qxd7# )
1... Bxf6 
2. Qxd7# *

[Event "Exposed King, Coercion, Mate - Dovetail - Bishop (+2, -1) "]
[Date "1509.??.??"]
[Site "55168"]
[FEN "2r2k2/p1r5/4p1p1/q1Pp4/B2Q4/8/P5PP/2R4K w - - 0 1"]

1. Qh8+
( 1. Qh8+ Ke7 2. Qg7+ Kd8 3. Qf8# )
1... Ke7 
2. Qg7+ Kd8 
3. Qf8# *

[Event "Exposed King, Advanced Pawn, Attraction, Coercion, Mate - Dovetail - Bishop "]
[Date "1518.??.??"]
[Site "89557"]
[FEN "5rk1/4P1p1/p5qr/1p5p/1np1Q3/1P4P1/1B2R2P/6K1 w - - 0 1"]

1. exf8=Q+
( 1. exf8=Q+ Kxf8 2. Qa8+ Kf7 3. Qe8# )
1... Kxf8 
2. Qa8+ Kf7 
3. Qe8# *

[Event "Advanced Pawn, Clearance, Attraction, Mate - Dovetail, Sacrifice "]
[Date "1519.??.??"]
[Site "93480"]
[FEN "1k5r/ppp2p2/3b2p1/PP1Q4/3PnP2/2P2RPq/4B2p/R1B4K b - - 0 1"]

1... Qg2+
( 1... Qg2+ 2. Kxg2 h1=Q# )
2. Kxg2 h1=Q# *

[Event "Exposed King, Coercion, Mate - Dovetail "]
[Date "1520.??.??"]
[Site "99213"]
[FEN "4r3/3b1p1p/4k1pb/2B5/3Q4/7q/PPP2P1P/R3K1R1 w Q - 1 1"]

1. Qe4+
( 1. Qe4+ Kf6 2. Bd4+ Re5 3. Qxe5# )
1... Kf6 
2. Bd4+ Re5 
3. Qxe5# *

[Event "Exposed King, Mate - Dovetail (+1, -0) "]
[Date "1521.??.??"]
[Site "80563"]
[FEN "4nk2/1b6/4Kp2/1P1N2p1/7p/3B3P/6P1/8 b - - 1 1"]

1... Bc8#
( 1... Bc8# ) *

[Event "Exposed King, Coercion, Mate - Dovetail - Bishop (+3, -0) "]
[Date "1522.??.??"]
[Site "50772"]
[FEN "5R2/2rq2kp/pp4p1/2nBb3/3pP1Q1/B2P4/PP4P1/7K w - - 1 1"]

1. Rg8+
( 1. Rg8+ Kf6 2. Qh4+ g5 3. Qxg5# )
1... Kf6 
2. Qh4+ g5 
3. Qxg5# *

[Event "Fork/Double Attack, Mate Threat, Exposed King, Clearance, Distraction, Coercion (+4, -1), Mate - Dovetail (+1, -0), Different Opponent Move (2...cxd4) "]
[Date "1522.??.??"]
[Site "59489"]
[FEN "1R6/2pk2pp/3pq1b1/2p3Q1/2P5/5N1P/P4rPK/8 w - - 1 1"]

1. Rd8+
( 1. Rd8+ Kc6 2. Nd4+ Kb6 3. Nxe6 Be4 4. Nf4 Rc2 5. Qxg7 Bb7 6. Qxh7 Rb2 7. Rb8 Ka7 8. Qxc7 )
1... Kc6 
2. Nd4+ Kb7 
3. Nxe6 *

[Event "Exposed King, Mate - Railroad, Coercion, Mate - Dovetail "]
[Date "1528.??.??"]
[Site "70986"]
[FEN "4R3/pb3p1k/1p3Pp1/2pq1pQp/5P1B/2Pr4/PP5P/6K1 b - - 1 1"]

1... Qh1+
( 1... Qh1+ 2. Kf2 Rf3+ 3. Ke2 Qf1+ 4. Kd2 Rd3+ 5. Kc2 Qd1# )
2. Kf2 Rf3+ 
3. Ke2 Qf1+ 
4. Kd2 Rd3+ 
5. Kc2 Qd1# *

[Event "Attraction, Sacrifice, Exposed King, Unpinning, Mate - Dovetail "]
[Date "1529.??.??"]
[Site "60048"]
[FEN "5r1k/6p1/pB5p/3Q4/4P3/7P/4q1P1/3Rb1K1 b - - 0 1"]

1... Qf1+
( 1... Qf1+ 2. Kh2 Bg3+ 3. Kxg3 Qf4# )
2. Kh2 Bg3+ 
3. Kxg3 Qf4# *

[Event "Distraction, Coercion, Mate - Dovetail, Clearance, Exposed King "]
[Date "1531.??.??"]
[Site "103454"]
[FEN "R7/4Qpkp/4p1P1/3q1r1P/1p6/2b1BP2/P4PK1/8 w - - 1 1"]

1. Qf8+
( 1. Qf8+ Kf6 2. Qh8+ Ke7 3. Bc5+ Qxc5 4. Qd8# )
1... Kf6 
2. Qh8+ Ke7 
3. Bc5+ Qxc5 
4. Qd8# *

[Event "Exposed King, Coercion, Mate - Dovetail "]
[Date "1531.??.??"]
[Site "33603"]
[FEN "8/5Q2/6Rp/1p3n1k/p2q3P/P2r4/5P1K/8 b - - 1 1"]

1... Qxh4+
( 1... Qxh4+ 2. Kg1 Rd1+ 3. Kg2 Qh1# )
2. Kg1 Rd1+ 
3. Kg2 Qh1# *

[Event "Sacrifice, Attraction, Clearance, Exposed King, Mate - Dovetail (+2, -0) "]
[Date "1531.??.??"]
[Site "75882"]
[FEN "2r3k1/3R1p1p/p5p1/1p6/1P1R4/8/KPPQ1P2/4r2q b - - 0 1"]

1... Ra1+
( 1... Ra1+ 2. Kb3 Ra3+ 3. Kxa3 Qa1+ 4. Kb3 Qa4# )
2. Kb3 Ra3+ 
3. Kxa3 Qa1+ 
4. Kb3 Qa4# *

[Event "Exposed King, X-Ray Attack, Coercion, Mate - Dovetail, Mate - Kill Box "]
[Date "1532.??.??"]
[Site "62177"]
[FEN "7r/k4pp1/4p2p/3q2b1/1P1r1n2/7P/1PQ2P2/4R1K1 w - - 0 1"]

1. Qc7+
( 1. Qc7+ Ka6 2. Ra1+ Kb5 3. Ra5+ Kxb4 4. Qc3# )
1... Ka6 
2. Ra1+ Kb5 
3. Ra5+ Kxb4 
4. Qc3# *

[Event "Exposed King, Coercion, Mate - Dovetail - Bishop "]
[Date "1536.??.??"]
[Site "104386"]
[FEN "2kr3r/3n2p1/5n1p/1B2p1B1/1Q2bP2/2P1q3/PP1R2PP/2K4R w - - 0 1"]

1. Ba6+
( 1. Ba6+ Bb7 2. Qxb7# )
1... Kc7 
2. Qd6# *

[Event "Exposed King, Coercion, Mate - Dovetail (+4, -1) "]
[Date "1538.??.??"]
[Site "60281"]
[FEN "4r3/p2K2k1/Pp1P2P1/2p3q1/2P4p/3Q3R/8/8 b - - 1 1"]

1... Qd8+
( 1... Qd8+ 2. Kc6 Qc8+ 3. Kb5 Qd7# )
2. Kc6 Qc8+ 
3. Kb5 Qd7# *

[Event "Discovered Attack, Sacrifice, Distraction, Exposed King, Mate - Dovetail (+2, -0), Blocking (+1, -0) "]
[Date "1542.??.??"]
[Site "99581"]
[FEN "6Q1/8/4pq2/5p2/P3R1Pk/1P3p1B/3r4/6K1 w - - 1 1"]

1. gxf5+
( 1. gxf5+ Kh5 2. Rh4+ Qxh4 3. Qg6# )
1... Kh5 
2. Rh4+ Qxh4 
3. Qg6# *

[Event "Sacrifice, Distraction, Exposed King, Coercion, Mate - Dovetail (+3, -0) "]
[Date "1543.??.??"]
[Site "71465"]
[FEN "8/1p3rk1/2pB1p2/p1P3pQ/P2PR3/7P/3b2PK/2q5 w - - 1 1"]

1. Bf8+
( 1. Bf8+ Kg8 2. Qg6+ Kxf8 3. Qh6+ Rg7 4. Qh8+ Kf7 5. Qe8# )
1... Kg8 
2. Qg6+ Kxf8 
3. Qh6+ Rg7 
4. Qh8+ Kf7 
5. Qe8# *

[Event "Sacrifice, Exposed King, Attraction, Distraction, Mate - Dovetail "]
[Date "1544.??.??"]
[Site "47537"]
[FEN "7r/5pk1/4p3/4P1K1/6P1/5q1P/1Q3R2/8 b - - 1 1"]

1... Rh5+
( 1... Rh5+ 2. Kxh5 Qxh3+ 3. Kg5 Qh6# )
2. Kxh5 Qxh3+ 
3. Kg5 Qh6# *

[Event "Exposed King, Mate - Dovetail - Bishop, Coercion "]
[Date "1546.??.??"]
[Site "44325"]
[FEN "2R1Q3/pp1R3p/6p1/1P5k/5bq1/5n2/P4P2/5K2 b - - 1 1"]

1... Nh2+
( 1... Nh2+ 2. Ke1 Qg1+ 3. Ke2 Qf1# )
2. Ke1 Qg1+ 
3. Ke2 Qf1# *

[Event "Sacrifice, Blocking, Exposed King, Attraction, Mate - Dovetail, Coercion "]
[Date "1547.??.??"]
[Site "42771"]
[FEN "1q3r1k/pp3pR1/2n5/8/3r2Q1/8/PP3PPP/R1B3K1 w - - 1 1"]

1. Rg8+
( 1. Rg8+ Rxg8 2. Qh5+ Kg7 3. Qh6# )
1... Rxg8 
2. Qh5+ Kg7 
3. Qh6# *

[Event "Pin, Sacrifice, Clearance, Attraction, Zwischenzug (+2, -0), Coercion (+2, -0), Mate - Dovetail (+3, -1) "]
[Date "1549.??.??"]
[Site "101432"]
[FEN "r6k/5pp1/3p2PP/2nP4/1q1p4/2r5/PBP5/K2RQ2R b - - 0 1"]

1... Rxa2+
( 1... Rxa2+ 2. Kxa2 Qa4+ 3. Kb1 Qxc2+ 4. Ka2 Ra3+ 5. Kxa3 Qb3# )
2. Kxa2 Qa4+ 
3. Kb1 Qxc2+ 
4. Ka2 Ra3+ 
5. Kxa3 Qa4# *

[Event "Mate - Dovetail, Exposed King, Coercion "]
[Date "1550.??.??"]
[Site "62716"]
[FEN "1k3b2/p5p1/Q1p1p1p1/2P5/N1RK4/1P6/P3q1r1/R7 b - - 1 1"]

1... e5+
( 1... e5+ 2. Kc3 Qd2# )
2. Kc3 Qd2# *

[Event "Sacrifice, Distraction, Exposed King, X-Ray Attack, Mate - Dovetail, Mate - Kill Box, Coercion (+4, -2), Attraction (+3, -2) "]
[Date "1551.??.??"]
[Site "23492"]
[FEN "1k1r4/p4P2/P3p3/1Pp3pp/1pP1Q3/4KP2/3r2Pq/R2R4 b - - 1 1"]

1... R8d3+
( 1... R8d3+ 2. Qxd3 Qf4# )
2. Qxd3 Qf4# *

[Event "Exposed King, Coercion, Mate - Dovetail - Bishop (+2, -0) "]
[Date "1553.??.??"]
[Site "94431"]
[FEN "8/1Qp1Np1k/1p5p/p7/1q6/5Pb1/PR4P1/RK6 b - - 1 1"]

1... Qe1+
( 1... Qe1+ 2. Kc2 Qe2+ 3. Kc3 Be5+ 4. Kb3 Qd3+ 5. Ka4 Qc4+ 6. Ka3 Bd6+ 7. Rb4 Qxb4# )
2. Kc2 Qe2+ 
3. Kc3 Be5+ 
4. Kb3 Qd3+ 
5. Ka4 Qc4+ 
6. Ka3 Bd6+ 
7. Rb4 Qxb4# *

[Event "Attraction, Sacrifice, Exposed King, Coercion, Mate - Dovetail - Bishop "]
[Date "1554.??.??"]
[Site "19201"]
[FEN "r1N2k1r/1p3p2/p2p4/2pP2p1/P2bq1p1/2P2PP1/4B1K1/R2Q1R2 b - - 0 1"]

1... Rh2+
( 1... Rh2+ 2. Kxh2 Qh7+ 3. Kg2 Qh3# )
2. Kxh2 Qh7+ 
3. Kg2 Qh3# *

[Event "Sacrifice, Exposed King, Attraction, Mate - Dovetail, Clearance (+8, -11) "]
[Date "1556.??.??"]
[Site "70760"]
[FEN "1rr1k3/p2R2pp/4N3/2p2P2/1qp1P1nP/6Q1/P1P5/K2R4 w - - 1 1"]

1. Re7+
( 1. Re7+ Kxe7 2. Qd6+ Kf7 3. Qd7+ Kf6 4. Qxg7# )
1... Kxe7 
2. Qd6+ Kf7 
3. Qd7+ Kf6 
4. Qxg7# *

[Event "Exposed King (+1, -0), Mate - Dovetail (+1, -0) "]
[Date "1559.??.??"]
[Site "162872"]
[FEN "8/3n1Q2/pqk1N3/1p2P3/8/1B2P3/Pb3KP1/8 w - - 1 1"]

1. Qf3#
( 1. Qf3# ) *

[Event "Blocking, Distraction, Sacrifice, Discovered Attack, Exposed King, Clearance, Mate - Dovetail "]
[Date "1560.??.??"]
[Site "43069"]
[FEN "2r5/4k1pp/p2p4/BpnPp3/4q3/5Q2/PP1K1bPP/3R1R2 b - - 1 1"]

1... Nb3+
( 1... Nb3+ 2. Qxb3 Rc2+ 3. Qxc2 Qe3# )
2. Qxb3 Rc2+ 
3. Qxc2 Qe3# *

[Event "Exposed King, Mate - Dovetail, Coercion (+3, -1) "]
[Date "1561.??.??"]
[Site "77689"]
[FEN "r1bq1b1r/pppk2pp/8/3Bp3/3P4/2N2Q2/PP3PPP/n1BK3R w - - 1 1"]

1. Qf5+
( 1. Qf5+ Ke7 2. Qxe5+ Kd7 3. Qe6# )
1... Kd6 
2. Qxe5+ Kd7 
3. Qe6# *

[Event "Exposed King, Interference, Mate - Dovetail, Coercion (+2, -0), Sacrifice (+7, -6) "]
[Date "1565.??.??"]
[Site "73405"]
[FEN "r4k2/1prR1p2/4b1p1/pP6/4N2Q/P3qP2/1bP3P1/1K3B1R w - - 0 1"]

1. Rd8+
( 1. Rd8+ Rxd8 2. Qxd8+ Kg7 3. Qh8# )
1... Rxd8 
2. Qxd8+ Kg7 
3. Qh8# *

[Event "Exposed King, Mate - Dovetail "]
[Date "1572.??.??"]
[Site "144668"]
[FEN "7k/6p1/3b4/7P/6p1/1P3p2/P1QqpK2/4N3 b - - 1 1"]

1... Qd4#
( 1... Qd4# ) *

[Event "Clearance, Exposed King, Mate - Dovetail - Bishop "]
[Date "1579.??.??"]
[Site "102194"]
[FEN "2rr2k1/1p2b1pp/pB2N3/4Pp2/P4P2/3q2PP/QP1n4/2R2RK1 b - - 0 1"]

1... Qxg3+
( 1... Qxg3+ 2. Kh1 Qxh3+ 3. Kg1 Nf3+ 4. Kf2 Bh4+ 5. Ke2 Ng1+ 6. Bxg1 Qd3# )
2. Kh1 Qxh3+ 
3. Kg1 Nf3+ 
4. Kf2 Bh4+ 
5. Ke2 Ng1+ 
6. Bxg1 Qd3# *

[Event "Exposed King, Sacrifice, Attraction, Blocking (+4, -1), Mate - Dovetail (+4, -3), Mate - Swallow's Tail (+2, -1) "]
[Date "1579.??.??"]
[Site "87993"]
[FEN "4R3/p2r1q1k/5B1P/6P1/2p4K/3b4/4Q3/8 w - - 1 1"]

1. g6+
( 1. g6+ Kxg6 2. Qh5+ Kxf6 3. Qg5# )
1... Kxg6 
2. Qh5+ Kxf6 
3. Qg5# *

[Event "Exposed King, Coercion, Mate - Dovetail "]
[Date "1582.??.??"]
[Site "38533"]
[FEN "6k1/p4p1p/1p1P1p2/1N4p1/2P2PP1/3Q3P/4BK2/6rq b - - 1 1"]

1... Qh2+
( 1... Qh2+ 2. Ke3 Qxf4# )
2. Ke3 Qxf4# *

[Event "Pin, Exposed King, Sacrifice, Mate - Dovetail "]
[Date "1585.??.??"]
[Site "47570"]
[FEN "3r1b1r/1p1b2pp/pQ2p3/2pk2q1/3n2B1/8/PP3PPP/3RR1K1 w - - 1 1"]

1. Bxe6+
( 1. Bxe6+ Bxe6 2. Qxe6# )
1... Bxe6 
2. Qxe6# *

[Event "Attraction, Double Check, Sacrifice, Discovered Attack, Mate - Dovetail (+2, -0) "]
[Date "1589.??.??"]
[Site "32096"]
[FEN "2r2rk1/p2q1p1p/6n1/3pQ2p/Np1N1Pbb/1P1P4/1BP3RP/R5K1 w - - 1 1"]

1. Qg7+
( 1. Qg7+ Kxg7 2. Nf5+ Kg8 3. Nh6# )
1... Kxg7 
2. Nf5+ Kg8 
3. Nh6# *

[Event "Sacrifice, Fork/Double Attack, Exposed King, Capturing Defender, Clearance, Distraction, Attraction, Coercion, Mate - Dovetail "]
[Date "1590.??.??"]
[Site "78599"]
[FEN "6rk/1R5p/4Pp2/1Q6/1p3Bn1/6P1/q7/5K2 w - - 0 1"]

1. Rxh7+
( 1. Rxh7+ Kxh7 2. Qh5+ Kg7 3. Qxg4+ Kh8 4. Qh3+ Kg7 5. Qh6# )
1... Kxh7 
2. Qh5+ Kg7 
3. Qxg4+ Kh7 
4. Qh5+ Kg7 
5. Qh6# *

[Event "Coercion, Exposed King, Mate - Dovetail "]
[Date "1593.??.??"]
[Site "99137"]
[FEN "1R3b1k/2Q5/p6p/3q4/4bP2/6P1/7P/6K1 b - - 1 1"]

1... Qd1+
( 1... Qd1+ 2. Kf2 Qd2+ 3. Kf1 Bd3+ 4. Kg1 Qe1+ 5. Kg2 Qf1# )
2. Kf2 Qd2+ 
3. Kf1 Bd3+ 
4. Kg1 Qe1+ 
5. Kg2 Qf1# *

[Event "Exposed King, Coercion, Mate - Dovetail - Bishop, Mate - Escalator, Avoiding Perpetual "]
[Date "1594.??.??"]
[Site "74478"]
[FEN "2k1q3/p5rp/2pQ4/3bB3/1P1P4/7P/6PK/8 w - - 0 1"]

1. Qb8+
( 1. Qb8+ Kd7 2. Qc7+ Ke6 3. Qd6+ Kf5 4. Qf6+ Ke4 5. Qf3# )
1... Kd7 
2. Qc7+ Ke6 
3. Qd6+ Kf5 
4. Qf6+ Ke4 
5. Qf3# *

[Event "Mate - Dovetail, Exposed King, Coercion "]
[Date "1594.??.??"]
[Site "75865"]
[FEN "4k3/8/p4Qp1/2p1r3/2Pq4/P3p1P1/5RKP/8 w - - 0 1"]

1. Qf8+
( 1. Qf8+ Kd7 2. Rf7+ Re7 3. Qxe7+ Kc6 4. Qc7# )
1... Kd7 
2. Rf7+ Kc6 
3. Qc8+ Kb6 
4. Qc7# *

[Event "Exposed King, Mate - Dovetail, Coercion, Different Opponent Move (1.Kf3 (+1, -0)) "]
[Date "1597.??.??"]
[Site "59941"]
[FEN "8/1B1kpp1r/1Qp3p1/8/2pP2P1/8/5P1q/4RK2 b - - 1 1"]

1... Qh3+
( 1... Qh3+ 2. Kg1 Qh1# )
2. Ke2 Qd3# *

