[Event "Exposed King, Coercion, Mate - Epaulette (+2, -0) "]
[Date "1210.??.??"]
[Site "51062"]
[FEN "1k2r3/pp6/2p2n2/3p1P1p/3P4/5RKP/PPN1r3/2R5 b - - 1 1"]

1... Rg8+
( 1... Rg8+ 2. Kh4 Re4+ 3. Rf4 Rxf4# )
2. Kh4 Re4+ 
3. Rf4 Rxf4# *

[Event "Attraction, Sacrifice, Exposed King, Mate - Swallow's Tail, Mate - Epaulette (+5, -3) "]
[Date "1213.??.??"]
[Site "106677"]
[FEN "6rk/4p2p/pRp5/2Pp4/P2Pp1q1/4Pr2/4KPP1/3QR3 b - - 1 1"]

1... Rxf2+
( 1... Rxf2+ 2. Kxf2 Qxg2# )
2. Kxf2 Qxg2# *

[Event "Attraction, Sacrifice, Exposed King, Mate - Swallow's Tail, Mate - Epaulette (+5, -3) "]
[Date "1213.??.??"]
[Site "41617"]
[FEN "6rk/4p2p/pRp5/2Pp4/P2Pp1q1/4Pr2/4KPP1/3QR3 b - - 1 1"]

1... Rxf2+
( 1... Rxf2+ 2. Kxf2 Qxg2# )
2. Kxf2 Qxg2# *

[Event "Clearance, Sacrifice, Exposed King, Attraction, Mate - Arabian, Mate - Epaulette "]
[Date "1216.??.??"]
[Site "41105"]
[FEN "r1R5/k2n1ppp/rb1Np3/8/3P4/B5P1/4PP1P/1R4K1 w - - 1 1"]

1. Rc7+
( 1. Rc7+ Bxc7 2. Rb7# )
1... Bxc7 
2. Rb7# *

[Event "Sacrifice, Distraction, Pin, Exposed King, Mate - Epaulette (+2, -1) "]
[Date "1221.??.??"]
[Site "76510"]
[FEN "r6r/1bq1n2p/p3nkpQ/1pp1p3/4P3/1PP2NNP/P1B2P2/R2R2K1 w - - 1 1"]

1. Nh5+
( 1. Nh5+ Kf7 2. Ng5+ Nxg5 3. Qg7+ Ke6 4. Qf6# )
1... Kf7 
2. Ng5+ Nxg5 
3. Qg7+ Ke6 
4. Qf6# *

[Event "Blocking, Sacrifice, Exposed King, Mate - Epaulette "]
[Date "1258.??.??"]
[Site "35876"]
[FEN "r3rn2/p7/3qp2k/1p5n/3P1p1p/1PPQ1P2/P1B2P2/6RK w - - 1 1"]

1. Qh7+
( 1. Qh7+ Nxh7 2. Rg6# )
1... Nxh7 
2. Rg6# *

[Event "Exposed King, Clearance (+3, -0), Mate - Epaulette (+2, -0), Coercion (+1, -0), Mate - Lawnmower (+1, -0) "]
[Date "1260.??.??"]
[Site "71862"]
[FEN "7r/ppp2kp1/3P4/1N1Pp1nr/1P2Pp2/P4R1q/4Q2P/4BR1K b - - 0 1"]

1... Qxh2+
( 1... Qxh2+ 2. Qxh2 Rxh2+ 3. Kg1 Nxf3+ 4. Rxf3 Rh1+ 5. Kg2 R8h2# )
2. Qxh2 Rxh2+ 
3. Kg1 Rh1+ 
4. Kf2 R8h2# *

[Event "Exposed King, Coercion, Mate - Swallow's Tail, Mate - Epaulette (+2, -1) "]
[Date "1268.??.??"]
[Site "105266"]
[FEN "7Q/8/5p2/8/4p3/4K3/6k1/5q2 b - - 0 1"]

1... Qd3+
( 1... Qd3+ 2. Kf4 Qf3# )
2. Kf4 Qf3# *

[Event "Clearance, Sacrifice, Mate - Epaulette, Blocking, Distraction, Exposed King, Interference (+1, -0) "]
[Date "1269.??.??"]
[Site "200"]
[FEN "6k1/pp6/r7/3p1pp1/B2qp3/KP6/P3QP2/7R b - - 1 1"]

1... Rxa4+
( 1... Rxa4+ 2. bxa4 Qc3# )
2. bxa4 Qc3# *

[Event "Coercion, Exposed King, Mate - Epaulette "]
[Date "1270.??.??"]
[Site "95368"]
[FEN "7Q/2nk2P1/4p3/3pP3/1p4R1/1P6/P5PK/2q2r2 b - - 1 1"]

1... Rh1+
( 1... Rh1+ 2. Kg3 Qe3# )
2. Kg3 Qe3# *

[Event "Attraction, Sacrifice, Exposed King, Mate - Epaulette "]
[Date "1284.??.??"]
[Site "56375"]
[FEN "2r1qr2/pbnnbNk1/4p3/3pPp1Q/2PN3P/6P1/P4PB1/R2R2K1 w - - 1 1"]

1. Qh6+
( 1. Qh6+ Kxf7 2. Qh7# )
1... Kxf7 
2. Qh7# *

[Event "Exposed King, Mate - Swallow's Tail, Coercion, Attraction, Sacrifice (+5, -3), Mate - Epaulette (+2, -0) "]
[Date "1284.??.??"]
[Site "94245"]
[FEN "7k/p1pbQp2/Pp1p4/1P1B1p2/2PP3p/8/5PKP/3q4 b - - 1 1"]

1... h3+
( 1... h3+ 2. Kxh3 Qg4# )
2. Kg3 Qg4# *

[Event "Exposed King, Mate - Epaulette (+8, -5) "]
[Date "1299.??.??"]
[Site "91102"]
[FEN "3Q4/5p2/4p3/2k5/2Pq1p1P/P4P2/3p2PK/8 w - - 1 1"]

1. Qc7#
( 1. Qc7# ) *

[Event "Pin, Clearance, Mate - Epaulette, Exposed King (+2, -0) "]
[Date "1311.??.??"]
[Site "93909"]
[FEN "r7/1p2P1p1/p1b1Np2/7p/5Qqk/8/PP6/1K1R4 w - - 1 1"]

1. Qh2+
( 1. Qh2+ Qh3 2. Rd4+ Be4+ 3. Rxe4# )
1... Qh3 
2. Rd4+ Be4+ 
3. Rxe4# *

[Event "Sacrifice, Distraction, Exposed King, Mate - Epaulette "]
[Date "1319.??.??"]
[Site "45539"]
[FEN "3Q1bk1/5R1p/2qpr3/1r4p1/1p1B4/6PK/1PPR3P/8 b - - 0 1"]

1... Rh6+
( 1... Rh6+ 2. Kg4 Qe4+ 3. Rf4 Rh4+ 4. gxh4 Qxf4+ 5. Kh3 Qf3# )
2. Kg4 Qe4+ 
3. Rf4 Rh4+ 
4. gxh4 Qxf4+ 
5. Kh3 Qf3# *

[Event "Exposed King, Sacrifice, Mate - Epaulette (+2, -1) "]
[Date "1330.??.??"]
[Site "36541"]
[FEN "1Qb3k1/3r3p/p2B4/1pp5/q7/n1P5/PK5P/R6R b - - 1 1"]

1... Qc2+
( 1... Qc2+ 2. Kxa3 Qxc3# )
2. Kxa3 Qxc3# *

[Event "Sacrifice (+2, -0), Distraction (+2, -0), Mate - Epaulette (+1, -0) "]
[Date "1333.??.??"]
[Site "172113"]
[FEN "5r1k/1p3r1p/1q1pR3/1ppPPp1Q/B1Pb4/7K/PP4RP/8 w - - 1 1"]

1. Qxf7
( 1. Qxf7 Rxf7 2. Re8+ Rf8 3. Rxf8# )
1... Rxf7 
2. Re8+ Rf8 
3. Rxf8# *

[Event "Sacrifice, Exposed King, Coercion, Capturing Defender (+1, -0), Mate - Epaulette (+1, -0), Different Opponent Move (3...Kg4 (+1, -0)) "]
[Date "1338.??.??"]
[Site "76784"]
[FEN "7R/5Q1p/2pB1npk/2P5/4rp1P/6P1/5PK1/q7 w - - 0 1"]

1. Bf8+
( 1. Bf8+ Kh5 2. Rxh7+ Nxh7 3. Qxh7+ Kg4 4. Qxg6# )
1... Kh5 
2. Rxh7+ Nxh7 
3. Qxh7+ Kg4 
4. Qxg6# *

[Event "Clearance, Sacrifice, Distraction, Mate - Epaulette, Exposed King "]
[Date "1344.??.??"]
[Site "63853"]
[FEN "3qrk2/1b1n1p1B/pp1pp2p/2r5/2P2P1Q/1PR5/P3R1PP/7K w - - 1 1"]

1. Qxh6+
( 1. Qxh6+ Ke7 2. Rxe6+ fxe6 3. Qg7# )
1... Ke7 
2. Rxe6+ fxe6 
3. Qg7# *

[Event "Clearance, Exposed King, Mate - Epaulette, Capturing Defender, Distraction, Desperado "]
[Date "1350.??.??"]
[Site "50827"]
[FEN "6k1/pp6/3p4/6pp/2P2q2/P3Q2P/1P3Pr1/3RKRn1 b - - 0 1"]

1... Qxe3+
( 1... Qxe3+ 2. fxe3 Re2# )
2. fxe3 Re2# *

[Event "Exposed King, Coercion, Interference (+1, -0), Mate - Epaulette (+1, -0) "]
[Date "1357.??.??"]
[Site "34746"]
[FEN "2Q3R1/4kn2/1p1p3r/3P1p1b/2P1pP2/P3P3/3p4/6K1 w - - 0 1"]

1. Qe8+
( 1. Qe8+ Kf6 2. Qe6# )
1... Kf6 
2. Qe6# *

[Event "Mate - Swallow's Tail, Attraction, Coercion (+4, -1), Clearance (+2, -0), Mate - Epaulette (+1, -0), Different Opponent Move (1...Kxh6 (+1, -0)) "]
[Date "1370.??.??"]
[Site "102901"]
[FEN "3Q4/5pkp/4P2p/6P1/p6K/q7/8/8 w - - 1 1"]

1. gxh6+
( 1. gxh6+ Kxh6 2. Qf6# )
1... Kg6 
2. Qg5# *

[Event "Clearance, Sacrifice, Exposed King, Mate - Epaulette, Distraction (+4, -1), Blocking (+2, -0) "]
[Date "1373.??.??"]
[Site "26487"]
[FEN "7r/2Q2pk1/5bp1/8/P1BpqRK1/6P1/1P5P/8 b - - 1 1"]

1... Rh4+
( 1... Rh4+ 2. gxh4 Qg2# )
2. gxh4 Qg2# *

[Event "Sacrifice (+2, -0), Mate - Epaulette (+2, -0) "]
[Date "1392.??.??"]
[Site "163859"]
[FEN "1q3kr1/1prnRp2/p2P2p1/P6p/1P1p1P2/3B2PP/6K1/4Q3 w - - 0 1"]

1. Rxf7+
( 1. Rxf7+ Kxf7 2. Qe7# )
1... Kxf7 
2. Qe7# *

[Event "Exposed King, Quiet Move, Interference, Mate - Epaulette (+1, -0) "]
[Date "1405.??.??"]
[Site "54599"]
[FEN "2krq3/Q2n4/7r/3P1p1p/2N3pP/4P1P1/P5PK/8 w - - 1 1"]

1. d6
( 1. d6 Nb8 2. Nb6# )
1... Nb8 
2. Qc7# *

[Event "Exposed King, Sacrifice, Mate - Epaulette "]
[Date "1407.??.??"]
[Site "47271"]
[FEN "r1q4r/ppp2pkB/8/4PQB1/8/2P5/P5PP/R3K2n w Q - 1 1"]

1. Qf6+
( 1. Qf6+ Kxh7 2. Qxf7# )
1... Kxh7 
2. Qxf7# *

[Event "Sacrifice, Exposed King, Coercion, Mate - Epaulette (+1, -0) "]
[Date "1415.??.??"]
[Site "80523"]
[FEN "7R/2k1pp2/1p1pb3/Q7/4P1r1/2P1K3/1q4P1/3R1B2 w - - 1 1"]

1. Qa7+
( 1. Qa7+ Kc6 2. Qa8+ Kc7 3. Qb8+ Kc6 4. Rc8+ Bxc8 5. Qxc8# )
1... Kc6 
2. Qa8+ Kc7 
3. Qb8+ Kc6 
4. Rc8+ Bxc8 
5. Qxc8# *

[Event "Exposed King, Pin, Mate - Swallow's Tail, Mate - Epaulette (+3, -4), Coercion (+4, -6) "]
[Date "1416.??.??"]
[Site "64971"]
[FEN "3k4/pp3p2/4p3/4P3/3r2P1/P1Qbq2P/3R2B1/2K5 b - - 1 1"]

1... Qe1+
( 1... Qe1+ 2. Kb2 Qb1# )
2. Kb2 Qb1# *

[Event "Exposed King, Sacrifice, Coercion, Mate - Swallow's Tail, Mate - Epaulette (+1, -0) "]
[Date "1428.??.??"]
[Site "64458"]
[FEN "8/p2q1kp1/4N3/1p1pP1Q1/2r5/n1P5/2R2P2/6K1 w - - 0 1"]

1. Qxg7+
( 1. Qxg7+ Kxe6 2. Qf6# )
1... Kxe6 
2. Qf6# *

[Event "Sacrifice, Clearance, Exposed King, Mate - Epaulette, Blocking (+2, -3) "]
[Date "1434.??.??"]
[Site "40775"]
[FEN "8/q4p1p/3P2pk/p1R2R2/P1r1r3/2Q5/2P3PP/6K1 w - - 1 1"]

1. Rh5+
( 1. Rh5+ gxh5 2. Qf6# )
1... gxh5 
2. Qf6# *

[Event "Clearance, Sacrifice, Mate - Epaulette, Exposed King, Blocking, Distraction "]
[Date "1440.??.??"]
[Site "65005"]
[FEN "6r1/1pp4k/1b1p1p2/pP1R4/P1P1Pp2/5P1P/3rN3/4RK2 b - - 1 1"]

1... Rg1+
( 1... Rg1+ 2. Nxg1 Rf2# )
2. Nxg1 Rf2# *

[Event "Sacrifice, Exposed King, Attraction, Coercion, Mate - Epaulette, Mate - Balestra (+1, -0)"]
[Date "1446.??.??"]
[Site "74371"]
[FEN "1Qb3k1/3r3p/p2B4/1pp5/q1n5/2P5/P6P/RK5R b - - 1 1"]

1... Na3+
( 1... Na3+ 2. Kb2 Qc2+ 3. Kxa3 Qxc3# )
2. Kb2 Qc2+ 
3. Kxa3 Qxc3# *

[Event "Sacrifice, Attraction, Mate - Epaulette "]
[Date "1452.??.??"]
[Site "139359"]
[FEN "r1b1rk2/2n1n1p1/2pq1pP1/pp1p4/3P1PP1/2NB1P2/PP5Q/2KR3R w - - 1 1"]

1. Qh8+
( 1. Qh8+ Ng8 2. Qxg7+ Kxg7 3. Rh7+ Kf8 4. Rf7# )
1... Ng8 
2. Qxg7+ Kxg7 
3. Rh7+ Kf8 
4. Rf7# *

[Event "Discovered Attack, Interference, Exposed King, Mate - Epaulette, Sacrifice "]
[Date "1452.??.??"]
[Site "73303"]
[FEN "2r1qr2/pbnnb2k/4p2N/3pPp1Q/2PN3P/6P1/P4PB1/R2R2K1 w - f6 0 1"]

1. Nf7+
( 1. Nf7+ Kg7 2. Qh6+ Kxf7 3. Qh7# )
1... Kg7 
2. Qh6+ Kxf7 
3. Qh7# *

[Event "Mate - Epaulette, Clearance, Exposed King "]
[Date "1456.??.??"]
[Site "95521"]
[FEN "8/5pkp/1Q1P2p1/p2qr3/P1R5/B1P3PK/5P1P/8 b - - 0 1"]

1... Rh5+
( 1... Rh5+ 2. Rh4 Rxh4+ 3. gxh4 Qf3# )
2. Rh4 Rxh4+ 
3. gxh4 Qf3# *

[Event "Exposed King, Mate - Epaulette (+4, -2) "]
[Date "1458.??.??"]
[Site "52771"]
[FEN "r3r3/pp2k2N/4p3/3p4/3P1QP1/2P2N2/PP3q2/2K1R3 w - - 1 1"]
1. Qc7#
( 1. Qc7# ) *

[Event "Sacrifice, Exposed King, Mate - Swallow's Tail, Distraction, Mate - Epaulette (+14, -11) "]
[Date "1467.??.??"]
[Site "5441"]
[FEN "3r4/2b3pQ/2bqpk1N/5p2/2Pp4/5R1P/PP4B1/7K w - - 1 1"]

1. Rxf5+
( 1. Rxf5+ exf5 2. Qxf5+ Ke7 3. Qf7# )
1... exf5 
2. Qxf5+ Ke7 
3. Qf7# *

[Event "Clearance, Sacrifice, Exposed King, Mate - Epaulette, Distraction (+5, -8) "]
[Date "1470.??.??"]
[Site "53410"]
[FEN "1k1r4/pp1q1B1p/3bQp2/2p2r2/P6P/2BnP3/1P6/5RKR b - - 1 1"]

1... Rg8+
( 1... Rg8+ 2. Bxg8 Qg7# )
2. Bxg8 Qg7# *

[Event "Sacrifice, Clearance, Exposed King, Mate - Epaulette, Distraction "]
[Date "1482.??.??"]
[Site "78718"]
[FEN "r7/1k1n1ppp/rb2p3/1N6/2RP4/B5P1/4PP1P/1R4K1 w - - 1 1"]

1. Nd6+
( 1. Nd6+ Kb8 2. Rc8+ Ka7 3. Rc7+ Bxc7 4. Rb7# )
1... Kb8 
2. Rc8+ Ka7 
3. Rc7+ Bxc7 
4. Rb7# *

[Event "Coercion (+3, -0), Mate - Epaulette (+3, -0) "]
[Date "1491.??.??"]
[Site "147513"]
[FEN "2r1k3/p1q1Pppp/4p3/6B1/3rb2Q/2R4R/PpP3PP/1K6 b - - 1 1"]

1... Rd1+
( 1... Rd1+ 2. Kxb2 Qb6+ 3. Ka3 Qa5+ 4. Kb2 Qb4+ 5. Rb3 Rxc2# )
2. Kxb2 Qb6+ 
3. Ka3 Qa5+ 
4. Kb2 Qb4+ 
5. Rb3 Rxc2# *

[Event "Exposed King, Coercion, Mate - Epaulette (+2, -0), Mate - Swallow's Tail (+1, -0) "]
[Date "1497.??.??"]
[Site "99871"]
[FEN "8/2R5/p5k1/1pQ1p1pp/1P4q1/P2p4/7K/8 w - - 0 1"]

1. Qc6+
( 1. Qc6+ Kf5 2. Rf7# )
1... Kf5 
2. Rf7# *

[Event "Pin, Exposed King, Sacrifice, Quiet Move, Interference, Mate - Swallow's Tail, Mate - Epaulette (+1, -0) "]
[Date "1501.??.??"]
[Site "49961"]
[FEN "2kr3r/Qpp1qp2/3p1n1p/1p4p1/2n1P3/1N3P2/PPP3PP/2KR3R w - - 0 1"]

1. Nc5
( 1. Nc5 c6 2. Qa8+ Kc7 3. Qxb7# )
1... c6 
2. Qa8+ Kc7 
3. Qxb7# *

[Event "Sacrifice, Exposed King, Coercion, Mate - Epaulette, Attraction "]
[Date "1513.??.??"]
[Site "51631"]
[FEN "4r1k1/1p3q1p/p1pQ4/2P1R1p1/5n2/2B5/PP5P/6K1 b - - 1 1"]

1... Nh3+
( 1... Nh3+ 2. Kg2 Qf2+ 3. Kxh3 Qf3# )
2. Kg2 Qf2+ 
3. Kxh3 Qf3# *

[Event "Exposed King, Blocking, Sacrifice, Mate - Epaulette, Distraction (+3, -2), Attraction (+8, -9) "]
[Date "1514.??.??"]
[Site "45955"]
[FEN "8/6pk/8/2P1Qp1p/4b1r1/7q/PP1NKR2/3R4 b - - 0 1"]

1... Qd3+
( 1... Qd3+ 2. Ke1 Rg1+ 3. Nf1 Rxf1+ 4. Rxf1 Qe3# )
2. Ke1 Rg1+ 
3. Nf1 Rxf1+ 
4. Rxf1 Qe3# *

[Event "Sacrifice, Attraction, Clearance, Mate - Epaulette, Mate - Swallow's Tail (+3, -1), Blocking (+2, -1) "]
[Date "1521.??.??"]
[Site "77770"]
[FEN "5rk1/5Npp/4P3/p1qp1Q2/P2n2R1/7P/1P4P1/7K w - - 1 1"]

1. Rxg7+
( 1. Rxg7+ Kxg7 2. Qg5# )
1... Kxg7 
2. Qg5# *

[Event "Exposed King, X-Ray Attack, Coercion, Mate - Epaulette (+9, -8) "]
[Date "1523.??.??"]
[Site "56606"]
[FEN "8/3R3p/1p2B1pk/2P1b3/2K1R3/r6P/1r6/8 b - - 1 1"]

1... Rc3+
( 1... Rc3+ 2. Kd5 Rxc5# )
2. Kd5 Rxc5# *

[Event "Exposed King, Mate - Epaulette (+2, -1) "]
[Date "1529.??.??"]
[Site "37763"]
[FEN "3r3r/1q4b1/p2Q3p/3n1k2/3P1p2/6PP/P1P2P2/4R1K1 w - - 0 1"]

1. Qe6+
( 1. Qe6+ Kg5 2. h4+ Kh5 3. Qf5# )
1... Kg5 
2. h4+ Kh5 
3. Qf5# *

[Event "Sacrifice, Clearance, Exposed King, Attraction, Zwischenzug (+10, -7), Discovered Attack (+1, -0), Mate - Epaulette (+5, -4) "]
[Date "1532.??.??"]
[Site "56561"]
[FEN "8/p7/Pq4rk/2p1R3/4p1pP/3pP1P1/6P1/Q5K1 w - - 0 1"]

1. Rh5+
( 1. Rh5+ Kxh5 2. Qe5+ Kh6 3. Qh8# )
1... Kxh5 
2. Qe5+ Kh6 
3. Qh8# *

[Event "Exposed King, Clearance, Coercion, Mate - Epaulette "]
[Date "1535.??.??"]
[Site "63067"]
[FEN "r1bqr1k1/pp1n1pp1/2n1p3/3pP1NQ/1b1P4/2N5/PP3PPP/R1B1K2R w KQ - 1 1"]

1. Qxf7+
( 1. Qxf7+ Kh8 2. Qh5+ Kg8 3. Qh7+ Kf8 4. Qh8+ Ke7 5. Qxg7# )
1... Kh8 
2. Qh5+ Kg8 
3. Qh7+ Kf8 
4. Qh8+ Ke7 
5. Qxg7# *

[Event "Exposed King, Attraction, Coercion, Mate - Epaulette "]
[Date "1542.??.??"]
[Site "103406"]
[FEN "6k1/1p3np1/p1b4p/P3pq2/1PQ4P/2P3P1/3N3K/4R1N1 b - - 0 1"]

1... Qf2+
( 1... Qf2+ 2. Kh3 Bg2+ 3. Kg4 h5+ 4. Kxh5 Qf5# )
2. Kh3 Bg2+ 
3. Kg4 h5+ 
4. Kxh5 Qf5# *

[Event "Blocking, Exposed King, Mate - Epaulette "]
[Date "1548.??.??"]
[Site "95124"]
[FEN "6r1/1r2pb1k/3p3p/4qPP1/3NN2K/1P1QR3/8/8 b - - 0 1"]

1... Qh2+
( 1... Qh2+ 2. Kg4 Bh5# )
2. Rh3 Qf4# *

[Event "Distraction (+1, -0), Exposed King (+1, -0), Mate - Epaulette (+1, -0) "]
[Date "1558.??.??"]
[Site "160857"]
[FEN "2QR4/p4pk1/1p2r2p/5r1P/1P3P2/P6n/7K/8 w - - 1 1"]

1. Rg8+
( 1. Rg8+ Kf6 2. Qd8+ Re7 3. Qd6+ Re6 4. Rg6+ fxg6 5. Qf8# )
1... Kf6 
2. Qd8+ Re7 
3. Qd6+ Re6 
4. Rg6+ fxg6 
5. Qf8# *

[Event "Sacrifice, Mate - Epaulette (+3, -0), X-Ray Attack (+2, -0) "]
[Date "1570.??.??"]
[Site "163020"]
[FEN "3r4/1nb1kp2/p1p2N2/1p2pPr1/8/1BP2P2/PP1R4/2KR4 w - - 0 1"]

1. Rd7+
( 1. Rd7+ Rxd7 2. Rxd7+ Kxf6 3. Rxf7# )
1... Rxd7 
2. Rxd7+ Kxf6 
3. Rxf7# *

[Event "Capturing Defender, Sacrifice, Distraction, Exposed King, Attraction, Blocking, Mate - Epaulette "]
[Date "1571.??.??"]
[Site "49572"]
[FEN "r1q5/1p6/2p2Prp/p1Pp3k/3P3p/4QP2/PPb2K2/2B3R1 w - - 1 1"]

1. Qxh6+
( 1. Qxh6+ Rxh6 2. Rg5# )
1... Rxh6 
2. Rg5# *

[Event "Discovered Attack (+1, -0), Sacrifice (+1, -0), Attraction (+1, -0), Mate - Epaulette (+1, -0), Mate - Opera (+1, -0) "]
[Date "1582.??.??"]
[Site "164798"]
[FEN "8/2Q5/2P1p2k/3p1pqp/5r2/2R5/3RB1b1/6K1 b - - 1 1"]

1... Be4+
( 1... Be4+ 2. Bg4 Qxg4+ 3. Kh2 Rf2+ 4. Rxf2 Qh4+ 5. Rh3 Qxf2# )
2. Bg4 Qxg4+ 
3. Kh2 Rf2+ 
4. Rxf2 Qh4+ 
5. Kg1 Qh1# *

