[Event "Pin, Mate - Boden's, Exposed King "]
[Date "1204.??.??"]
[Site "89807"]
[FEN "r3kb1r/pp3p1p/4bB1q/4Q3/5p2/3P4/PPP3PP/4R2K w kq - 1 1"]

1. Qb5#
( 1. Qb5# ) *

[Event "Sacrifice, Clearance, Distraction, Mate - Boden's "]
[Date "1254.??.??"]
[Site "72446"]
[FEN "r1b1k2r/ppp4p/2n5/2b1P1pq/1P3p2/2P2N2/P3N1PP/R1B1QK1R b kq b3 0 1"]

1... Qxf3+
( 1... Qxf3+ 2. gxf3 Bh3# )
2. gxf3 Bh3# *

[Event "Sacrifice, Clearance, Mate - Boden's, Exposed King, Mate - Balestra "]
[Date "1260.??.??"]
[Site "65483"]
[FEN "2kr2r1/pp1nq2b/1np1pp1p/7P/4P3/PN3PQ1/1P1BB1P1/2R1K2R w K - 0 1"]

1. Rxc6+
( 1. Rxc6+ bxc6 2. Ba6# )
1... bxc6 
2. Ba6# *

[Event "Sacrifice, Exposed King, Mate - Boden's, Clearance "]
[Date "1286.??.??"]
[Site "17066"]
[FEN "r2k1q1r/pb3p2/1pnp2pp/5B2/2P2P2/Pn2B3/1P3QPP/3RRK2 w - - 0 1"]

1. Bxb6+
( 1. Bxb6+ axb6 2. Qxb6# )
1... axb6 
2. Qxb6# *

[Event "Exposed King, Mate - Boden's, Pin, Clearance (+3, -6) "]
[Date "1288.??.??"]
[Site "77976"]
[FEN "r1b1k2r/ppp3pp/8/2bNq3/2B5/8/PPP3PP/R2QRK2 b kq - 1 1"]

1... Rf8+
( 1... Rf8+ 2. Nf4 Rxf4+ 3. Qf3 Rxf3+ 4. gxf3 Bh3# )
2. Nf6+ Rxf6+ 
3. Qf3 Rxf3+ 
4. gxf3 Bh3# *

[Event "Exposed King, Coercion, Mate - Boden's "]
[Date "1297.??.??"]
[Site "20389"]
[FEN "r3r2k/4RR1p/2p3pB/1pPp4/2nb4/6PB/5P1P/6K1 w - - 1 1"]

1. Rxh7+
( 1. Rxh7+ Kg8 2. Be6# )
1... Kg8 
2. Be6# *

[Event "Sacrifice, Clearance, Mate - Boden's, Exposed King (+2, -0) "]
[Date "1335.??.??"]
[Site "100945"]
[FEN "2kr1b1r/pp3ppp/2p1b2q/4B3/4Q3/2PB2R1/PPP2PPP/3R2K1 w - - 1 1"]

1. Qxc6+
( 1. Qxc6+ bxc6 2. Ba6# )
1... bxc6 
2. Ba6# *

[Event "Coercion, Exposed King, Mate - Boden's "]
[Date "1336.??.??"]
[Site "94227"]
[FEN "8/3b4/B1p4k/3p3P/p3p3/4P1b1/P1R1K1R1/1r6 b - - 1 1"]

1... Bg4+
( 1... Bg4+ 2. Kd2 Be1# )
2. Kd2 Be1# *

[Event "Sacrifice, Clearance, Mate - Boden's "]
[Date "1341.??.??"]
[Site "97766"]
[FEN "2kr3r/pp1n1p2/2p1b2p/3p2qn/Q2P4/2PB3P/PP1N2PB/R4RK1 w - - 1 1"]

1. Qxc6+
( 1. Qxc6+ bxc6 2. Ba6# )
1... bxc6 
2. Ba6# *

[Event "Sacrifice, Mate - Boden's, Clearance, Exposed King, Distraction "]
[Date "1342.??.??"]
[Site "47525"]
[FEN "r2qk2r/3n1p2/2b1p2p/ppBpP1p1/2nP2Q1/2P2N2/P1B2PPP/1R3RK1 w kq - 1 1"]

1. Qxe6+
( 1. Qxe6+ fxe6 2. Bg6# )
1... fxe6 
2. Bg6# *

[Event "Sacrifice, Mate - Boden's, Clearance, Exposed King "]
[Date "1345.??.??"]
[Site "19938"]
[FEN "2kr1r2/pp1n3p/2p1R1p1/3p4/3P1BP1/b2B3P/2PK4/3R4 w - - 1 1"]

1. Rxc6+
( 1. Rxc6+ bxc6 2. Ba6# )
1... bxc6 
2. Ba6# *

[Event "Sacrifice, Mate - Boden's, Clearance "]
[Date "1345.??.??"]
[Site "27273"]
[FEN "2kr1nr1/pp1nqp1p/2p1p1pP/4B3/2BP4/5QP1/PPP2P2/1K1R3R w - - 1 1"]

1. Qxc6+
( 1. Qxc6+ bxc6 2. Ba6# )
1... bxc6 
2. Ba6# *

[Event "Overloading, Sacrifice, Distraction, Exposed King, Mate Threat, Mate - Boden's "]
[Date "1345.??.??"]
[Site "46259"]
[FEN "r3kb1r/2q2ppp/p1bp4/n2QpPB1/Bp2P3/8/PPP1N1PP/R3K2R w KQkq - 1 1"]

1. Qxa5
( 1. Qxa5 Rc8 2. Qxa6 Be7 3. Bxe7 Kxe7 4. Ng3 Rhd8 5. O-O-O Kf8 6. Kb1 Qb7 7. Qxb7 Bxb7 8. Bb3 Rc5 ) *

[Event "Sacrifice, Clearance, Mate - Boden's (+4, -1), Coercion (+3, -1) "]
[Date "1349.??.??"]
[Site "97753"]
[FEN "rnbkr3/ppp2Bpp/5b2/7q/2Q2p2/5N2/PPPP2PP/R1B2K1R b - - 0 1"]

1... Qxf3+
( 1... Qxf3+ 2. gxf3 Bh3+ 3. Kf2 Bh4+ 4. Kg1 Re1+ 5. Qf1 Rxf1# )
2. gxf3 Bh3+ 
3. Kf2 Bh4+ 
4. Kg1 Re1+ 
5. Qf1 Rxf1# *

[Event "Sacrifice, Mate - Boden's, Clearance, Exposed King "]
[Date "1360.??.??"]
[Site "78892"]
[FEN "r2qk2r/pp1n1p2/2b1p2p/2BpP1p1/2nP2Q1/2P2N2/P1B2PPP/1R3RK1 w kq - 1 1"]

1. Qxe6+
( 1. Qxe6+ fxe6 2. Bg6# )
1... fxe6 
2. Bg6# *

[Event "Clearance, Sacrifice, Mate - Boden's, Distraction "]
[Date "1365.??.??"]
[Site "49665"]
[FEN "r2r1k2/pp4pp/2n1Rp2/8/2B2B2/b1P5/P4PPP/4R1K1 w - - 1 1"]

1. Rxf6+
( 1. Rxf6+ gxf6 2. Bh6# )
1... gxf6 
2. Bh6# *

[Event "Sacrifice, Mate - Boden's, Clearance "]
[Date "1373.??.??"]
[Site "52269"]
[FEN "2kr3r/pp1nqpp1/2p1pnp1/8/1bBP1BP1/2N2Q1P/PPP5/R4RK1 w - - 1 1"]

1. Qxc6+
( 1. Qxc6+ bxc6 2. Ba6# )
1... bxc6 
2. Ba6# *

[Event "Exposed King, Mate - Boden's "]
[Date "1373.??.??"]
[Site "88264"]
[FEN "5k2/1p1nR2p/p2P1np1/5pB1/8/1Br2PN1/Pb3P1P/6K1 w - - 1 1"]

1. Bh6#
( 1. Bh6# ) *

[Event "Sacrifice, Clearance, Mate - Boden's "]
[Date "1378.??.??"]
[Site "42138"]
[FEN "2kr1b1r/pp1n1ppp/2p1pn2/7q/3P1B2/P1NB1Q1P/1PP2PP1/R3R1K1 w - - 1 1"]

1. Qxc6+
( 1. Qxc6+ bxc6 2. Ba6# )
1... bxc6 
2. Ba6# *

[Event "Sacrifice, Mate - Boden's, Distraction, Clearance "]
[Date "1379.??.??"]
[Site "37871"]
[FEN "r3r1kb/pp2pp1n/4b1pB/q1p3Q1/2BRP3/2N2P2/PPP3P1/2K3NR w - - 1 1"]

1. Qxg6+
( 1. Qxg6+ fxg6 2. Bxe6# )
1... fxg6 
2. Bxe6# *

[Event "Mate Threat, Sacrifice, Fork/Double Attack, Clearance, Distraction, Mate - Boden's "]
[Date "1404.??.??"]
[Site "26957"]
[FEN "2kr1b1r/pp1nqppb/2p1p2p/3nN3/2BP1B1P/6N1/PPP1QPP1/2KR3R w - - 1 1"]

1. Nxc6
( 1. Nxc6 Nxf4 2. Nxe7+ Bxe7 3. Qf3 Bd6 4. Ne2 Nxe2+ 5. Bxe2 Nf6 6. Bd3 Bxd3 7. Rxd3 Kb8 8. Kb1 Rd7 )
1... Nxf4 
2. Nxe7+ *

[Event "Mate Threat, Discovered Attack, Sacrifice, Unpinning, Fork/Double Attack, Mate - Boden's (+9, -6), Different Opponent Move (2.Bxd8) "]
[Date "1404.??.??"]
[Site "50232"]
[FEN "r1bqr1k1/ppp2ppp/5n2/2b3B1/4N3/3P1P2/PPP1BP1P/R2QK2R b KQ - 0 1"]

1... Nxe4
( 1... Nxe4 2. dxe4 Qxg5 3. Qd5 Qxd5 4. exd5 Bf5 5. Kd2 Bxf2 6. Bc4 c6 7. dxc6 Rad8+ 8. Bd3 bxc6 9. Rad1 Bxd3 )
2. dxe4 Qxg5 *

[Event "Exposed King, X-Ray Attack, Coercion, Mate - Boden's "]
[Date "1404.??.??"]
[Site "57374"]
[FEN "r2n2k1/4R2p/8/8/2P1pPB1/2Bb4/2r3PP/5RK1 w - - 1 1"]

1. Re8+
( 1. Re8+ Kf7 2. Bh5# )
1... Kf7 
2. Bh5# *

[Event "Sacrifice, Clearance, Mate - Boden's "]
[Date "1419.??.??"]
[Site "44751"]
[FEN "3r2k1/2q1bppp/1p6/p3pbPn/P7/1NP1BP2/1P2BQ1P/2K3R1 b - - 1 1"]

1... Qxc3+
( 1... Qxc3+ 2. bxc3 Ba3# )
2. bxc3 Ba3# *

[Event "Exposed King, Coercion, Mate - Boden's, Counting (+1, -0) "]
[Date "1426.??.??"]
[Site "48983"]
[FEN "r1bBr1k1/ppp2ppp/1b6/8/1P2n3/P1PP1P2/4B2P/R2QK2R b KQ - 0 1"]

1... Bf2+
( 1... Bf2+ 2. Kf1 Bh3# )
2. Kf1 Bh3# *

[Event "Attraction, Sacrifice, Exposed King, Mate - Boden's "]
[Date "1432.??.??"]
[Site "55842"]
[FEN "3r1rk1/pbp3bp/1p2p3/n3Pp2/P2P1P1q/2PBK1N1/1B2Q2P/R5R1 b - - 1 1"]

1... Qxf4+
( 1... Qxf4+ 2. Kxf4 Bh6# )
2. Kxf4 Bh6# *

[Event "Sacrifice, Clearance, Attraction, Distraction, Mate - Boden's (+6, -3) "]
[Date "1435.??.??"]
[Site "31322"]
[FEN "r1b1kb1r/p1qn1pp1/2N1pn1p/2p5/1P6/3B4/P1P1QPPP/R1B1K1NR w KQkq - 1 1"]

1. Qxe6+
( 1. Qxe6+ fxe6 2. Bg6# )
1... fxe6 
2. Bg6# *

[Event "Sacrifice, Exposed King, Mate - Boden's "]
[Date "1441.??.??"]
[Site "25579"]
[FEN "r4k1r/2p1pB2/p4npb/1q2N3/1p2bQ1p/4B3/PPP3PP/2KR1R2 w - - 1 1"]

1. Qxh6+
( 1. Qxh6+ Rxh6 2. Bxh6# )
1... Rxh6 
2. Bxh6# *

[Event "Clearance, Sacrifice, Mate - Boden's "]
[Date "1445.??.??"]
[Site "97765"]
[FEN "2kr3r/pp1nqp2/2p1b2p/3p3n/Q2P1B2/2PB3P/PP1N2P1/R4RK1 w - - 1 1"]

1. Qxc6+
( 1. Qxc6+ bxc6 2. Ba6# )
1... bxc6 
2. Ba6# *

[Event "Coercion, Exposed King, Quiet Move, Mate - Boden's (+3, -0) "]
[Date "1449.??.??"]
[Site "62245"]
[FEN "r2q1r1k/pp1b2p1/4pb1p/3p4/6Q1/3BB3/PPP2PPP/R4RK1 w - - 0 1"]

1. Qg6
( 1. Qg6 Kg8 2. Qh7+ Kf7 3. Bg6+ Ke7 4. Bc5# )
1... Kg8 
2. Qh7+ Kf7 
3. Bg6+ Ke7 
4. Bc5# *

[Event "Exposed King, Coercion, Mate - Boden's (+1, -0), Zwischenzug (+4, -5) "]
[Date "1452.??.??"]
[Site "40863"]
[FEN "5rk1/5pbp/pp2p1p1/8/P1B5/1PN1nbPK/R6P/4R3 b - - 1 1"]

1... Bg4+
( 1... Bg4+ 2. Kh4 Bf6# )
2. Kh4 Bf6# *

[Event "Sacrifice, Clearance, Mate - Boden's, Distraction, Exposed King "]
[Date "1457.??.??"]
[Site "8933"]
[FEN "3rk2r/p1qn1pp1/1p2pb1p/7P/2Pp4/B1P1QP2/P1B1KP2/3R3R w k - 0 1"]

1. Qxe6+
( 1. Qxe6+ fxe6 2. Bg6# )
1... fxe6 
2. Bg6# *


[Event "Discovered Attack, Interference, Exposed King, Mate - Boden's, Blocking (+3, -1) "]
[Date "1461.??.??"]
[Site "54716"]
[FEN "r2q4/pb3k1p/1pn2bpB/3R4/2B5/2P5/P3rPPP/2R3K1 w - - 0 1"]

1. Re5+
( 1. Re5+ Qd5 2. Bxd5# )
1... Qd5 
2. Bxd5# *

[Event "Sacrifice, Clearance, Mate - Boden's, Exposed King "]
[Date "1489.??.??"]
[Site "29355"]
[FEN "2kr3r/pp1n1pp1/2p1pn2/6p1/Q1BP1B1q/2P4P/PP4P1/R4RK1 w - - 0 1"]

1. Qxc6+
( 1. Qxc6+ bxc6 2. Ba6# )
1... bxc6 
2. Ba6# *

[Event "X-Ray Attack, Exposed King, Coercion, Mate - Boden's (+8, -5) "]
[Date "1489.??.??"]
[Site "98140"]
[FEN "8/1kp3R1/1p3B2/pN3pP1/P1b2P2/5K2/2r5/4b3 b - - 1 1"]

1... Bd5+
( 1... Bd5+ 2. Ke3 Bf2+ 3. Kd3 Be4# )
2. Ke3 Bf2+ 
3. Kd3 Be4# *

[Event "Sacrifice, Clearance, Attraction, Exposed King, Mate - Boden's "]
[Date "1496.??.??"]
[Site "48980"]
[FEN "1k5r/1Pp2ppp/8/1B3bn1/3b1pq1/5N2/PP4PP/R1BQ1K1R b - - 1 1"]

1... Qxg2+
( 1... Qxg2+ 2. Kxg2 Bh3# )
2. Kxg2 Bh3# *

[Event "Sacrifice, Mate - Boden's, Clearance, Distraction "]
[Date "1516.??.??"]
[Site "49336"]
[FEN "2r1r1k1/p2B1ppp/3b2q1/5b2/3P4/2P1B1P1/PP1NQP1P/2KR3R b - - 0 1"]

1... Rxc3+
( 1... Rxc3+ 2. bxc3 Ba3# )
2. bxc3 Ba3# *

[Event "Exposed King, Sacrifice, Clearance, Mate - Boden's "]
[Date "1528.??.??"]
[Site "60816"]
[FEN "r1b5/ppp1b1pp/2k2n2/1N2pp2/P1B5/4B3/1PP2PPP/2KR4 w - - 1 1"]

1. Nxa7+
( 1. Nxa7+ Rxa7 2. Bb5# )
1... Rxa7 
2. Bb5# *

[Event "Double Check, Exposed King, Discovered Attack, Coercion, Mate - Boden's "]
[Date "1534.??.??"]
[Site "58588"]
[FEN "2q1rn2/r1Pnbkpp/pp6/4P3/1P6/4BB2/P5PP/2R2RK1 w - - 0 1"]

1. Bd5+
( 1. Bd5+ Kg6 2. Bf7# )
1... Kg6 
2. Bf7# *

[Event "Sacrifice, Mate - Boden's, Clearance "]
[Date "1551.??.??"]
[Site "103743"]
[FEN "4r1k1/3b1ppp/p7/1pb2q2/8/1P1Q1N1P/P7/3R1K1R b - - 1 1"]

1... Qxh3+
( 1... Qxh3+ 2. Rxh3 Bxh3# )
2. Rxh3 Bxh3# *

[Event "Clearance, Exposed King, Coercion, Mate - Boden's "]
[Date "1553.??.??"]
[Site "77036"]
[FEN "rq2kb1r/1p1n1pp1/p3p1b1/1B1pP1Bp/NP1P3P/P7/5PP1/2RQK2R w Kkq - 0 1"]

1. Bxd7+
( 1. Bxd7+ Kxd7 2. Nb6+ Ke8 3. Qa4# )
1... Kxd7 
2. Nb6+ Ke8 
3. Qa4# *

[Event "Distraction, Sacrifice, Clearance, Exposed King, Mate - Boden's, Mate - Double Bishop (+4, -6)"]
[Date "1594.??.??"]
[Site "37850"]
[FEN "2r3k1/r2b1p1p/1b1p2p1/1P1Bp3/1R2P3/2P1qP2/P3N1PP/1R2QK2 b - - 0 1"]

1... Qxf3+
( 1... Qxf3+ 2. gxf3 Bh3# )
2. gxf3 Bh3# *

[Event "Sacrifice, Clearance, Mate - Boden's, Exposed King, Distraction (+3, -4) "]
[Date "1597.??.??"]
[Site "42147"]
[FEN "2kr3r/pp1nbp2/2p3b1/q3p2p/2BP1B1P/2P5/PP1NQPP1/2KRR3 b - - 0 1"]

1... Qxc3+
( 1... Qxc3+ 2. bxc3 Ba3# )
2. bxc3 Ba3# *

