[Event "Exposed King, Coercion, Mate - Escalator, Zwischenzug (+6, -4) "]
[Date "1207.??.??"]
[Site "80641"]
[FEN "8/1kb1Q3/5ppp/Bb1p4/3P3P/1P1q1N2/5KP1/8 b - - 1 1"]

1... Qf1+
( 1... Qf1+ 2. Ke3 Qe2# )
2. Ke3 Qe2# *

[Event "Sacrifice, Exposed King, Attraction, Mate - Escalator, Coercion (+4, -1), Interference (+2, -0), Back Rank Mate (+3, -3) "]
[Date "1219.??.??"]
[Site "72284"]
[FEN "4r2k/p4p1p/6p1/7r/3q4/1P3bPB/P1Q4K/4RR2 b - - 1 1"]

1... Rxh3+
( 1... Rxh3+ 2. Kxh3 Qg4+ 3. Kh2 Qh5+ 4. Kg1 Qh1+ 5. Kf2 Qg2# )
2. Kxh3 Qg4+ 
3. Kh2 Qh5+ 
4. Kg1 Qh1+ 
5. Kf2 Qg2# *

[Event "Exposed King, Mate - Escalator, Coercion "]
[Date "1231.??.??"]
[Site "63501"]
[FEN "8/4ppk1/3p4/2pP1BP1/P2bP3/7Q/4q3/7K b - - 1 1"]

1... Qe1+
( 1... Qe1+ 2. Kg2 Qf2+ 3. Kh1 Qg1# )
2. Kg2 Qf2+ 
3. Kh1 Qg1# *

[Event "Sacrifice, Exposed King, Mate - Damiano's Bishop, Capturing Defender, Attraction, Mate - Escalator, Coercion (+2, -0) "]
[Date "1233.??.??"]
[Site "76285"]
[FEN "3R4/5p1k/p4B1b/1p6/4b3/P6P/4rQPK/4r3 w - - 1 1"]

1. Rh8+
( 1. Rh8+ Kg6 2. Rxh6+ Kxh6 3. Qh4+ Kg6 4. Qg5+ Kh7 5. Qg7# )
1... Kg6 
2. Rxh6+ Kxh6 
3. Qh4+ Kg6 
4. Qg5+ Kh7 
5. Qg7# *

[Event "Mate - Escalator, Exposed King, Coercion "]
[Date "1234.??.??"]
[Site "74298"]
[FEN "8/7p/3p1kpP/3Pp3/4P1Q1/1B1Kb3/P7/2q5 b - - 1 1"]

1... Qd2+
( 1... Qd2+ 2. Kc4 Qd4+ 3. Kb5 Qb6+ 4. Kc4 Qc5+ 5. Kd3 Qd4+ 6. Kc2 Qd2+ 7. Kb1 Qc1# )
2. Kc4 Qd4+ 
3. Kb5 Qb6+ 
4. Kc4 Qc5+ 
5. Kd3 Qd4+ 
6. Kc2 Qd2+ 
7. Kb1 Qc1# *

[Event "Exposed King, Coercion, Mate - Escalator "]
[Date "1234.??.??"]
[Site "77716"]
[FEN "1Q6/5k1p/5np1/1p3q2/1B6/2P4P/6PK/8 w - - 1 1"]

1. Qf8+
( 1. Qf8+ Ke6 2. Qd6+ Kf7 3. Qe7+ Kg8 4. Qf8# )
1... Ke6 
2. Qd6+ Kf7 
3. Qe7+ Kg8 
4. Qf8# *

[Event "Pin, Exposed King, Mate - Escalator (+1, -0) "]
[Date "1240.??.??"]
[Site "49300"]
[FEN "1r3r2/qp5k/p3p1p1/4Q3/P1p3P1/7P/1PB2P2/4R1K1 w - - 0 1"]

1. Qh5+
( 1. Qh5+ Kg7 2. Qxg6+ Kh8 3. Qh7# )
1... Kg7 
2. Qxg6+ Kh8 
3. Qh7# *

[Event "Pin, Exposed King, Mate - Escalator (+1, -0) "]
[Date "1240.??.??"]
[Site "63562"]
[FEN "1r3r2/qp5k/p3p1p1/4Q3/P1p3P1/7P/1PB2P2/4R1K1 w - - 0 1"]

1. Qh5+
( 1. Qh5+ Kg7 2. Qxg6+ Kh8 3. Qh7# )
1... Kg7 
2. Qxg6+ Kh8 
3. Qh7# *

[Event "Pin, Exposed King, Coercion (+3, -0), Mate - Damiano's Bishop (+3, -1), Mate - Escalator (+2, -1)"]
[Date "1241.??.??"]
[Site "52204"]
[FEN "r4r2/pp2p2k/2p1b1p1/q3P3/8/P1nB1Q2/1PP2BP1/2K5 w - - 0 1"]

1. Qh5+
( 1. Qh5+ Kg7 2. Qxg6+ Kh8 3. Qh7# )
1... Kg7 
2. Qxg6+ Kh8 
3. Qh7# *

[Event "Exposed King, Coercion, Mate - Escalator, Mate - Swallow's Tail "]
[Date "1262.??.??"]
[Site "94875"]
[FEN "8/2r5/k3PQ2/3q2Pb/1pPB1P1p/1P2K3/7P/8 b - c3 0 1"]

1... Qf3+
( 1... Qf3+ 2. Kd2 Qd1+ 3. Ke3 Qe2# )
2. Kd2 Qd1+ 
3. Ke3 Qe2# *

[Event "Exposed King, Sacrifice, Zwischenzug, Unsound Sacrifice, Mate - Escalator "]
[Date "1267.??.??"]
[Site "45032"]
[FEN "4k2r/1p1b3r/p3p1R1/2B3Q1/4q3/8/PPP3P1/1K3B2 w - - 0 1"]

1. Rg8+
( 1. Rg8+ Kf7 2. Qe7+ Kxg8 3. Qf8# )
1... Kf7 
2. Qe7+ Kxg8 
3. Qf8# *

[Event "Clearance, Sacrifice, Mate - Damiano's Bishop, Mate - Escalator "]
[Date "1268.??.??"]
[Site "71348"]
[FEN "4rbk1/1b5p/p1qpR1p1/1p3p2/3B1P2/1PN4Q/1PP3PP/6K1 w - - 1 1"]

1. Rxg6+
( 1. Rxg6+ hxg6 2. Qh8+ Kf7 3. Qf6+ Kg8 4. Qxg6+ Bg7 5. Qxg7# )
1... hxg6 
2. Qh8+ Kf7 
3. Qf6+ Kg8 
4. Qxg6+ Bg7 
5. Qxg7# *

[Event "Exposed King, Coercion, Mate - Damiano's Bishop (+3, -1), Mate - Escalator (+2, -1) "]
[Date "1270.??.??"]
[Site "45948"]
[FEN "2r2k2/8/p3pnQ1/6B1/8/8/PpP1q1PP/3R3K w - - 1 1"]

1. Bh6+
( 1. Bh6+ Ke7 2. Qg7+ Ke8 3. Qf8# )
1... Ke7 
2. Qg7+ Ke8 
3. Qf8# *

[Event "Attraction, Sacrifice, Exposed King, Mate - Escalator, Capturing Defender (+3, -0) "]
[Date "1271.??.??"]
[Site "94066"]
[FEN "6k1/1p4pp/3bp3/4q3/1P2p3/P3QBP1/2r4P/R4R1K b - - 0 1"]

1... Rxh2+
( 1... Rxh2+ 2. Kxh2 Qxg3+ 3. Kh1 Qh2# )
2. Kxh2 Qxg3+ 
3. Kh1 Qh2# *

[Event "Exposed King, Coercion, Mate - Damiano's Bishop (+4, -1), Mate - Escalator (+1, -0) "]
[Date "1273.??.??"]
[Site "49164"]
[FEN "5rk1/5pp1/Q1nq1n1p/6B1/2BbP2P/2N2P2/PK6/3R3R b - - 0 1"]

1... Qb4+
( 1... Qb4+ 2. Kc1 Qxc3+ 3. Kb1 Qb2# )
2. Kc1 Qxc3+ 
3. Kb1 Qb2# *

[Event "Sacrifice, Attraction, Clearance, Mate - Escalator "]
[Date "1277.??.??"]
[Site "95832"]
[FEN "6k1/5pb1/3p2pp/3P4/Q4RP1/2q4P/1rN5/2KR1B2 b - - 1 1"]

1... Rb1+
( 1... Rb1+ 2. Kxb1 Qb2# )
2. Kxb1 Qb2# *

[Event "Sacrifice, Exposed King, Attraction, Capturing Defender, Mate - Escalator "]
[Date "1282.??.??"]
[Site "76020"]
[FEN "1Qb4k/6pp/p2bB2r/P1p1q3/N7/4p1P1/1P5P/5R1K b - - 1 1"]

1... Rxh2+
( 1... Rxh2+ 2. Kxh2 Qxg3+ 3. Kh1 Qh2# )
2. Kxh2 Qxg3+ 
3. Kh1 Qh2# *

[Event "Exposed King, Mate - Escalator, Coercion "]
[Date "1285.??.??"]
[Site "33746"]
[FEN "8/7p/Q5p1/2p2p2/1k1P2P1/4P3/pqP1BP1P/6K1 w - - 0 1"]

1. Qb5+
( 1. Qb5+ Kc3 2. Qc4+ Kd2 3. Qd3+ Kc1 4. Qd1# )
1... Kc3 
2. Qc4+ Kd2 
3. Qd3+ Kc1 
4. Qd1# *

[Event "Pin, Exposed King (+1, -0), Mate - Escalator (+1, -0) "]
[Date "1287.??.??"]
[Site "163196"]
[FEN "N2Q4/p4pkp/4p1p1/2p1b3/2P1Pq2/5P1P/Pr3PK1/3R3R b - - 1 1"]

1... Qg3+
( 1... Qg3+ 2. Kf1 Qxf2# )
2. Kf1 Qxf2# *

[Event "Sacrifice, Exposed King, Distraction, Coercion (+2, -0), Mate - Damiano's Bishop (+2, -0), Mate - Escalator (+2, -1) "]
[Date "1295.??.??"]
[Site "37985"]
[FEN "r5q1/pbp2k1p/1p5Q/3n1pB1/2n5/6N1/PP3PPP/4R1K1 w - - 1 1"]

1. Re7+
( 1. Re7+ Nxe7 2. Qf6+ Ke8 3. Qxe7# )
1... Nxe7 
2. Qf6+ Ke8 
3. Qxe7# *

[Event "Exposed King, Coercion, Mate - Escalator "]
[Date "1295.??.??"]
[Site "44768"]
[FEN "4rbk1/1b6/p1qp2p1/1p3p2/3B1P2/1PN4Q/1PP3PP/6K1 w - - 0 1"]

1. Qh8+
( 1. Qh8+ Kf7 2. Qf6+ Kg8 3. Qxg6+ Bg7 4. Qxg7# )
1... Kf7 
2. Qf6+ Kg8 
3. Qxg6+ Bg7 
4. Qxg7# *

[Event "Exposed King, Hanging Piece, Coercion, Mate - Escalator (+7, -4) "]
[Date "1296.??.??"]
[Site "102648"]
[FEN "6kr/6b1/p1N1pq2/2P4p/2p1Q2P/2N3P1/P4R2/K2R4 b - - 0 1"]

1... Qxc3+
( 1... Qxc3+ 2. Kb1 Qa1+ 3. Kc2 Qb2# )
2. Kb1 Qa1+ 
3. Kc2 Qb2# *

[Event "Skewer, X-Ray Attack, Pin, Fork/Double Attack, Overloading, Clearance, Mate - Escalator (+1, -0) "]
[Date "1296.??.??"]
[Site "105641"]
[FEN "2r3k1/5p2/5p2/8/p2p4/b1rR3R/2P2PPP/4NK2 w - - 0 1"]

1. Rdg3+
( 1. Rdg3+ Kf8 2. Rh8+ Ke7 3. Rxc8 Rxc8 4. Rxa3 Ra8 5. Nf3 d3 6. cxd3 Kd6 7. Nd4 Kc5 8. Nc2 Kb6 9. Ke2 Kb5 )
1... Kf8 
2. Rh8+ Ke7 
3. Rxc8 Rxc8 
4. Rxa3 *

[Event "Exposed King, Coercion, Mate - Damiano's Bishop, Mate - Escalator "]
[Date "1298.??.??"]
[Site "73865"]
[FEN "3r1k2/6pQ/5p2/1p1Bb1B1/8/6P1/5PK1/4q3 w - - 0 1"]

1. Qg8+
( 1. Qg8+ Ke7 2. Qe6+ Kf8 3. Qf7# )
1... Ke7 
2. Qe6+ Kf8 
3. Qf7# *

[Event "Sacrifice, Exposed King, Mate - Escalator, Attraction (+3, -1) "]
[Date "1304.??.??"]
[Site "46130"]
[FEN "4r2k/1p3R1p/p1bppp2/8/7Q/P3B1nP/B1P2KP1/q7 b - - 1 1"]

1... Qf1+
( 1... Qf1+ 2. Kxg3 Qxg2+ 3. Kf4 Qf3# )
2. Kxg3 Qxg2+ 
3. Kf4 Qf3# *

[Event "Exposed King, Coercion, Mate - Escalator, Mate - Swallow's Tail, Mate - Damiano's (+1, -0) "]
[Date "1314.??.??"]
[Site "70976"]
[FEN "6Q1/pB1kq1pp/1b6/6pP/4P3/8/5PK1/8 w - - 0 1"]

1. Qc8+
( 1. Qc8+ Kd6 2. Qc6+ Ke5 3. Qd5+ Kf4 4. Qf5# )
1... Kd6 
2. Qc6+ Ke5 
3. Qd5+ Kf4 
4. Qf5# *

[Event "Exposed King, Interference, Clearance, Mate - Escalator, Mate - Swallow's Tail (+1, -0) "]
[Date "1320.??.??"]
[Site "74963"]
[FEN "4kr2/4n1p1/p1qB1b1p/1p3P1P/4p3/1PP2BN1/PK5Q/3R4 b - - 0 1"]

1... Qxc3+
( 1... Qxc3+ 2. Kb1 Qa1+ 3. Kc2 Qb2# )
2. Kb1 Qa1+ 
3. Kc2 Qb2# *

[Event "Exposed King, Coercion, Mate - Escalator "]
[Date "1327.??.??"]
[Site "73515"]
[FEN "3r1k2/1p6/p4p2/3B4/5PQ1/PP4PP/5q2/2b4K w - - 0 1"]

1. Qg8+
( 1. Qg8+ Ke7 2. Qe6+ Kf8 3. Qf7# )
1... Ke7 
2. Qe6+ Kf8 
3. Qf7# *

[Event "Sacrifice, Exposed King, Mate - Damiano's Bishop, Mate - Escalator "]
[Date "1329.??.??"]
[Site "44654"]
[FEN "1r5k/3R3p/1q1b1pp1/1p6/4Q3/1P4PP/P2p1PK1/1B6 w - - 0 1"]

1. Rxh7+
( 1. Rxh7+ Kxh7 2. Qxg6+ Kh8 3. Qh7# )
1... Kxh7 
2. Qxg6+ Kh8 
3. Qh7# *

[Event "Exposed King, Coercion, Mate - Damiano's Bishop, Mate - Escalator "]
[Date "1329.??.??"]
[Site "75057"]
[FEN "2r3k1/5pp1/5b1p/q4P2/1pB1Q3/1P6/6PP/1K1RR3 b - - 1 1"]

1... Qa1+
( 1... Qa1+ 2. Kc2 Qc3+ 3. Kb1 Qb2# )
2. Kc2 Qc3+ 
3. Kb1 Qb2# *

[Event "Discovered Attack, Exposed King, Attraction, Mate - Escalator, Mate - Swallow's Tail, Blocking (+2, -0) "]
[Date "1343.??.??"]
[Site "80593"]
[FEN "6k1/pb3ppp/8/1P6/3P4/5pPq/P1NQ4/4R1K1 b - - 0 1"]

1... f2+
( 1... f2+ 2. Kxf2 Qg2+ 3. Ke3 Qf3# )
2. Kxf2 Qg2+ 
3. Ke3 Qf3# *

[Event "Pin, Exposed King, Coercion, Mate - Escalator (+3, -0) "]
[Date "1348.??.??"]
[Site "92934"]
[FEN "6k1/pp3p1p/6p1/8/1QP1b3/B6q/PP3R1P/3rN1K1 b - - 1 1"]

1... Qg4+
( 1... Qg4+ 2. Kf1 Bd3+ 3. Re2 Qxe2+ 4. Kg1 Qf1# )
2. Kf1 Bd3+ 
3. Re2 Qxe2+ 
4. Kg1 Qf1# *

[Event "Exposed King, Coercion, Mate - Escalator (+6, -4) "]
[Date "1350.??.??"]
[Site "55262"]
[FEN "r1b2rk1/p1p3p1/2p5/2P1pp1Q/8/3B1P2/PP2K3/6q1 w - - 0 1"]

1. Bc4+
( 1. Bc4+ Be6 2. Bxe6+ Rf7 3. Qxf7+ Kh8 4. Qh5# )
1... Be6 
2. Bxe6+ Rf7 
3. Qxf7+ Kh7 
4. Qh5# *

[Event "Pin, Exposed King, Coercion, Mate - Escalator, Mate - Damiano's Bishop (+1, -0) "]
[Date "1353.??.??"]
[Site "37223"]
[FEN "4Q3/6p1/1kp2b2/1p6/5q2/2P5/PK3P2/3R4 b - - 0 1"]

1... Qb4+
( 1... Qb4+ 2. Kc1 Qxc3+ 3. Kb1 Qb2# )
2. Kc1 Qxc3+ 
3. Kb1 Qb2# *

[Event "Sacrifice, Attraction, Capturing Defender (+4, -1), Mate - Escalator (+3, -0), Exposed King (+1, -0), Coercion (+1, -0) "]
[Date "1358.??.??"]
[Site "96533"]
[FEN "4q1k1/p1R3pp/bp3p2/2b2Q2/8/1PB3P1/P3pP1P/3rR1K1 w - - 1 1"]

1. Rxg7+
( 1. Rxg7+ Kxg7 2. Qxf6+ Kg8 3. Qg7# )
1... Kxg7 
2. Qxf6+ Kg8 
3. Qg7# *

[Event "Sacrifice, Attraction, Exposed King, Mate - Escalator, Mate - Damiano's Bishop (+2, -0) "]
[Date "1362.??.??"]
[Site "46015"]
[FEN "r3r2k/1b2bR2/p5pp/1p1qp1B1/4Q3/P2B4/1PP3PP/4R2K w - - 0 1"]

1. Rh7+
( 1. Rh7+ Kxh7 2. Qxg6+ Kh8 3. Qh7# )
1... Kxh7 
2. Qxg6+ Kh8 
3. Qh7# *

[Event "Discovered Attack, Exposed King, Clearance, Mate - Escalator "]
[Date "1371.??.??"]
[Site "75368"]
[FEN "4r2r/p4pQp/1ppBk3/8/n1P1P2q/5P1b/PP5P/K2R1R2 w - - 1 1"]

1. Qe5+
( 1. Qe5+ Kd7 2. Bb8+ Kc8 3. Qc7# )
1... Kd7 
2. Bb8+ Kc8 
3. Qc7# *

[Event "Sacrifice, Capturing Defender, Exposed King, Attraction, Mate - Escalator, Clearance (+3, -0) "]
[Date "1375.??.??"]
[Site "37156"]
[FEN "6k1/5p2/5Q2/pN6/P2p1b2/6r1/1P4P1/4qRK1 b - - 1 1"]

1... Rxg2+
( 1... Rxg2+ 2. Kxg2 Qg3+ 3. Kh1 Qh2# )
2. Kxg2 Qg3+ 
3. Kh1 Qh2# *

[Event "Capturing Defender, Sacrifice, Mate - Damiano's Bishop, Mate - Escalator "]
[Date "1375.??.??"]
[Site "96534"]
[FEN "4q1k1/R5pp/1p3p2/1bb2Q2/8/1PB3P1/P3pP1P/3rR1K1 w - - 1 1"]

1. Rxg7+
( 1. Rxg7+ Kxg7 2. Qxf6+ Kg8 3. Qg7# )
1... Kxg7 
2. Qxf6+ Kg8 
3. Qg7# *

[Event "Capturing Defender, Exposed King, Blocking, Mate - Escalator (+3, -1), Coercion (+1, -0) "]
[Date "1376.??.??"]
[Site "88332"]
[FEN "4Q3/4q3/3p1kp1/3P3p/3nB2P/2b3P1/5BK1/8 w - - 1 1"]

1. Bxd4+
( 1. Bxd4+ Bxd4 2. Qxg6+ Ke5 3. Qf5# )
1... Bxd4 
2. Qxg6+ Ke5 
3. Qf5# *

[Event "Sacrifice, Clearance, Exposed King, Distraction, Mate - Escalator (+2, -0), Mate - Lawnmower (+3, -1) "]
[Date "1380.??.??"]
[Site "44937"]
[FEN "6r1/1pr1bp2/p2p2pk/3Pn3/3NB3/6R1/PPP4P/1K4R1 w - - 0 1"]

1. Nf5+
( 1. Nf5+ gxf5 2. Rh3+ Bh4 3. Rxh4# )
1... gxf5 
2. Rh3+ Bh4 
3. Rxh4# *


[Event "Exposed King, Coercion, Mate - Escalator "]
[Date "1382.??.??"]
[Site "105004"]
[FEN "6k1/pb4pp/1p2p2q/4P3/2Q2P2/P5P1/1B6/1B2R1K1 b - - 0 1"]

1... Qh1+
( 1... Qh1+ 2. Kf2 Qf3+ 3. Kg1 Qg2# )
2. Kf2 Qf3+ 
3. Kg1 Qg2# *

[Event "Sacrifice, Exposed King, Clearance, Distraction, Mate - Escalator, Mate - Swallow's Tail, Coercion (+1, -0) "]
[Date "1385.??.??"]
[Site "75234"]
[FEN "8/5nkp/3b2p1/6P1/BP6/7K/P4qR1/3Q4 b - - 1 1"]

1... Nxg5+
( 1... Nxg5+ 2. Rxg5 Qh2+ 3. Kg4 Qg3# )
2. Rxg5 Qh2+ 
3. Kg4 Qg3# *

[Event "Exposed King, Coercion, Mate - Damiano's Bishop, Mate - Escalator (+1, -0) "]
[Date "1400.??.??"]
[Site "76613"]
[FEN "5rk1/1q4bp/3Qp1p1/5p1b/1PR5/1B2PP2/4KP2/4B3 b - - 1 1"]

1... Qxf3+
( 1... Qxf3+ 2. Kd2 Qe2+ 3. Kc1 Qb2# )
2. Kd2 Qe2+ 
3. Kc1 Qb2# *

[Event "Sacrifice, Attraction, Exposed King, Mate - Escalator, Coercion (+7, -6) "]
[Date "1412.??.??"]
[Site "44935"]
[FEN "2r3k1/1p3pp1/p3b2p/q5bP/3BP3/1P4R1/PKP1BQP1/8 b - - 1 1"]

1... Rxc2+
( 1... Rxc2+ 2. Kxc2 Qd2+ 3. Kb1 Qc1# )
2. Kxc2 Qd2+ 
3. Kb1 Qc1# *

[Event "Capturing Defender, Exposed King, Coercion (+5, -2), Mate - Dovetail (+1, -0), Mate - Escalator (+1, -0) "]
[Date "1413.??.??"]
[Site "94607"]
[FEN "2r3k1/6pp/p2p4/1p6/1p2P3/1PNK1bQ1/1BP3qP/R7 b - - 1 1"]

1... Rxc3+
( 1... Rxc3+ 2. Bxc3 Qe2+ 3. Kd4 Qxe4# )
2. Bxc3 Qe2+ 
3. Kd4 Qxe4# *

[Event "Sacrifice, Distraction, Mate - Escalator "]
[Date "1426.??.??"]
[Site "101733"]
[FEN "4r1k1/pp4b1/3Q2R1/2p5/2q2P2/2N1r3/PP1R4/2K5 b - - 1 1"]

1... Rxc3+
( 1... Rxc3+ 2. bxc3 Re1+ 3. Rd1 Qxc3+ 4. Kb1 Qb2# )
2. bxc3 Re1+ 
3. Rd1 Qxc3+ 
4. Kb1 Qb2# *

[Event "Exposed King, Pin, Attraction, Blocking, Capturing Defender, Distraction, Coercion, Mate - Escalator (+4, -1) "]
[Date "1437.??.??"]
[Site "55397"]
[FEN "6k1/1br3q1/r1n3Qp/pp1p4/2pP1P2/P3PR2/1P4PP/1BR3K1 w - - 1 1"]

1. Qe8+
( 1. Qe8+ Qf8 2. Rg3+ Rg7 3. Rxg7+ Kxg7 4. Qg6+ Kh8 5. Qh7# )
1... Qf8 
2. Rg3+ Rg7 
3. Rxg7+ Kxg7 
4. Qg6+ Kh8 
5. Qh7# *

[Event "Exposed King, Coercion, Mate - Escalator, Mate - Swallow's Tail (+4, -5) "]
[Date "1452.??.??"]
[Site "76410"]
[FEN "5bk1/8/2B2Q2/1pP2Pp1/1P3n1p/5P1P/1B6/3qn2K w - - 0 1"]

1. Qh8+
( 1. Qh8+ Kf7 2. Qh7+ Bg7 3. Qxg7# )
1... Kf7 
2. Qh7+ Bg7 
3. Qxg7# *

[Event "Exposed King, Coercion, Mate - Escalator, Mate - Swallow's Tail "]
[Date "1461.??.??"]
[Site "34850"]
[FEN "2b5/pp4pk/1b3p2/1P1N1P2/4B1Q1/7P/6K1/4q3 b - - 1 1"]

1... Qg1+
( 1... Qg1+ 2. Kf3 Qf2# )
2. Kf3 Qf2# *

[Event "Exposed King, Sacrifice, Capturing Defender, Attraction, Mate - Escalator, Clearance (+1, -0) "]
[Date "1472.??.??"]
[Site "73234"]
[FEN "4Rnk1/p1p4p/1p1b1rp1/8/1PP1B3/P2QP1N1/6KP/4q3 b - - 1 1"]

1... Rf2+
( 1... Rf2+ 2. Kh3 Rxh2+ 3. Kxh2 Qxg3+ 4. Kh1 Qh2# )
2. Kh3 Rxh2+ 
3. Kxh2 Qxg3+ 
4. Kh1 Qh2# *

[Event "Sacrifice, Capturing Defender, Attraction, Mate - Damiano's Bishop, Mate - Escalator (+4, -3) "]
[Date "1480.??.??"]
[Site "75835"]
[FEN "7k/R5p1/8/3b3p/3Q1p2/2Bq1Pr1/1P4PK/8 b - - 1 1"]

1... Rxg2+
( 1... Rxg2+ 2. Kxg2 Qxf3+ 3. Kg1 Qg2# )
2. Kxg2 Qxf3+ 
3. Kg1 Qg2# *

[Event "Exposed King, Discovered Attack, Mate - Swallow's Tail, Interference, Coercion, Mate - Escalator "]
[Date "1481.??.??"]
[Site "31571"]
[FEN "6k1/pb4B1/1pq1r3/3n4/2P5/6QP/P6K/8 w - - 0 1"]

1. Bf6+
( 1. Bf6+ Kf7 2. Qg7+ Ke8 3. Qg8+ Kd7 4. Qd8# )
1... Kf7 
2. Qg7+ Ke8 
3. Qg8+ Kd7 
4. Qd8# *

[Event "Exposed King, Mate - Pawn, Coercion, Mate - Escalator, Pin (+7, -5) "]
[Date "1506.??.??"]
[Site "91592"]
[FEN "5k2/6pp/pp2P3/3Q4/2pP1q2/2P4P/P5P1/2b3K1 b - - 0 1"]

1... Be3+
( 1... Be3+ 2. Kh1 Qf1+ 3. Kh2 Qg1+ 4. Kg3 Qf2+ 5. Kh2 Bf4+ 6. Kh1 Qe1# )
2. Kh1 Qf1+ 
3. Kh2 Qg1+ 
4. Kg3 Qf2+ 
5. Kg4 Qf4+ 
6. Kh5 g6# *

[Event "Pin, Sacrifice, Clearance, Exposed King, Attraction, Mate - Escalator "]
[Date "1510.??.??"]
[Site "54572"]
[FEN "1q3rnk/2R4p/p3ppp1/1p1bQ3/3P2N1/7P/PP3PP1/1B4K1 w - - 0 1"]

1. Rxh7+
( 1. Rxh7+ Kxh7 2. Qh5+ Kg7 3. Qxg6+ Kh8 4. Qh7# )
1... Kxh7 
2. Qh5+ Kg7 
3. Qxg6+ Kh8 
4. Qh7# *

[Event "Sacrifice, Mate - Escalator, Clearance (+2, -0), Distraction (+1, -0) "]
[Date "1511.??.??"]
[Site "106186"]
[FEN "5k1r/2q5/p1b1pNQb/2p4p/2P2P1B/8/P6P/2K3R1 w - - 1 1"]

1. Nh7+
( 1. Nh7+ Qxh7 2. Qf6+ Ke8 3. Qd8+ Kf7 4. Qe7# )
1... Qxh7 
2. Qf6+ Ke8 
3. Qd8+ Kf7 
4. Qe7# *

[Event "Double Check, Sacrifice, Exposed King, Attraction, Mate - Damiano's Bishop, Mate - Escalator "]
[Date "1512.??.??"]
[Site "44183"]
[FEN "2r2r1k/1p1b1nRp/p3pB2/8/8/2qp4/P1P1Q1PP/2KR4 w - - 0 1"]

1. Rg8+
( 1. Rg8+ Kxg8 2. Qg4+ Ng5 3. Qxg5+ Kf7 4. Qg7+ Ke8 5. Qe7# )
1... Kxg8 
2. Qg4+ Ng5 
3. Qxg5+ Kf7 
4. Qg7+ Ke8 
5. Qe7# *

[Event "Pin, Attraction, Sacrifice, Clearance, Exposed King, Mate - Escalator "]
[Date "1513.??.??"]
[Site "45991"]
[FEN "2Qqk1rr/1p2b1p1/7p/8/2B2P2/8/P1P3KP/4R3 w - - 1 1"]

1. Rxe7+
( 1. Rxe7+ Kxe7 2. Qe6+ Kf8 3. Qf7# )
1... Kxe7 
2. Qe6+ Kf8 
3. Qf7# *

[Event "Sacrifice, Attraction, Pin, Exposed King, Mate - Escalator, Coercion (+1, -0) "]
[Date "1516.??.??"]
[Site "76426"]
[FEN "2q1B2k/7r/3pp2B/3b3Q/1p1p4/1P6/P4PP1/6K1 w - - 1 1"]

1. Bg7+
( 1. Bg7+ Kxg7 2. Qf7+ Kh6 3. Qg6# )
1... Kxg7 
2. Qf7+ Kh6 
3. Qf6# *

[Event "Sacrifice, Clearance, Interference, Exposed King, Mate - Escalator "]
[Date "1520.??.??"]
[Site "58554"]
[FEN "r2q1b1k/1b1nrQ1p/p3p1pB/2ppP3/8/2NB3R/PPP3PP/5R1K w - - 1 1"]

1. Bg7+
( 1. Bg7+ Bxg7 2. Rxh7+ Kxh7 3. Qxg6+ Kg8 4. Qh7# )
1... Bxg7 
2. Rxh7+ Kxh7 
3. Qxg6+ Kg8 
4. Qh7# *

[Event "Sacrifice, Clearance, Exposed King, Mate - Escalator "]
[Date "1521.??.??"]
[Site "54480"]
[FEN "3qrk2/p4ppQ/2b2b1p/2r5/1p1p1N2/1B2PP2/PP4PP/3R1RK1 w - - 0 1"]

1. Ng6+
( 1. Ng6+ fxg6 2. Qg8+ Ke7 3. Qe6+ Kf8 4. Qf7# )
1... fxg6 
2. Qg8+ Ke7 
3. Qe6+ Kf8 
4. Qf7# *

[Event "Exposed King, Quiet Move, Mate - Escalator, Coercion (+2, -1) "]
[Date "1524.??.??"]
[Site "55184"]
[FEN "r1bqrk2/1p1nb1p1/p1p4p/8/2BP4/P1N1PN2/1PQ2PPP/2R1K2n w - - 1 1"]

1. Qh7
( 1. Qh7 Bg5 2. Qg8+ Ke7 3. Qe6+ Kf8 4. Qf7# )
1... Bf6 
2. Qg8+ Ke7 
3. Qe6+ Kf8 
4. Qf7# *

[Event "Exposed King, Coercion, Mate - Escalator (+3, -0) "]
[Date "1526.??.??"]
[Site "63468"]
[FEN "8/1p5k/p3q1p1/3p2Pp/1P1Qpb2/2P5/P5K1/4RR2 b - - 0 1"]

1... Qg4+
( 1... Qg4+ 2. Kf2 Qf3+ 3. Kg1 Qg3+ 4. Kh1 Qh2# )
2. Kf2 Qf3+ 
3. Kg1 Qg3+ 
4. Kh1 Qh2# *

[Event "Sacrifice, Exposed King, Attraction, Mate - Escalator, Mate - Swallow's Tail, Coercion (+4, -2) "]
[Date "1530.??.??"]
[Site "43377"]
[FEN "6k1/p1q3p1/2p4p/2N5/1P1Q4/P1P1Rb1P/6r1/5K2 b - - 1 1"]

1... Rg1+
( 1... Rg1+ 2. Kxg1 Qg3+ 3. Kf1 Qg2+ 4. Ke1 Qg1+ 5. Kd2 Qd1# )
2. Kxg1 Qg3+ 
3. Kf1 Qg2+ 
4. Ke1 Qg1+ 
5. Kd2 Qd1# *

[Event "Mate - Escalator "]
[Date "1535.??.??"]
[Site "103441"]
[FEN "3Q4/p2b2k1/3qB2p/5P2/1p1p4/PP6/2P2P2/5K2 w - - 0 1"]

1. f6+
( 1. f6+ Kg6 2. Qg8+ Kxf6 3. Qf7+ Kg5 4. Qf5+ Kh4 5. Qg4# )
1... Kg6 
2. Qg8+ Kxf6 
3. Qf7+ Kg5 
4. Qf5+ Kh4 
5. Qg4# *

[Event "Pin, Clearance, Exposed King, Coercion, Mate - Escalator "]
[Date "1537.??.??"]
[Site "104504"]
[FEN "6k1/2n2p2/1rP3pp/8/p3Q3/6P1/Bp2PP1P/2qR2K1 w - - 1 1"]

1. Qxg6+
( 1. Qxg6+ Kh8 2. Qf6+ Kh7 3. Qxf7+ Kh8 4. Qg8# )
1... Kh8 
2. Qf6+ Kg8 
3. Qxf7+ Kh8 
4. Qg8# *

[Event "Exposed King, Discovered Attack, Mate - Damiano's Bishop, Mate - Escalator "]
[Date "1555.??.??"]
[Site "60417"]
[FEN "8/8/k1p2p2/1pQ4R/p1b3P1/2P2P2/1P4KP/4q3 b - - 1 1"]

1... Bf1+
( 1... Bf1+ 2. Kh1 Be2+ 3. Kg2 Qf1+ 4. Kg3 Qxf3+ 5. Kh4 Qxg4# )
2. Kh1 Be2+ 
3. Kg2 Qf1+ 
4. Kg3 Qxf3+ 
5. Kh4 Qxg4# *

[Event "Pin, Exposed King, Attraction, Coercion, Mate - Escalator (+1, -0) "]
[Date "1567.??.??"]
[Site "39560"]
[FEN "1Qqk2r1/1p1r4/p3p1bP/2B2pP1/2pR4/2P5/PP6/4K3 w - - 1 1"]

1. Rxd7+
( 1. Rxd7+ Kxd7 2. Qd6+ Ke8 3. Qe7# )
1... Kxd7 
2. Qd6+ Ke8 
3. Qe7# *

[Event "Mate - Escalator (+1, -0) "]
[Date "1572.??.??"]
[Site "171065"]
[FEN "8/2PQ1ppk/1B2p2p/p3P3/4q2P/2b5/6PK/8 b - - 0 1"]

1... Qxh4+
( 1... Qxh4+ 2. Kg1 Qe1+ 3. Kh2 Bxe5+ 4. g3 Qxg3+ 5. Kh1 Qh2# )
2. Kg1 Qe1+ 
3. Kh2 Bxe5+ 
4. g3 Qxg3+ 
5. Kh1 Qh2# *

[Event "Exposed King, Quiet Move, Coercion, Mate - Escalator, Interference (+5, -2), Zwischenzug (+6, -3), Counting (+1, -0) "]
[Date "1585.??.??"]
[Site "71450"]
[FEN "8/1Q6/pb2pkp1/1p2p3/4P3/PB4P1/1P3qP1/3K4 b - - 1 1"]

1... Be3
( 1... Be3 2. Qd7 Qf1+ 3. Kc2 Qc1+ 4. Kd3 Qd2# )
2. Qd7 Qf1+ 
3. Kc2 Qc1+ 
4. Kd3 Qd2# *

[Event "Pin, Exposed King, Mate - Escalator, Clearance (+3, -0) "]
[Date "1588.??.??"]
[Site "71519"]
[FEN "6k1/2q2pp1/pp2p2p/2b5/2Q5/1PB3PP/P1N2P2/6K1 b - - 0 1"]

1... Qxg3+
( 1... Qxg3+ 2. Kh1 Qf3+ 3. Kg1 Qxf2+ 4. Kh1 Qg1# )
2. Kh1 Qf3+ 
3. Kg1 Qxf2+ 
4. Kh1 Qg1# *

[Event "Exposed King, Zwischenzug, Coercion, Mate - Escalator "]
[Date "1590.??.??"]
[Site "77724"]
[FEN "8/8/k1p2p2/1pQ4R/p1b3P1/2P2P2/1P4KP/4q3 b - - 1 1"]

1... Bf1+
( 1... Bf1+ 2. Kh1 Be2+ 3. Kg2 Qf1+ 4. Kg3 Qxf3+ 5. Kh4 Qxg4# )
2. Kh1 Be2+ 
3. Kg2 Qf1+ 
4. Kg3 Qxf3+ 
5. Kh4 Qxg4# *

[Event "Exposed King, Coercion, Mate - Dovetail - Bishop, Mate - Escalator, Avoiding Perpetual "]
[Date "1594.??.??"]
[Site "74478"]
[FEN "2k1q3/p5rp/2pQ4/3bB3/1P1P4/7P/6PK/8 w - - 0 1"]

1. Qb8+
( 1. Qb8+ Kd7 2. Qc7+ Ke6 3. Qd6+ Kf5 4. Qf6+ Ke4 5. Qf3# )
1... Kd7 
2. Qc7+ Ke6 
3. Qd6+ Kf5 
4. Qf6+ Ke4 
5. Qf3# *

