[Event "Exposed King, Mate - Lawnmower (+3, -0), Coercion (+1, -0) "]
[Date "1200.??.??"]
[Site "73247"]
[FEN "2RR4/p5pk/5p2/7P/2P5/1p4P1/r1P3r1/2K5 b - - 1 1"]

1... Raxc2+
( 1... Raxc2+ 2. Kb1 Rg1+ 3. Rd1 Rxd1# )
2. Kb1 Rg1+ 
3. Rd1 Rxd1# *

[Event "Exposed King, Mate - Lawnmower "]
[Date "1202.??.??"]
[Site "76359"]
[FEN "8/p3Q2p/4p1pk/3pPb2/7P/6R1/Pq3P1K/8 w - - 0 1"]

1. Qf8+
( 1. Qf8+ Kh5 2. Rg5+ Kxh4 3. Qh6# )
1... Kh5 
2. Rg5+ Kxh4 
3. Qh6# *

[Event "Exposed King, Coercion (+3, -0), Mate - Lawnmower (+1, -0) "]
[Date "1203.??.??"]
[Site "46401"]
[FEN "8/6k1/5p2/8/5q2/3Q1P2/P5r1/1K2R3 w - - 0 1"]

1. Re7+
( 1. Re7+ Kh6 2. Qh7+ Kg5 3. Rg7# )
1... Kh6 
2. Qh7+ Kg5 
3. Rg7# *

[Event "Exposed King, Coercion, Mate - Lawnmower "]
[Date "1205.??.??"]
[Site "37680"]
[FEN "4k3/1p4R1/3p1R2/p1n2B2/P3P2r/1Pr5/8/6K1 w - - 0 1"]

1. Bg6+
( 1. Bg6+ Kd8 2. Rf8# )
1... Kd8 
2. Rf8# *

[Event "Sacrifice, Clearance, Coercion, Mate - Lawnmower (+3, -1), Attraction (+2, -1), Zwischenzug (+2, -1), Exposed King (+2, -2), Discovered Attack (+4, -7), Different Opponent Move (3.Bxf1 (+2, -1)) "]
[Date "1205.??.??"]
[Site "93152"]
[FEN "5rk1/pRQ3b1/3p3p/3Pp1pq/8/2B3PP/P1r2nB1/5RK1 b - - 1 1"]

1... Nxh3+
( 1... Nxh3+ 2. Bxh3 Rxf1+ 3. Kxf1 Qxh3+ 4. Ke1 Qh1# )
2. Bxh3 Rxf1+ 
3. Kxf1 Qxh3+ 
4. Ke1 Qh1# *

[Event "Exposed King, Coercion (+1, -0), Mate - Lawnmower (+1, -0) "]
[Date "1207.??.??"]
[Site "51531"]
[FEN "3k1r2/2p3R1/p7/1p5Q/3pPP2/1PqP4/P3K3/8 w - - 1 1"]

1. Qd5+
( 1. Qd5+ Kc8 2. Qa8# )
1... Kc8 
2. Qa8# *

[Event "Discovered Attack (+1, -0), Clearance (+1, -0), Exposed King (+1, -0), Mate - Lawnmower (+1, -0) "]
[Date "1209.??.??"]
[Site "166489"]
[FEN "6k1/5p2/4b2p/p1p1p3/3q4/1P2QP2/P1N1RKPP/3r4 b - - 1 1"]

1... Qh4+
( 1... Qh4+ 2. g3 Qxh2# )
2. g3 Qxh2# *

[Event "Exposed King, Coercion, Mate - Lawnmower (+3, -0) "]
[Date "1209.??.??"]
[Site "33086"]
[FEN "2r3k1/8/p3PKp1/8/P1bP4/2B2Pq1/1PQ3R1/4N3 b - - 0 1"]

1... Rf8+
( 1... Rf8+ 2. Ke7 Qc7# )
2. Ke7 Qc7# *

[Event "Exposed King, Mate - Lawnmower "]
[Date "1211.??.??"]
[Site "101201"]
[FEN "8/6rk/7p/p2Q1p2/8/P4q1P/5PP1/3R2K1 b - - 0 1"]

1... Rxg2+
( 1... Rxg2+ 2. Kf1 Qxf2# )
2. Kh1 Qxh3# *

[Event "Exposed King, Capturing Defender, Quiet Move, Mate - Lawnmower "]
[Date "1213.??.??"]
[Site "42413"]
[FEN "3r1k2/p5RR/4p1p1/5pK1/4r3/7P/P5p1/8 w - - 1 1"]

1. Kf6
( 1. Kf6 Rh4 2. Rxh4 g1=Q 3. Rh8# )
1... Rh4 
2. Rxh4 g1=Q 
3. Rh8# *

[Event "Pin, Distraction, Exposed King, Mate - Lawnmower "]
[Date "1216.??.??"]
[Site "32538"]
[FEN "r4k2/2R4R/pp4rp/8/3B4/7p/5PbP/4K3 w - - 1 1"]

1. Rh8+
( 1. Rh8+ Rg8 2. Bg7+ Ke8 3. Rxg8# )
1... Rg8 
2. Bg7+ Ke8 
3. Rxg8# *

[Event "Pin, Distraction, Exposed King, Mate - Lawnmower "]
[Date "1216.??.??"]
[Site "72705"]
[FEN "r4k2/2R4R/pp4rp/8/3B4/7p/5PbP/4K3 w - - 1 1"]

1. Rh8+
( 1. Rh8+ Rg8 2. Bg7+ Ke8 3. Rxg8# )
1... Rg8 
2. Bg7+ Ke8 
3. Rxg8# *

[Event "Sacrifice, Exposed King, Attraction, Mate - Lawnmower "]
[Date "1218.??.??"]
[Site "43441"]
[FEN "3q1b2/kr2rpp1/p6p/4P1nP/3P4/1R4P1/P2BQP2/1R4K1 w - - 0 1"]

1. Qxa6+
( 1. Qxa6+ Kxa6 2. Ra3+ Qa5 3. Rxa5# )
1... Kxa6 
2. Ra3+ Qa5 
3. Rxa5# *

[Event "Exposed King, Mate - Lawnmower, Interference (+1, -0), Coercion (+2, -1) "]
[Date "1218.??.??"]
[Site "46861"]
[FEN "8/1r5k/3R1q2/p1Q5/4p1p1/K7/P5PP/8 b - - 1 1"]

1... Qb2+
( 1... Qb2+ 2. Ka4 Rb4+ 3. Kxa5 Qa3# )
2. Ka4 Rb4+ 
3. Kxa5 Qa3# *

[Event "Exposed King, Back Rank Mate (+6, -4), Coercion (+2, -0), Mate - Lawnmower (+1, -0) "]
[Date "1221.??.??"]
[Site "44772"]
[FEN "rk6/q2Rbp2/4Pp1p/8/1pp1P3/1P5Q/P5PP/1K6 w - - 1 1"]

1. Qg3+
( 1. Qg3+ Bd6 2. Qxd6+ Kc8 3. Qf8# )
1... Kc8 
2. Qg8+ Bd8 
3. Qxd8# *

[Event "Exposed King, Back Rank Mate (+6, -4), Coercion (+2, -0), Mate - Lawnmower (+1, -0) "]
[Date "1221.??.??"]
[Site "44992"]
[FEN "rk6/q2Rbp2/4Pp1p/8/1pp1P3/1P5Q/P5PP/1K6 w - - 1 1"]

1. Qg3+
( 1. Qg3+ Bd6 2. Qxd6+ Kc8 3. Qf8# )
1... Kc8 
2. Qg8+ Bd8 
3. Qxd8# *

[Event "Exposed King, Back Rank Mate (+6, -4), Coercion (+2, -0), Mate - Lawnmower (+1, -0) "]
[Date "1221.??.??"]
[Site "50700"]
[FEN "rk6/q2Rbp2/4Pp1p/8/1pp1P3/1P5Q/P5PP/1K6 w - - 1 1"]

1. Qg3+
( 1. Qg3+ Bd6 2. Qxd6+ Kc8 3. Qf8# )
1... Kc8 
2. Qg8+ Bd8 
3. Qxd8# *

[Event "Sacrifice, Clearance, Mate - Lawnmower "]
[Date "1224.??.??"]
[Site "100059"]
[FEN "3q1rrk/7p/p3Pp2/1p6/1bppQBR1/7P/1P3P1K/6R1 w - - 1 1"]

1. Qxh7+
( 1. Qxh7+ Kxh7 2. Rh4# )
1... Kxh7 
2. Rh4# *

[Event "Back Rank Mate (+2, -0), Exposed King (+1, -0), Coercion (+1, -0), Mate - Lawnmower (+1, -0) "]
[Date "1224.??.??"]
[Site "159584"]
[FEN "8/1p1k4/pn3Q1p/3P1p2/5q2/1P5P/P1r5/4R2K w - - 1 1"]

1. Re7+
( 1. Re7+ Kc8 2. Qf8# )
1... Kc8 
2. Qf8# *

[Event "Fork/Double Attack, Back Rank Mate, Exposed King, Interference, Mate - Lawnmower (+1, -0) "]
[Date "1224.??.??"]
[Site "60735"]
[FEN "8/4q2k/7p/1Qp3p1/6P1/6P1/4r1BP/2R3K1 b - - 0 1"]

1... Qe3+
( 1... Qe3+ 2. Kh1 Qxc1+ 3. Bf1 Qxf1# )
2. Kh1 Qxc1+ 
3. Bf1 Qxf1# *

[Event "Sacrifice, Attraction, Mate - Lawnmower (+3, -0) "]
[Date "1225.??.??"]
[Site "51238"]
[FEN "1r4r1/k1p2ppp/p7/3pP3/1R3P1b/P2Q2P1/q1P4P/1R5K w - - 1 1"]

1. Qxa6+
( 1. Qxa6+ Kxa6 2. Ra4# )
1... Kxa6 
2. Ra4# *

[Event "Blocking, Exposed King, X-Ray Attack, Mate - Lawnmower (+1, -0) "]
[Date "1225.??.??"]
[Site "65249"]
[FEN "r1bq1r2/2p2p1R/p5k1/1p2Q1p1/3P4/1BP3P1/PP1N2P1/4K3 w - - 1 1"]

1. Bc2+
( 1. Bc2+ Bf5 2. Bxf5# )
1... f5 
2. Qg7# *

[Event "Attraction, Sacrifice, Exposed King, Mate - Lawnmower (+2, -0) "]
[Date "1227.??.??"]
[Site "54006"]
[FEN "2k4r/p4Rpp/3rP3/Q7/P1qP4/4P1P1/2p4P/1R4K1 w - - 0 1"]

1. Rb8+
( 1. Rb8+ Kxb8 2. Qxa7+ Kc8 3. Qa8# )
1... Kxb8 
2. Qxa7+ Kc8 
3. Qa8# *

[Event "Attraction, Sacrifice, Exposed King, Mate - Lawnmower (+2, -0) "]
[Date "1227.??.??"]
[Site "71510"]
[FEN "2k4r/p4Rpp/3rP3/Q7/P1qP4/4P1P1/2p4P/1R4K1 w - - 0 1"]

1. Rb8+
( 1. Rb8+ Kxb8 2. Qxa7+ Kc8 3. Qa8# )
1... Kxb8 
2. Qxa7+ Kc8 
3. Qa8# *

[Event "Exposed King, Mate - Lawnmower, Coercion "]
[Date "1228.??.??"]
[Site "72697"]
[FEN "5rk1/PR1R4/3p4/3Pb2K/8/8/8/6r1 b - - 0 1"]

1... Rf5+
( 1... Rf5+ 2. Kh4 Bf6+ 3. Kh3 Rh5# )
2. Kh4 Bf6+ 
3. Kh3 Rh5# *

[Event "Exposed King, Mate - Lawnmower "]
[Date "1229.??.??"]
[Site "63835"]
[FEN "k6r/p4K2/P1N1p2q/1PQ1P3/2P1P1P1/7P/8/8 b - - 0 1"]

1... Rh7+
( 1... Rh7+ 2. Ke8 Qg6+ 3. Kd8 Qg8+ 4. Qf8 Qxf8# )
2. Ke8 Qg6+ 
3. Kd8 Qg8+ 
4. Qf8 Qxf8# *

[Event "Pin, Mate - Lawnmower (+3, -0), Extra Move (1...Rxf1 (+1, -0)) "]
[Date "1230.??.??"]
[Site "54166"]
[FEN "4r1k1/1p3ppp/8/1P3q2/2Q1B3/1P1n2PP/1B3P2/r4RK1 b - - 0 1"]

1... Qxf2+
( 1... Qxf2+ 2. Kh1 Rxf1# )
2. Kh1 Rxf1# *

[Event "Pin, Mate - Lawnmower (+3, -0), Extra Move (1...Rxf1 (+1, -0)) "]
[Date "1230.??.??"]
[Site "64654"]
[FEN "4r1k1/1p3ppp/8/1P3q2/2Q1B3/1P1n2PP/1B3P2/r4RK1 b - - 0 1"]

1... Qxf2+
( 1... Qxf2+ 2. Kh1 Rxf1# )
2. Kh1 Rxf1# *

[Event "Exposed King, Coercion, Mate - Lawnmower "]
[Date "1243.??.??"]
[Site "52982"]
[FEN "8/4bk2/2p1p2p/1pP2p2/1P1PpP2/2N1P2P/R1R2K2/r5r1 b - - 1 1"]

1... Bh4+
( 1... Bh4+ 2. Ke2 Rg2# )
2. Ke2 Rg2# *

[Event "Sacrifice, Clearance, Attraction, Mate - Lawnmower, Exposed King (+3, -5) "]
[Date "1245.??.??"]
[Site "75284"]
[FEN "5rk1/1p2Rp2/2r2Pp1/3p2P1/4Q3/1p6/qBPR4/2K5 w - - 0 1"]

1. Qxg6+
( 1. Qxg6+ fxg6 2. Rg7+ Kh8 3. Rh2# )
1... fxg6 
2. Rg7+ Kh8 
3. Rh2# *

[Event "Exposed King, Coercion, Mate - Lawnmower (+3, -0) "]
[Date "1249.??.??"]
[Site "93004"]
[FEN "8/4R3/p4k2/6p1/8/2P2P2/1r1r2PP/4R1K1 w - - 1 1"]

1. R1e6+
( 1. R1e6+ Kf5 2. g4+ Kf4 3. Rf6# )
1... Kf5 
2. g4+ Kf4 
3. Rf6# *

[Event "Sacrifice, Mate - Lawnmower, Exposed King "]
[Date "1251.??.??"]
[Site "40279"]
[FEN "2kr4/7R/3ppQ2/4n3/2q5/7P/P1r3P1/5R1K w - - 0 1"]

1. Qxd8+
( 1. Qxd8+ Kxd8 2. Rf8# )
1... Kxd8 
2. Rf8# *

[Event "Interference, Discovered Attack, Mate - Lawnmower, Exposed King "]
[Date "1252.??.??"]
[Site "62591"]
[FEN "r7/p7/k1q1p3/B7/2b5/Q2r4/P1P2PPP/1R4K1 w - - 0 1"]

1. Bc3+
( 1. Bc3+ Qa4 2. Qxa4# )
1... Qa4 
2. Qxa4# *

[Event "Exposed King, Back Rank Mate, Mate - Lawnmower, Coercion "]
[Date "1253.??.??"]
[Site "92766"]
[FEN "1R6/1p3kpp/5pr1/p1p5/2P1qQ2/1PB1P3/P4K2/5R1b b - - 1 1"]

1... Rg2+
( 1... Rg2+ 2. Ke1 Qb1# )
2. Ke1 Qb1# *

[Event "Coercion, Distraction (+3, -0), Exposed King (+3, -0), Mate - Lawnmower (+1, -0) "]
[Date "1253.??.??"]
[Site "97153"]
[FEN "r4rk1/3p4/b2Pp1q1/p1Pp2pR/3Q4/1P4p1/PB3PK1/8 w - - 0 1"]

1. Qh8+
( 1. Qh8+ Kf7 2. Rh7+ Ke8 3. Re7+ Kd8 4. Qxf8+ Qe8 5. Rxe8# )
1... Kf7 
2. Rh7+ Ke8 
3. Re7+ Kd8 
4. Qxf8+ Qe8 
5. Rxe8# *

[Event "Exposed King, Coercion, Clearance (+7, -4), Mate - Lawnmower (+3, -0) "]
[Date "1254.??.??"]
[Site "77484"]
[FEN "8/3R1pkp/ppr2Rp1/5nP1/4n2P/8/P1P5/K7 w - - 0 1"]

1. Rdxf7+
( 1. Rdxf7+ Kg8 2. Rf8+ Kg7 3. R6f7# )
1... Kg8 
2. Rf8+ Kg7 
3. R6f7# *

[Event "Discovered Attack, Pin, Exposed King, Coercion, Mate - Lawnmower "]
[Date "1254.??.??"]
[Site "77726"]
[FEN "6k1/3RP1p1/p5rp/1p3p2/1Br4N/P7/1P3nPK/5R2 b - - 0 1"]

1... Rxh4+
( 1... Rxh4+ 2. Kg1 Nh3+ 3. Kh1 Nf4+ 4. Kg1 Rxg2# )
2. Kg1 Nh3+ 
3. Kh1 Nf4+ 
4. Kg1 Rxg2# *

[Event "Coercion, Mate - Lawnmower, Exposed King (+3, -0) "]
[Date "1255.??.??"]
[Site "104306"]
[FEN "5k2/3R1p1p/3P2p1/3q4/3b1Q2/1P5P/5PPK/5r2 w - - 0 1"]

1. Qh6+
( 1. Qh6+ Ke8 2. Re7+ Kd8 3. Qf8# )
1... Ke8 
2. Re7+ Kd8 
3. Qf8# *

[Event "Exposed King, Coercion, Mate - Lawnmower "]
[Date "1255.??.??"]
[Site "73446"]
[FEN "6k1/7p/p1R3p1/1pP1p1Q1/4P1Pn/1PR5/P3Brr1/7K b - - 0 1"]

1... Rh2+
( 1... Rh2+ 2. Kg1 Rfg2+ 3. Kf1 Rh1# )
2. Kg1 Rfg2+ 
3. Kf1 Rh1# *

[Event "Double Check, Discovered Attack, Exposed King, Mate - Lawnmower, Mate - Hook (+3, -0), Coercion (+2, -1) "]
[Date "1256.??.??"]
[Site "59477"]
[FEN "2r5/5k2/4qNpQ/5R1p/4b3/7P/6P1/7K w - - 1 1"]

1. Qh7+
( 1. Qh7+ Kf8 2. Nd7+ Ke8 3. Rf8# )
1... Kf8 
2. Nd7+ Ke8 
3. Rf8# *

[Event "Attraction, Mate - Lawnmower, Sacrifice, Clearance, Back Rank Mate (+3, -2) "]
[Date "1259.??.??"]
[Site "88623"]
[FEN "r6k/6Rp/4n3/pp3r2/2P1R3/1P4QP/5PPK/q7 w - - 0 1"]

1. Rxh7+
( 1. Rxh7+ Kxh7 2. Rh4+ Rh5 3. Rxh5# )
1... Kxh7 
2. Rh4+ Rh5 
3. Rxh5# *

[Event "Exposed King, Clearance (+3, -0), Mate - Epaulette (+2, -0), Coercion (+1, -0), Mate - Lawnmower (+1, -0) "]
[Date "1260.??.??"]
[Site "71862"]
[FEN "7r/ppp2kp1/3P4/1N1Pp1nr/1P2Pp2/P4R1q/4Q2P/4BR1K b - - 0 1"]

1... Qxh2+
( 1... Qxh2+ 2. Qxh2 Rxh2+ 3. Kg1 Nxf3+ 4. Rxf3 Rh1+ 5. Kg2 R8h2# )
2. Qxh2 Rxh2+ 
3. Kg1 Rh1+ 
4. Kf2 R8h2# *

[Event "Exposed King, Coercion, Mate - Lawnmower "]
[Date "1263.??.??"]
[Site "34411"]
[FEN "r3q3/pp4R1/5R2/7k/8/1P1r2PP/PB3K2/8 w - - 1 1"]

1. g4+
( 1. g4+ Kh4 2. Rh6+ Qh5 3. Rxh5# )
1... Kh4 
2. Rh6+ Qh5 
3. Rxh5# *

[Event "Sacrifice, Clearance, Exposed King, Mate - Lawnmower "]
[Date "1263.??.??"]
[Site "64032"]
[FEN "2r2r1k/4b2p/3p2R1/4p2Q/pp2P3/5q2/PPP3RP/1KB5 w - - 0 1"]

1. Qxh7+
( 1. Qxh7+ Kxh7 2. Rh6# )
1... Kxh7 
2. Rh6# *

[Event "Clearance, Sacrifice, Mate - Lawnmower, Back Rank Mate, Attraction "]
[Date "1265.??.??"]
[Site "44395"]
[FEN "1r6/R3pk2/3Qnpp1/1q2p3/8/4B2P/P1r3P1/5RK1 b - - 1 1"]

1... Qxf1+
( 1... Qxf1+ 2. Kxf1 Rb1+ 3. Bc1 Rbxc1+ 4. Qd1 Rxd1# )
2. Kxf1 Rb1+ 
3. Bc1 Rbxc1+ 
4. Qd1 Rxd1# *

[Event "Exposed King, Coercion, Mate - Lawnmower (+1, -0) "]
[Date "1267.??.??"]
[Site "73633"]
[FEN "k5r1/1p3R2/p2Q3p/8/3P4/P6K/1PP5/2q5 b - - 1 1"]

1... Qe3+
( 1... Qe3+ 2. Kh2 Qe2+ 3. Kh1 Qg2# )
2. Kh2 Qe2+ 
3. Rf2 Qh5# *

[Event "Back Rank Mate, Sacrifice, Clearance, Attraction, Mate - Lawnmower "]
[Date "1268.??.??"]
[Site "43407"]
[FEN "5rk1/p2R1ppp/4p3/2Qbq3/P7/1r3PP1/4B2P/2R2K2 w - - 0 1"]

1. Qxf8+
( 1. Qxf8+ Kxf8 2. Rc8# )
1... Kxf8 
2. Rc8# *

[Event "Distraction, Exposed King, Coercion, Mate - Lawnmower, Back Rank Mate (+6, -9) "]
[Date "1269.??.??"]
[Site "26595"]
[FEN "k7/p7/4R1p1/6P1/8/6pP/2r3r1/1R3K2 b - - 1 1"]

1... Rcf2+
( 1... Rcf2+ 2. Ke1 Rg1# )
2. Ke1 Rg1# *

[Event "Sacrifice, Exposed King, Mate - Lawnmower "]
[Date "1269.??.??"]
[Site "61118"]
[FEN "k6r/p3p3/1R3npp/2pP4/5p2/Q1PBq2b/6P1/1R5K w - - 0 1"]

1. Qxa7+
( 1. Qxa7+ Kxa7 2. Ra6# )
1... Kxa7 
2. Ra6# *

[Event "Mate - Lawnmower, Exposed King (+2, -0), Coercion (+2, -0) "]
[Date "1271.??.??"]
[Site "106330"]
[FEN "6k1/3R4/3p2p1/3P4/7r/1P2ppr1/P5B1/2R3K1 b - - 0 1"]

1... Rxg2+
( 1... Rxg2+ 2. Kf1 Rh1# )
2. Kf1 Rh1# *

[Event "Sacrifice, Interference, Exposed King, Coercion, Mate - Lawnmower "]
[Date "1273.??.??"]
[Site "75684"]
[FEN "r1q4r/6k1/4p1p1/pp1nPpP1/3P3Q/P1P4R/3B3R/6K1 w - - 0 1"]

1. Qh7+
( 1. Qh7+ Rxh7 2. Rxh7+ Kg8 3. Rh8+ Kf7 4. R2h7# )
1... Rxh7 
2. Rxh7+ Kf8 
3. Rh8+ Ke7 
4. R2h7# *

[Event "Exposed King, Coercion, Mate - Lawnmower "]
[Date "1274.??.??"]
[Site "56633"]
[FEN "6k1/p5pp/1pQpq1r1/5P2/2P5/PP5K/5R1P/8 b - - 0 1"]

1... Qe3+
( 1... Qe3+ 2. Qf3 Qh6+ 3. Qh5 Qxh5# )
2. Qf3 Qh6+ 
3. Qh5 Qxh5# *

[Event "Sacrifice, Clearance, Exposed King, Mate - Lawnmower, Attraction (+3, -4) "]
[Date "1276.??.??"]
[Site "12633"]
[FEN "6rk/5p1p/1r5q/1P1ppP2/1Q6/3PN3/4PP1P/6RK b - - 1 1"]

1... Qxh2+
( 1... Qxh2+ 2. Kxh2 Rh6+ 3. Qh4 Rxh4# )
2. Kxh2 Rh6+ 
3. Qh4 Rxh4# *

[Event "Exposed King, Coercion, Mate - Lawnmower "]
[Date "1283.??.??"]
[Site "33886"]
[FEN "8/4p3/3k1b2/5Q1p/3p1P1P/3P1P2/1R3K2/r5r1 b - - 1 1"]

1... Bxh4+
( 1... Bxh4+ 2. Ke2 Rg2# )
2. Ke2 Rg2# *

[Event "Sacrifice, Clearance, Attraction, Mate - Lawnmower "]
[Date "1284.??.??"]
[Site "73526"]
[FEN "kr2qn2/3r4/5p1p/pQp1p1p1/2P1P3/3R1P2/3B2PP/1R4K1 w - - 0 1"]

1. Qxa5+
( 1. Qxa5+ Ra7 2. Qxa7+ Kxa7 3. Ra3+ Qa4 4. Rxa4# )
1... Ra7 
2. Qxa7+ Kxa7 
3. Ra3+ Qa4 
4. Rxa4# *

[Event "Exposed King, Coercion, Interference (+1, -0), Mate - Lawnmower (+1, -0) "]
[Date "1287.??.??"]
[Site "64004"]
[FEN "7r/6k1/5pp1/2p5/4Pp2/pP1RNP1q/P1R2K2/2Q5 b - - 0 1"]

1... Qg3+
( 1... Qg3+ 2. Ke2 Rh2+ 3. Kf1 Rh1+ 4. Ke2 Qh2+ 5. Ng2 Qxg2# )
2. Ke2 Rh2+ 
3. Kf1 Rh1+ 
4. Ke2 Qh2+ 
5. Ng2 Qxg2# *

[Event "Distraction, Mate - Lawnmower, Back Rank Mate (+9, -6), Exposed King (+2, -2) "]
[Date "1287.??.??"]
[Site "74753"]
[FEN "8/p5kp/4P1p1/6b1/P3B3/1N4P1/1rr4P/4R1K1 b - - 1 1"]

1... Be3+
( 1... Be3+ 2. Kf1 Rf2+ 3. Kg1 Rg2+ 4. Kf1 Rbf2# )
2. Rxe3 Rb1+ 
3. Nc1 Rbxc1+ 
4. Re1 Rxe1# *

[Event "Mate - Lawnmower, Coercion "]
[Date "1289.??.??"]
[Site "100301"]
[FEN "8/3R4/1Br3k1/P3p1n1/4n3/3BR3/7r/3K4 b - - 1 1"]

1... Rd2+
( 1... Rd2+ 2. Ke1 Rc1# )
2. Ke1 Rc1# *

[Event "Sacrifice, Attraction, Coercion, Mate - Lawnmower "]
[Date "1289.??.??"]
[Site "94798"]
[FEN "6k1/2r1q1n1/4pR1Q/p2pP1Pp/7P/1r6/1P6/1K3R2 b - - 1 1"]

1... Rxb2+
( 1... Rxb2+ 2. Kxb2 Qb4+ 3. Ka1 Qa3+ 4. Kb1 Rb7+ 5. Kc2 Rb2+ 6. Kd1 Qa1# )
2. Kxb2 Qb4+ 
3. Ka1 Qa3+ 
4. Kb1 Rb7+ 
5. Kc2 Rb2+ 
6. Kd1 Qa1# *

[Event "Exposed King, Mate - Lawnmower, Coercion (+4, -1) "]
[Date "1295.??.??"]
[Site "74458"]
[FEN "3r3k/5RRp/3r3P/pp6/4p3/2P5/PP5K/8 w - - 0 1"]

1. Rxh7+
( 1. Rxh7+ Kg8 2. Rfg7+ Kf8 3. Rh8# )
1... Kg8 
2. Rfg7+ Kf8 
3. Rh8# *

[Event "Exposed King, Mate - Lawnmower, Coercion "]
[Date "1300.??.??"]
[Site "12260"]
[FEN "8/pn2pQ1p/6p1/7k/P1r4r/6K1/4PP2/5R2 b - - 1 1"]

1... Rcg4+
( 1... Rcg4+ 2. Kf3 Rh3# )
2. Kf3 Rh3# *

[Event "Exposed King, Coercion, Mate - Lawnmower "]
[Date "1301.??.??"]
[Site "102085"]
[FEN "5R2/1p4pk/p3Q1p1/2q5/P3p1n1/1P4P1/1P1r2P1/R6K b - - 0 1"]

1... Qh5+
( 1... Qh5+ 2. Kg1 Qh2+ 3. Kf1 Qh1# )
2. Kg1 Qh2+ 
3. Kf1 Qh1# *

[Event "Exposed King (+2, -0), Mate - Lawnmower (+1, -0) "]
[Date "1301.??.??"]
[Site "165012"]
[FEN "1r5k/1bq2rR1/p3p3/3p4/P2ppP2/1PQ5/2P4P/6RK w - - 1 1"]

1. Qh3#
( 1. Qh3# ) *

[Event "Exposed King, Coercion (+4, -1), Mate - Lawnmower (+2, -0) "]
[Date "1303.??.??"]
[Site "99313"]
[FEN "7Q/4kp2/R7/3rp3/8/7P/2q2PP1/6K1 b - - 0 1"]

1... Qc1+
( 1... Qc1+ 2. Kh2 Qf4+ 3. g3 Qxf2+ 4. Kh1 Rd1# )
2. Kh2 Qf4+ 
3. g3 Qxf2+ 
4. Kh1 Rd1# *

[Event "Pin, Exposed King, Coercion, Mate - Lawnmower "]
[Date "1305.??.??"]
[Site "45747"]
[FEN "Q7/2r2p1p/pk2p1p1/2p5/2P2q2/5B2/P7/K2R4 w - - 1 1"]

1. Rb1+
( 1. Rb1+ Ka5 2. Rb5+ Ka4 3. Qxa6# )
1... Ka5 
2. Rb5+ Ka4 
3. Qxa6# *

[Event "Coercion, Exposed King, Mate - Lawnmower "]
[Date "1305.??.??"]
[Site "46938"]
[FEN "7k/2p3p1/1p4r1/p3P3/PP3p2/2P1N2K/3r4/1RR5 b - - 1 1"]

1... Rg3+
( 1... Rg3+ 2. Kh4 Rh2# )
2. Kh4 Rh2# *

[Event "Exposed King, Coercion, Mate - Dovetail (+2, -0), Mate - Lawnmower (+2, -0) "]
[Date "1305.??.??"]
[Site "90191"]
[FEN "5nk1/1pb2ppp/5r2/1N1R4/8/P2RP1PQ/2q4P/6K1 b - - 0 1"]

1... Qf2+
( 1... Qf2+ 2. Kh1 Qe1+ 3. Kg2 Rf2# )
2. Kh1 Qe1+ 
3. Kg2 Qf1# *

[Event "Sacrifice (+2, -0), Mate - Lawnmower (+2, -0), Clearance (+1, -0) "]
[Date "1308.??.??"]
[Site "164459"]
[FEN "2r2r2/k3qpp1/p3p3/6P1/R4Q2/4P3/P6P/1R4K1 w - - 1 1"]

1. Rxa6+
( 1. Rxa6+ Kxa6 2. Qa4# )
1... Kxa6 
2. Qa4# *

[Event "Exposed King, Mate - Lawnmower, Coercion, Interference (+2, -0) "]
[Date "1308.??.??"]
[Site "7526"]
[FEN "1r3r2/5pnp/k7/8/8/8/4R2P/2R4K w - - 1 1"]

1. Ra2+
( 1. Ra2+ Kb6 2. Rb2+ Ka5 3. Ra1# )
1... Kb5 
2. Rb2+ Ka4 
3. Ra1# *

[Event "Mate - Lawnmower, Sacrifice (+4, -1), Attraction (+4, -1) "]
[Date "1313.??.??"]
[Site "161338"]
[FEN "1r4k1/2Q2pp1/p6p/7R/4P3/Pr3P1P/KP1R4/7q b - - 1 1"]

1... Rxa3+
( 1... Rxa3+ 2. bxa3 Qb1# )
2. Kxa3 Qa1# *

[Event "Clearance, Sacrifice, Mate - Lawnmower, Back Rank Mate (+5, -3) "]
[Date "1319.??.??"]
[Site "74427"]
[FEN "1kb1R3/2q2p2/p1p2p2/1P3P1p/P7/1Q3BrP/3r2P1/2R4K b - - 0 1"]

1... Rxh3+
( 1... Rxh3+ 2. Kg1 Qh2+ 3. Kf1 Qh1# )
2. Kg1 Qh2+ 
3. Kf1 Qh1# *

[Event "Exposed King, Clearance, Coercion, Mate - Lawnmower (+1, -0) "]
[Date "1324.??.??"]
[Site "61648"]
[FEN "r6k/ppp1q3/3pn1Qp/4bN2/P5R1/2P5/1P2Pr1N/6RK w - - 1 1"]

1. Qxh6+
( 1. Qxh6+ Qh7 2. Qxh7+ Kxh7 3. Rh4# )
1... Qh7 
2. Qxh7+ Kxh7 
3. Rh4# *

[Event "Distraction, Exposed King, Mate - Lawnmower (+3, -1) "]
[Date "1324.??.??"]
[Site "71314"]
[FEN "5r1k/pp1b1q2/4p2r/2pp2R1/3P1P2/P1P1Q1R1/2P3PP/6K1 w - - 1 1"]

1. Qe5+
( 1. Qe5+ Qf6 2. Qxf6+ Rhxf6 3. Rh3+ Rh6 4. Rxh6# )
1... Qf6 
2. Qxf6+ Rfxf6 
3. Rg8+ Kh7 
4. R3g7# *

[Event "Discovered Attack, Mate - Lawnmower, Sacrifice, Back Rank Mate "]
[Date "1327.??.??"]
[Site "45841"]
[FEN "3r2k1/5p1p/1p6/1Pq3P1/4p2P/Q5P1/4Br2/R1N3K1 b - - 1 1"]

1... Rxe2+
( 1... Rxe2+ 2. Qxc5 Rd1# )
2. Qxc5 Rd1# *

[Event "Exposed King, Quiet Move, Mate - Lawnmower (+2, -0) "]
[Date "1327.??.??"]
[Site "46805"]
[FEN "r1r4k/1pq1bp2/p3pN1p/4P3/6R1/2PR4/PP4PP/1K6 w - - 0 1"]

1. Rh3
( 1. Rh3 Bxf6 2. Rxh6# )
1... Bxf6 
2. Rxh6# *

[Event "Quiet Move, Exposed King, Mate - Lawnmower "]
[Date "1327.??.??"]
[Site "55150"]
[FEN "r3br2/pp3p1k/2p1p3/2PpP3/3P4/2P1P3/6R1/2R4K w - - 0 1"]

1. Rcg1
( 1. Rcg1 f6 2. Rh2+ Bh5 3. Rxh5# )
1... f5 
2. Rh2+ Bh5 
3. Rxh5# *

[Event "Coercion, Back Rank Mate, Exposed King, Mate - Lawnmower, Distraction (+2, -0) "]
[Date "1330.??.??"]
[Site "17342"]
[FEN "6k1/7p/p1R3p1/1pP1p1Q1/4P1Pn/1PR5/P3Br1r/6K1 b - - 1 1"]

1... Rfg2+
( 1... Rfg2+ 2. Kf1 Rh1# )
2. Kf1 Rh1# *

[Event "Sacrifice, Distraction, Mate - Lawnmower (+2, -0), Coercion (+1, -0) "]
[Date "1331.??.??"]
[Site "100479"]
[FEN "r1b1Rnk1/pp3p2/1npp2p1/6qp/2P5/1NQ4B/PP5P/5R1K w - - 1 1"]

1. Qh8+
( 1. Qh8+ Kxh8 2. Rxf8+ Kg7 3. R1xf7+ Kh6 4. Rh8# )
1... Kxh8 
2. Rxf8+ Kg7 
3. R1xf7+ Kh6 
4. Rh8# *

[Event "Exposed King, Coercion, Mate - Lawnmower "]
[Date "1332.??.??"]
[Site "94078"]
[FEN "5b1k/1R6/p7/P5QK/4q3/8/7P/8 w - - 1 1"]

1. Qf6+
( 1. Qf6+ Kg8 2. Qf7+ Kh8 3. Qxf8# )
1... Kg8 
2. Qf7+ Kh8 
3. Qxf8# *

[Event "Exposed King, Mate - Lawnmower (+2, -1) "]
[Date "1335.??.??"]
[Site "61870"]
[FEN "1R3B2/7k/2p1r3/5Pp1/3b4/P6K/5r1P/2R5 b - - 0 1"]

1... Re3+
( 1... Re3+ 2. Kg4 Rg2+ 3. Kh5 Rh3# )
2. Kg4 Rg2+ 
3. Kh5 Rh3# *

[Event "Discovered Attack, Exposed King, Mate - Lawnmower "]
[Date "1341.??.??"]
[Site "50465"]
[FEN "1r2r1k1/p7/5R2/2p1p1N1/4P1R1/b2n2P1/P5KP/8 w - - 0 1"]

1. Ne6+
( 1. Ne6+ Kh7 2. Rg7+ Kh8 3. Rh6# )
1... Kh7 
2. Rg7+ Kh8 
3. Rh6# *

[Event "Clearance, Sacrifice, Exposed King, Mate - Lawnmower, Capturing Defender (+1, -0) "]
[Date "1342.??.??"]
[Site "63234"]
[FEN "6k1/4n1r1/4p3/3pP3/3P2PK/8/1Q2B3/6r1 b - - 1 1"]

1... Nf5+
( 1... Nf5+ 2. gxf5 Rh1# )
2. gxf5 Rh1# *

[Event "Exposed King, Mate - Lawnmower, Coercion "]
[Date "1343.??.??"]
[Site "89470"]
[FEN "8/7p/4k1p1/2p1p1P1/1pP2n1P/1P3Q2/2q5/R6K w - - 1 1"]

1. Ra6+
( 1. Ra6+ Ke7 2. Qb7+ Kd8 3. Ra8# )
1... Kd7 
2. Qb7+ Kd8 
3. Ra8# *

[Event "Exposed King, Sacrifice, Clearance, Distraction, Mate - Lawnmower (+2, -1), Zwischenzug (+2, -2) "]
[Date "1344.??.??"]
[Site "36917"]
[FEN "r6k/2p5/1p1p1rR1/3P4/p1P1B2q/P1Q1K3/1P3p2/4R3 w - - 0 1"]

1. Qxf6+
( 1. Qxf6+ Qxf6 2. Rh1+ Qh4 3. Rxh4# )
1... Qxf6 
2. Rh1+ Qh4 
3. Rxh4# *

[Event "Exposed King, Coercion, Mate - Lawnmower (+4, -3) "]
[Date "1345.??.??"]
[Site "94896"]
[FEN "7r/4r1pp/1R3p2/3k4/5Pn1/8/5BPP/2R3K1 w - - 1 1"]

1. Rc5+
( 1. Rc5+ Ke4 2. Rb4+ Kd3 3. Rd4+ Ke2 4. Rc2# )
1... Ke4 
2. Rb4+ Kd3 
3. Rd4+ Ke2 
4. Rc2# *

[Event "Sacrifice, Attraction, Exposed King, Clearance, Mate - Lawnmower "]
[Date "1347.??.??"]
[Site "63242"]
[FEN "6rk/pp3p2/5P1p/2p1R1q1/4Q3/1PP5/P2r3P/5R1K b - - 0 1"]

1... Rxh2+
( 1... Rxh2+ 2. Kxh2 Qg3+ 3. Kh1 Qh3# )
2. Kxh2 Qg3+ 
3. Kh1 Qh3# *

[Event "Exposed King, Coercion, Capturing Defender, Distraction, Mate - Lawnmower (+1, -0) "]
[Date "1348.??.??"]
[Site "75648"]
[FEN "1nk3r1/p4p1p/P1p1pp1q/1Q6/8/5P1B/1P3P1K/2R1R3 b - - 1 1"]

1... Qf4+
( 1... Qf4+ 2. Kh1 Qxf3+ 3. Kh2 Qxf2+ 4. Kh1 Qf3+ 5. Kh2 Qg3+ 6. Kh1 Qxh3# )
2. Kh1 Qxf3+ 
3. Kh2 Qxf2+ 
4. Kh1 Qf3+ 
5. Kh2 Qg3+ 
6. Kh1 Qxh3# *

[Event "Coercion, Exposed King, Interference (+2, -0), Mate - Lawnmower (+3, -1) "]
[Date "1351.??.??"]
[Site "95221"]
[FEN "8/p2r1r1p/Rpk1K1pP/R2pPnB1/1P1P1P2/2P2P2/8/8 w - - 1 1"]

1. b5+
( 1. b5+ Kb7 2. Rxa7+ Kc8 3. Ra8+ Kb7 4. R5a7# )
1... Kb7 
2. Rxa7+ Kb8 
3. Ra8+ Kb7 
4. R5a7# *

[Event "Clearance, Sacrifice, Exposed King, Mate - Lawnmower (+1, -0) "]
[Date "1352.??.??"]
[Site "73956"]
[FEN "5r2/4n2k/p7/3P1pQ1/4p3/q5PB/5PK1/5R2 w - - 0 1"]

1. Bxf5+
( 1. Bxf5+ Nxf5 2. Rh1+ Nh6 3. Rxh6# )
1... Nxf5 
2. Rh1+ Nh4+ 
3. Rxh4# *

[Event "Exposed King, Coercion, Mate - Lawnmower "]
[Date "1355.??.??"]
[Site "53889"]
[FEN "3r4/4R2p/2p3k1/4Kp2/r3P3/8/8/7R w - - 1 1"]

1. exf5+
( 1. exf5+ Kg5 2. Rg7# )
1... Kg5 
2. Rg7# *

[Event "Exposed King, Sacrifice, Attraction, Mate - Lawnmower, Coercion (+3, -3) "]
[Date "1359.??.??"]
[Site "94993"]
[FEN "4r3/p2p1k2/1pb1qp2/2p4R/2P1p3/1P2Q3/P3PpK1/3R4 w - - 0 1"]

1. Rh7+
( 1. Rh7+ Kg6 2. Qg3+ Kxh7 3. Rh1+ Qh3+ 4. Rxh3# )
1... Kg8 
2. Qg3+ Kxh7 
3. Rh1+ Qh3+ 
4. Rxh3# *

[Event "Attraction, Clearance, Exposed King, Sacrifice, Mate - Lawnmower, Coercion (+4, -2) "]
[Date "1365.??.??"]
[Site "54596"]
[FEN "7r/8/p4R2/Pn1k4/2pP4/2P1P3/3K1Br1/1R6 w - - 1 1"]

1. e4+
( 1. e4+ Kxe4 2. Re1+ Kd5 3. Re5# )
1... Kxe4 
2. Re1+ Kd5 
3. Re5# *

[Event "Exposed King, Coercion, Mate - Lawnmower (+2, -0) "]
[Date "1367.??.??"]
[Site "71577"]
[FEN "4k3/2b5/8/3Qrp2/3P3p/2q5/7P/6RK w - - 0 1"]

1. Rg8+
( 1. Rg8+ Ke7 2. Rg7+ Kf6 3. Qf7# )
1... Ke7 
2. Rg7+ Ke8 
3. Qg8# *

[Event "Exposed King, Coercion, Mate - Lawnmower (+3, -1) "]
[Date "1368.??.??"]
[Site "57997"]
[FEN "r3k3/1n3p1R/p1q1p3/1p2P1Q1/2p5/5PPK/PP2P2P/6r1 w - - 1 1"]

1. Qg8+
( 1. Qg8+ Ke7 2. Rxf7# )
1... Ke7 
2. Rxf7# *

[Event "Interference, Sacrifice, Discovered Attack, Clearance, Exposed King, Attraction, Mate - Lawnmower (+1, -0) "]
[Date "1369.??.??"]
[Site "36489"]
[FEN "r1bq3b/p6k/3p3p/1p1P1p1N/2p1n2R/P4NRP/1P1Q2P1/6K1 w - - 1 1"]

1. Qxh6+
( 1. Qxh6+ Kxh6 2. Nf6# )
1... Kxh6 
2. Nf6# *

[Event "Exposed King, Coercion, Mate - Lawnmower "]
[Date "1371.??.??"]
[Site "62370"]
[FEN "6k1/pp4pp/4p3/8/3Q4/1qr2B2/7P/K2R3R b - - 0 1"]

1... Qa3+
( 1... Qa3+ 2. Kb1 Rb3+ 3. Kc2 Qa2+ 4. Kc1 Rb1# )
2. Kb1 Rb3+ 
3. Kc2 Qa2+ 
4. Kc1 Rb1# *

[Event "Mate - Lawnmower (+1, -0) "]
[Date "1373.??.??"]
[Site "171677"]
[FEN "1r2r3/6kp/p5p1/3Pq1N1/P6Q/3B1pPP/2P4K/8 b - - 1 1"]

1... Qe2+
( 1... Qe2+ 2. Bxe2 Rxe2+ 3. Kg1 Rb1# )
2. Bxe2 Rxe2+ 
3. Kg1 Rb1# *

[Event "Exposed King, Distraction, Attraction, Coercion, Mate - Lawnmower (+3, -0) "]
[Date "1373.??.??"]
[Site "64681"]
[FEN "8/2p1Qrk1/ppq1p1p1/8/3Pb3/P4p2/1PP4R/2K3R1 w - - 1 1"]

1. Rh7+
( 1. Rh7+ Kxh7 2. Qxf7+ Kh6 3. Qf8+ Kh5 4. Qh8# )
1... Kxh7 
2. Qxf7+ Kh6 
3. Qf8+ Kh5 
4. Qh8# *

[Event "Clearance, Sacrifice, Exposed King, Mate - Lawnmower (+4, -3) "]
[Date "1374.??.??"]
[Site "79858"]
[FEN "4r2r/5p2/1kp4p/p3RQp1/3R4/P5P1/qP3PP1/2K5 w - a6 0 1"]

1. Rb5+
( 1. Rb5+ cxb5 2. Rd6+ Kb7 3. Qxb5+ Kc8 4. Rc6+ Kd7 5. Qb7+ Kd8 6. Qc7# )
1... cxb5 
2. Rd6+ Ka7 
3. Qd7+ Ka8 
4. Ra6+ Kb8 
5. Rb6+ Ka8 
6. Qb7# *

[Event "Sacrifice, Clearance, Exposed King, Distraction, Mate - Escalator (+2, -0), Mate - Lawnmower (+3, -1) "]
[Date "1380.??.??"]
[Site "44937"]
[FEN "6r1/1pr1bp2/p2p2pk/3Pn3/3NB3/6R1/PPP4P/1K4R1 w - - 0 1"]

1. Nf5+
( 1. Nf5+ gxf5 2. Rh3+ Bh4 3. Rxh4# )
1... gxf5 
2. Rh3+ Bh4 
3. Rxh4# *


[Event "Coercion, Exposed King, Skewer, Mate - Lawnmower (+1, -0) "]
[Date "1380.??.??"]
[Site "91396"]
[FEN "3r4/8/R4Q1p/5p1k/5Pp1/3q2P1/4R2P/5K2 b - - 1 1"]

1... Qf3+
( 1... Qf3+ 2. Ke1 Qh1+ 3. Kf2 Qxh2+ 4. Kf1 Rd1+ 5. Re1 Qh1+ 6. Kf2 Qxe1+ 7. Kg2 Qg1# )
2. Ke1 Qh1+ 
3. Kf2 Qxh2+ 
4. Kf1 Rd1+ 
5. Re1 Qh1+ 
6. Kf2 Qxe1+ 
7. Kg2 Rd2# *

[Event "Sacrifice, Exposed King, Attraction, Distraction, Mate - Lawnmower (+3, -0), Coercion (+1, -0) "]
[Date "1381.??.??"]
[Site "44418"]
[FEN "6kr/8/p2R2p1/5b2/2P1rp2/2Q5/P4KP1/3R3q b - - 1 1"]

1... Re2+
( 1... Re2+ 2. Kxe2 Qxg2+ 3. Ke1 Rh1# )
2. Kxe2 Qxg2+ 
3. Ke1 Rh1# *

[Event "Mate - Lawnmower, Coercion, Exposed King "]
[Date "1384.??.??"]
[Site "105195"]
[FEN "4R3/2R3p1/1p3k1p/p4P2/5rP1/P1Pr4/1P4K1/8 w - - 0 1"]

1. Re6+
( 1. Re6+ Kg5 2. Rxg7+ Kh4 3. Rxh6# )
1... Kg5 
2. Rxg7+ Kh4 
3. Rxh6# *

[Event "Mate - Lawnmower "]
[Date "1391.??.??"]
[Site "162741"]
[FEN "2Q5/p3r3/1p3pkp/3q4/P2R2PP/7K/5P2/8 b - - 0 1"]

1... Qf3+
( 1... Qf3+ 2. Kh2 Qxf2+ 3. Kh1 Re1# )
2. Kh2 Qxf2+ 
3. Kh1 Re1# *

[Event "Exposed King, Sacrifice, Mate - Lawnmower "]
[Date "1399.??.??"]
[Site "52036"]
[FEN "r4b2/1bq2Qpk/p6N/1p6/Pn2p3/6RP/1P3PP1/1Br1R1K1 w - - 0 1"]

1. Qg8+
( 1. Qg8+ Kxh6 2. Qh8# )
1... Kxh6 
2. Qh8# *

[Event "Sacrifice, Clearance, Exposed King, Mate - Lawnmower (+3, -2) "]
[Date "1400.??.??"]
[Site "40606"]
[FEN "4rr1k/3R4/p4qp1/1p2Q3/8/2P5/PPB1p2P/2K3R1 w - - 0 1"]

1. Qh5+
( 1. Qh5+ gxh5 2. Rh7# )
1... gxh5 
2. Rh7# *

[Event "Clearance, Exposed King, Sacrifice, Mate - Lawnmower "]
[Date "1403.??.??"]
[Site "55840"]
[FEN "5R2/4r1n1/p6k/3P2N1/8/1p4R1/r5PP/6K1 w - - 1 1"]

1. Nf7+
( 1. Nf7+ Kh5 2. Rh8# )
1... Rxf7 
2. Rh8# *

[Event "Exposed King, Avoiding Perpetual, Mate - Lawnmower "]
[Date "1405.??.??"]
[Site "90256"]
[FEN "4k3/1R4p1/p1r2p2/4p3/P5Q1/8/KPPq3P/8 w - - 1 1"]

1. Qh5+
( 1. Qh5+ Kd8 2. Qh8# )
1... Kd8 
2. Qh8# *

[Event "Back Rank Mate, Exposed King, Mate - Lawnmower "]
[Date "1407.??.??"]
[Site "63615"]
[FEN "6k1/8/p1r1R1Pp/1p1R4/8/P5K1/2r5/8 w - - 1 1"]

1. Rd8+
( 1. Rd8+ Kg7 2. Rd7+ Kf8 3. Rf7+ Kg8 4. Re8# )
1... Kg7 
2. Rd7+ Kf8 
3. Rf7+ Kg8 
4. Re8# *

[Event "Coercion (+1, -0), Mate - Lawnmower (+1, -0) "]
[Date "1408.??.??"]
[Site "165015"]
[FEN "3k4/p4pb1/n6p/1Q6/1P2R3/P7/1qp2PPP/6K1 w - - 0 1"]

1. Re8+
( 1. Re8+ Kc7 2. Re7+ Kd6 3. Qd7# )
1... Kc7 
2. Re7+ Kc8 
3. Qe8# *

[Event "Exposed King, Mate - Lawnmower (+2, -0) "]
[Date "1409.??.??"]
[Site "72074"]
[FEN "3rkr2/1p4Qp/5pp1/4P3/PpR1BP2/4q1P1/1P5P/5K2 b - - 1 1"]

1... Rd1+
( 1... Rd1+ 2. Kg2 Qe2+ 3. Kh3 Qh5+ 4. Kg2 Rd2+ 5. Kg1 Qd1# )
2. Kg2 Qe2+ 
3. Kh3 Qh5+ 
4. Kg2 Rd2+ 
5. Kf1 Qd1# *

[Event "Exposed King, Sacrifice, Coercion, Mate - Lawnmower "]
[Date "1415.??.??"]
[Site "77383"]
[FEN "8/6kp/8/5R2/Pr3P1P/4R3/2r1p1P1/6K1 w - - 0 1"]

1. Rg3+
( 1. Rg3+ Kh6 2. Rf6+ Kh5 3. Rg5+ Kxh4 4. Rh6# )
1... Kh6 
2. Rf6+ Kh5 
3. Rg5+ Kxh4 
4. Rh6# *

[Event "Exposed King, Fork/Double Attack, Avoiding Perpetual, Mate - Lawnmower "]
[Date "1416.??.??"]
[Site "40375"]
[FEN "1Qb3k1/6pp/6r1/1p1P4/1P2P3/2q2B2/P6K/4R3 b - - 1 1"]

1... Qd2+
( 1... Qd2+ 2. Kh1 Qxe1+ 3. Kh2 Qg1# )
2. Re2 Qh6+ 
3. Bh5 Qxh5# *

[Event "Pin, Exposed King, Mate - Lawnmower (+3, -0), Coercion (+1, -0) "]
[Date "1418.??.??"]
[Site "40287"]
[FEN "r4rk1/5pb1/p2p3p/3PpQ2/6R1/N7/Pq3PPP/5RK1 w - - 0 1"]

1. Qf6
( 1. Qf6 e4 2. Rxg7+ Kh8 3. Qxh6# )
1... e4 
2. Rxg7+ Kh8 
3. Qxh6# *

[Event "Mate Threat, Advanced Pawn (+3, -0), Mate - Lawnmower (+2, -0) "]
[Date "1422.??.??"]
[Site "156502"]
[FEN "8/1p6/p7/PP1N2k1/2P1p1b1/7r/3R4/4K3 b - - 1 1"]

1... e3
( 1... e3 2. Nxe3 Rxe3+ 3. Kf2 Rf3+ 4. Ke1 Ra3 5. bxa6 bxa6 6. Rd6 Kf4 7. Kd2 Rxa5 8. Rd4+ Kf3 9. Kc3 Re5 10. Rd5 )
2. Nxe3 Rxe3+ *

[Event "Mate - Lawnmower (+1, -0) "]
[Date "1423.??.??"]
[Site "152495"]
[FEN "8/1r6/R2R3p/2p3k1/3b1pp1/6P1/5P2/5K2 w - - 0 1"]

1. Rd5+
( 1. Rd5+ Be5 2. Rxe5# )
1... Be5 
2. Rxe5# *

[Event "Exposed King, Coercion, Mate - Lawnmower "]
[Date "1424.??.??"]
[Site "54004"]
[FEN "Q6r/p2q1rk1/4R1p1/2p5/3b1NP1/8/P2B1P2/5K2 w - - 1 1"]

1. Rxg6+
( 1. Rxg6+ Kh7 2. Qh1# )
1... Kh7 
2. Qh1# *

[Event "Sacrifice, Discovered Attack, Attraction, Clearance, Double Check, Mate - Lawnmower "]
[Date "1426.??.??"]
[Site "48272"]
[FEN "5r1k/r4Pp1/3qbRPp/1p1n3Q/p2pB3/4p1N1/PP5P/6RK w - - 1 1"]

1. Qxh6+
( 1. Qxh6+ gxh6 2. g7+ Kxg7 3. Nh5+ Kh8 4. Rxh6# )
1... gxh6 
2. g7+ Kxg7 
3. Nh5+ Kh8 
4. Rxh6# *

[Event "Double Check, Discovered Attack, Exposed King, Mate - Lawnmower (+1, -0) "]
[Date "1427.??.??"]
[Site "60604"]
[FEN "3r1bk1/pp2nR2/4Q1p1/2pqB3/8/2P3P1/PP1N3P/6K1 w - - 1 1"]

1. Rg7+
( 1. Rg7+ Kh8 2. Qh3# )
1... Kh8 
2. Qh3# *

[Event "Exposed King (+2, -0), Coercion (+2, -0), Mate - Damiano's Bishop (+1, -0), Mate - Lawnmower (+1, -0) "]
[Date "1431.??.??"]
[Site "166039"]
[FEN "6R1/1bp2r1p/1p1q3k/p1nN2p1/2PQ4/1P3BP1/P6P/6K1 w - - 0 1"]

1. Qg4
( 1. Qg4 Qg6 2. Qh3+ Qh5 3. Qxh5# )
1... Qg6 
2. Qh3+ Qh5 
3. Qxh5# *

[Event "Pin, Mate Threat, Quiet Move, Mate - Lawnmower (+2, -0) "]
[Date "1432.??.??"]
[Site "100447"]
[FEN "8/1pr5/p4r1k/P2p4/6Rp/2P1Pp2/1PB1nR2/5K2 w - - 0 1"]

1. Rh2
( 1. Rh2 Ng3+ 2. Rxg3 Kh5 3. Kf2 d4 4. exd4 Rf4 5. Rxf3 Rff7 6. Rxf7 Rxf7+ 7. Ke3 Kg5 8. Rg2+ Kh6 9. d5 )
1... Ng3+ 
2. Rxg3 *

[Event "Attraction, Sacrifice, Exposed King, Mate - Lawnmower, Coercion (+3, -0) "]
[Date "1436.??.??"]
[Site "98809"]
[FEN "5r2/4ppnk/8/2p1PP2/3r4/1q1PQR1P/6R1/6K1 w - - 0 1"]

1. Rxg7+
( 1. Rxg7+ Kxg7 2. Qg5+ Kh7 3. Qh5+ Kg7 4. Rg3+ Rg4 5. Rxg4# )
1... Kxg7 
2. Qg5+ Kh7 
3. Qh5+ Kg7 
4. Rg3+ Rg4 
5. Rxg4# *

[Event "Clearance, Sacrifice, Exposed King, Mate - Lawnmower "]
[Date "1438.??.??"]
[Site "57320"]
[FEN "8/5pk1/3p4/3B1p2/2nR4/r3PP1R/1r3P1P/5K2 b - - 0 1"]

1... Nxe3+
( 1... Nxe3+ 2. fxe3 Ra1+ 3. Rd1 Rxd1# )
2. fxe3 Ra1+ 
3. Rd1 Rxd1# *

[Event "Exposed King, Quiet Move, Mate - Lawnmower, Mate - Opera "]
[Date "1442.??.??"]
[Site "59054"]
[FEN "6r1/6Pr/6R1/3p4/p7/7B/7k/K4R2 w - - 1 1"]

1. Bg2
( 1. Bg2 Rhxg7 2. Rh1# )
1... Rgxg7 
2. Rh1# *

[Event "Pin (+1, -0), Sacrifice (+1, -0), Clearance (+1, -0), Mate - Lawnmower (+1, -0) "]
[Date "1443.??.??"]
[Site "174384"]
[FEN "5nk1/pq5r/1p1pp1r1/1Pp5/P1PN1P2/3P1R1P/3B3K/3QR3 b - - 0 1"]

1... Rxh3+
( 1... Rxh3+ 2. Rxh3 Qg2# )
2. Kxh3 Qh7# *

[Event "Sacrifice, Clearance, Mate - Lawnmower "]
[Date "1443.??.??"]
[Site "64489"]
[FEN "r1bq2r1/pp3p1k/4p2p/3pP2Q/2Pn4/R7/5P1P/1N2K1R1 w - - 0 1"]

1. Qxh6+
( 1. Qxh6+ Kxh6 2. Rh3+ Qh4 3. Rxh4# )
1... Kxh6 
2. Rh3+ Qh4 
3. Rxh4# *

[Event "Advanced Pawn, Back Rank Mate, Hanging Piece, Exposed King, Coercion, Mate - Lawnmower"]
[Date "1445.??.??"]
[Site "94495"]
[FEN "r3k2r/pp4QP/2p5/3pPb2/8/3q4/3N2PP/7K w - - 0 1"]

1. Qxh8+
( 1. Qxh8+ Kd7 2. Qg7+ Ke6 3. Qf6+ Kd7 4. Qf7+ Kc8 5. h8=Q# )
1... Kd7 
2. Qg7+ Ke6 
3. Qf6+ Kd7 
4. Qf7+ Kc8 
5. h8=Q# *

[Event "Exposed King, Quiet Move, Coercion, Mate - Lawnmower (+3, -0) "]
[Date "1446.??.??"]
[Site "77572"]
[FEN "6r1/6Pr/4R3/3p4/p7/7B/5k2/K2R4 w - - 1 1"]

1. Rf1+
( 1. Rf1+ Kg3 2. Rg6+ Kh4 3. Rh1 Rhxg7 4. Bg2# )
1... Kg3 
2. Rg6+ Kh2 
3. Bg2 Rgxg7 
4. Rh1# *

[Event "Advanced Pawn, Clearance, Mate - Lawnmower, Exposed King (+3, -0), Sacrifice (+2, -0) "]
[Date "1449.??.??"]
[Site "93776"]
[FEN "6k1/PR4p1/1Bp1p3/8/4Nn2/5n2/1PP3r1/7K w - - 1 1"]

1. Nf6+
( 1. Nf6+ gxf6 2. a8=Q# )
1... gxf6 
2. a8=Q# *

[Event "Double Check, Exposed King, Discovered Attack, Mate - Lawnmower (+3, -0) "]
[Date "1452.??.??"]
[Site "34598"]
[FEN "6r1/1pk5/2p2p2/p1P1pb1p/1n2BPrP/1NN4K/PP3P2/R1R5 b - - 1 1"]

1... Rg3+
( 1... Rg3+ 2. Kh2 Rh3# )
2. Kh2 Rh3# *

[Event "Sacrifice, Attraction, Mate - Lawnmower (+3, -1) "]
[Date "1453.??.??"]
[Site "161098"]
[FEN "8/pR5p/4pqnk/6p1/2p3Q1/P1Pr1P2/7P/6RK w - - 1 1"]

1. Qh5+
( 1. Qh5+ Kxh5 2. Rxh7# )
1... Kxh5 
2. Rxh7# *

[Event "Mate - Lawnmower, Exposed King "]
[Date "1456.??.??"]
[Site "105188"]
[FEN "1r3rk1/ppqb1p2/7Q/3pPp2/3P4/2PpP3/PP1N3P/5RK1 w - - 0 1"]

1. Qg5+
( 1. Qg5+ Kh7 2. Rf4 Qb6 3. Rh4+ Qh6 4. Rxh6# )
1... Kh7 
2. Rf4 Qb6 
3. Rh4+ Qh6 
4. Rxh6# *

[Event "Sacrifice, Exposed King, Back Rank Mate, Clearance, Mate - Lawnmower "]
[Date "1458.??.??"]
[Site "44216"]
[FEN "7k/1p4pp/p7/2Q5/5P2/2N1rqPb/1P1rR2P/4R1K1 b - - 1 1"]

1... Qg2+
( 1... Qg2+ 2. Rxg2 Rxe1# )
2. Rxg2 Rxe1# *

[Event "Clearance, Sacrifice, Exposed King, Mate - Lawnmower, Blocking (+3, -1) "]
[Date "1458.??.??"]
[Site "44834"]
[FEN "4r1k1/5p2/1p4p1/p2Pq3/2P3Pp/1P3N1P/5PK1/1Q1Rr3 b - - 1 1"]

1... Qg3+
( 1... Qg3+ 2. fxg3 R8e2# )
2. fxg3 R8e2# *

[Event "Sacrifice, Clearance, Exposed King, Mate - Lawnmower, Discovered Attack "]
[Date "1460.??.??"]
[Site "49123"]
[FEN "3brrk1/2p3p1/p2p4/1p1q1NpQ/3P4/5R2/PPP3PP/6K1 w - - 1 1"]

1. Nh6+
( 1. Nh6+ gxh6 2. Qg6+ Kh8 3. Qxh6+ Kg8 4. Qg6+ Kh8 5. Rh3# )
1... gxh6 
2. Qg6+ Kh8 
3. Qxh6+ Kg8 
4. Qg6+ Kh8 
5. Rh3# *

[Event "Exposed King, Coercion, Mate - Lawnmower, Clearance "]
[Date "1461.??.??"]
[Site "73629"]
[FEN "3r4/5r2/p2pk3/4p3/1PP1PqP1/P2B4/5QK1/5R2 b - - 0 1"]

1... Qxg4+
( 1... Qxg4+ 2. Kh1 Rh8+ 3. Qh2 Rxh2+ 4. Kxh2 Rh7# )
2. Qg3 Qxg3+ 
3. Kxg3 Rg8+ 
4. Kh2 Rh7# *

[Event "Advanced Pawn, Clearance, Attraction, Exposed King, Sacrifice, Mate - Lawnmower (+3, -1) "]
[Date "1466.??.??"]
[Site "99999"]
[FEN "3b3k/1p1P2rp/B1pBQ3/P7/1P2Pp2/3RnP2/2R1K1p1/6q1 b - - 0 1"]

1... Qf2+
( 1... Qf2+ 2. Kxf2 g1=Q+ 3. Ke2 Rg2# )
2. Kxf2 g1=Q+ 
3. Ke2 Rg2# *

[Event "Exposed King, Mate - Lawnmower (+1, -0) "]
[Date "1467.??.??"]
[Site "63059"]
[FEN "8/8/4qk1p/Q7/1p3P2/5B2/PP1r4/5K2 b - - 1 1"]

1... Qc4+
( 1... Qc4+ 2. Ke1 Qc1+ 3. Bd1 Qxd1# )
2. Ke1 Qc1+ 
3. Bd1 Qxd1# *

[Event "Clearance, Exposed King, Distraction, Mate - Lawnmower, Attraction (+6, -6) "]
[Date "1469.??.??"]
[Site "76263"]
[FEN "6k1/p5pp/1pQp2r1/8/2P2P2/PP5K/5R1P/4q3 b - - 1 1"]

1... Qe6+
( 1... Qe6+ 2. f5 Qe3+ 3. Qf3 Qh6+ 4. Qh5 Qxh5# )
2. f5 Qe3+ 
3. Qf3 Qh6+ 
4. Qh5 Qxh5# *

[Event "Advanced Pawn, Exposed King, Clearance, Distraction, Sacrifice, Overloading, Mate - Lawnmower "]
[Date "1470.??.??"]
[Site "59201"]
[FEN "r2q4/pp4Pk/4p3/2B1P3/b5R1/P1P5/2p2r1P/2K3R1 w - - 0 1"]

1. g8=Q+
( 1. g8=Q+ Qxg8 2. Rh4# )
1... Qxg8 
2. Rh4# *

[Event "Coercion, Exposed King, Sacrifice (+4, -3), Attraction (+1, -0), Mate - Lawnmower (+1, -0) "]
[Date "1471.??.??"]
[Site "103601"]
[FEN "5Q2/p1kN1p2/2b1p1p1/1p1qP2p/5R1P/2P5/5PPK/4r3 w - - 1 1"]

1. Qb8+
( 1. Qb8+ Kxd7 2. Rxf7# )
1... Kxd7 
2. Rxf7# *

[Event "Exposed King, Mate - Lawnmower "]
[Date "1472.??.??"]
[Site "106873"]
[FEN "1Q6/pp1k1pp1/4p3/4B3/2P1q3/1P5P/P2K4/4r3 b - - 1 1"]

1... Qe3+
( 1... Qe3+ 2. Kc2 Re2+ 3. Kb1 Qg1# )
2. Kc2 Re2+ 
3. Kb1 Qg1# *

[Event "Double Check, Discovered Attack, Interference, Exposed King, Mate - Lawnmower, Clearance "]
[Date "1473.??.??"]
[Site "64934"]
[FEN "6k1/3b1p1p/4p1q1/3pP2P/1p1N1QP1/1R6/r1r3B1/1K1R4 b - - 0 1"]

1... Rcb2+
( 1... Rcb2+ 2. Kc1 Qb1# )
2. Kc1 Qb1# *

[Event "Exposed King, Coercion, Back Rank Mate, Fork/Double Attack, Hanging Piece, Mate - Lawnmower, Distraction (+1, -0) "]
[Date "1475.??.??"]
[Site "74165"]
[FEN "5bk1/2R4p/8/1Q1b2p1/1P1Pp3/4PpPq/r4P1P/4B1K1 w - - 0 1"]

1. Qxd5+
( 1. Qxd5+ Kh8 2. Qe5+ Kg8 3. Qxg5+ Kh8 4. Qf6+ Kg8 5. Qf7+ Kh8 6. Qxf8# )
1... Kh8 
2. Qe5+ Kg8 
3. Qxg5+ Kh8 
4. Qf6+ Kg8 
5. Qf7+ Kh8 
6. Qxf8# *

[Event "Exposed King, Skewer, Interference, Coercion (+4, -1), Mate - Lawnmower (+1, -0) "]
[Date "1477.??.??"]
[Site "63311"]
[FEN "1q5r/r2p4/3k4/p1pB2Q1/2P4p/8/PP3K1P/6R1 w - - 1 1"]

1. Qf4+
( 1. Qf4+ Ke7 2. Rg7+ Kd8 3. Qxb8# )
1... Ke7 
2. Rg7+ Kd8 
3. Qxb8# *

[Event "Exposed King, Coercion, Mate - Lawnmower (+1, -0) "]
[Date "1477.??.??"]
[Site "78211"]
[FEN "2Q5/6pk/1r6/2p4p/5R1P/K1P1q1P1/P1P5/8 b - - 1 1"]

1... Qxc3+
( 1... Qxc3+ 2. Ka4 Rb4+ 3. Ka5 Qa3# )
2. Ka4 Rb4+ 
3. Rxb4 Qxb4# *

[Event "Exposed King, Skewer, Interference, Coercion (+4, -1), Mate - Lawnmower (+1, -0) "]
[Date "1477.??.??"]
[Site "93751"]
[FEN "1q5r/r2p4/3k4/p1pB2Q1/2P4p/8/PP3K1P/6R1 w - - 1 1"]

1. Qf4+
( 1. Qf4+ Ke7 2. Rg7+ Kd8 3. Qxb8# )
1... Ke7 
2. Rg7+ Kd8 
3. Qxb8# *

[Event "Double Check, Mate - Lawnmower "]
[Date "1478.??.??"]
[Site "101932"]
[FEN "6k1/pp4pp/8/2bP4/1P2B1P1/P1B5/5r1r/R5K1 b - b3 0 1"]

1... Rfg2+
( 1... Rfg2+ 2. Kf1 Rg1# )
2. Kf1 Rg1# *

[Event "Sacrifice, Distraction, Exposed King, Coercion, Mate - Lawnmower "]
[Date "1478.??.??"]
[Site "89921"]
[FEN "8/5Qpk/3R4/1q6/N3Pn2/pP6/2r4r/1K1R4 b - - 0 1"]

1... a2+
( 1... a2+ 2. Ka1 Qe5+ 3. R6d4 Qxd4+ 4. Rxd4 Rc1# )
2. Ka1 Qe5+ 
3. R6d4 Qxd4+ 
4. Rxd4 Rc1# *

[Event "Exposed King, Mate - Lawnmower, Coercion (+2, -1) "]
[Date "1479.??.??"]
[Site "104813"]
[FEN "6k1/pp3pp1/8/1Q6/4rP2/P5qp/1PR5/R4K2 b - - 1 1"]

1... Rxf4+
( 1... Rxf4+ 2. Ke2 Rf2+ 3. Kd1 Qg1+ 4. Qf1 Qxf1# )
2. Ke2 Rf2+ 
3. Kd1 Qg1+ 
4. Qf1 Qxf1# *

[Event "Discovered Attack, Sacrifice, Mate - Lawnmower, Back Rank Mate, Clearance "]
[Date "1479.??.??"]
[Site "3815"]
[FEN "4r1k1/p1p2p2/1p4pQ/1b2b1N1/6P1/5P2/PPq4P/R1B1R1K1 b - - 1 1"]

1... Bxh2+
( 1... Bxh2+ 2. Qxh2 Rxe1# )
2. Qxh2 Rxe1# *

[Event "Sacrifice, Back Rank Mate, Clearance, Distraction, Mate - Lawnmower "]
[Date "1479.??.??"]
[Site "38454"]
[FEN "1Qnk3r/pRR1np1r/4p3/4Pp2/P2P1q1p/7P/6P1/7K w - - 0 1"]

1. Rxc8+
( 1. Rxc8+ Nxc8 2. Qc7+ Ke8 3. Qxc8# )
1... Nxc8 
2. Qc7+ Ke8 
3. Qxc8# *

[Event "Exposed King, Mate - Lawnmower, Back Rank Mate (+13, -11) "]
[Date "1480.??.??"]
[Site "88886"]
[FEN "8/7p/6p1/2pQ4/8/2q3PP/1r2RP1K/2k5 w - - 1 1"]

1. Qh1+
( 1. Qh1+ Qe1 2. Qxe1# )
1... Qe1 
2. Qxe1# *

[Event "Mate - Lawnmower (+1, -0) "]
[Date "1481.??.??"]
[Site "171456"]
[FEN "8/R7/3P2pk/5p1p/P3nP2/4RK1P/1r2B3/4r3 b - - 1 1"]

1... Rf1+
( 1... Rf1+ 2. Kg2 Rf2+ 3. Kg1 Rb1+ 4. Bd1 Rxd1+ 5. Re1 Rxe1# )
2. Kg2 Rf2+ 
3. Kg1 Rb1+ 
4. Bd1 Rxd1+ 
5. Re1 Rxe1# *

[Event "Mate - Lawnmower "]
[Date "1485.??.??"]
[Site "142480"]
[FEN "6r1/8/4p3/8/1r2N2K/4R3/2k5/5R2 w - - 0 1"]

1. Rf2+
( 1. Rf2+ Kd1 2. Rd2+ Kc1 3. Re1# )
1... Kd1 
2. Rd2+ Kc1 
3. Re1# *

[Event "Exposed King, Advanced Pawn, Coercion, Mate - Lawnmower "]
[Date "1485.??.??"]
[Site "95808"]
[FEN "1R6/5P2/2k5/4K3/1R2P2P/4r3/4r3/1q6 w - - 0 1"]

1. Rc4+
( 1. Rc4+ Kd7 2. f8=N+ Ke7 3. Rc7# )
1... Kd7 
2. f8=N+ Ke7 
3. Rc7# *

[Event "Exposed King, Coercion, Mate - Lawnmower (+3, -1) "]
[Date "1488.??.??"]
[Site "96979"]
[FEN "4k2r/1p4p1/p1P2pP1/2b1q2P/6K1/P4p2/3Q4/3R3R b k - 1 1"]

1... f5+
( 1... f5+ 2. Kxf3 Qe4+ 3. Kg3 Qg4+ 4. Kh2 Rxh5# )
2. Kxf3 Qe4+ 
3. Kg3 Qg4+ 
4. Kh2 Rxh5# *

[Event "Discovered Attack, Exposed King, Coercion, Mate - Lawnmower "]
[Date "1491.??.??"]
[Site "95959"]
[FEN "3r3k/2b2Q2/2p2pPp/5P2/1P2pn2/7P/2P2P2/r4BK1 b - - 1 1"]

1... Rxf1+
( 1... Rxf1+ 2. Kh2 Ne2+ 3. Qxc7 Rxf2+ 4. Kh1 Rd1# )
2. Kh2 Ne2+ 
3. Qxc7 Rxf2+ 
4. Kh1 Rd1# *

[Event "X-Ray Attack, Interference, Distraction, Mate - Lawnmower, Weak Back Rank (+4, -6) "]
[Date "1493.??.??"]
[Site "36369"]
[FEN "1r3k2/1b1R3Q/4q3/2pBb3/1r4Pp/1P5P/P7/1R5K w - - 1 1"]

1. Rf7+
( 1. Rf7+ Ke8 2. Qg8# )
1... Ke8 
2. Qg8# *

[Event "Sacrifice, Distraction, Back Rank Mate, Exposed King, Coercion, Discovered Attack, Mate - Lawnmower (+3, -0), Clearance (+3, -1) "]
[Date "1494.??.??"]
[Site "72803"]
[FEN "1kr5/p6R/1pP3p1/2P1np2/8/P3rB2/6PP/3R2K1 w - - 1 1"]

1. c7+
( 1. c7+ Rxc7 2. Rd8+ Rc8 3. Rb7+ Ka8 4. Rxc8# )
1... Rxc7 
2. Rd8+ Rc8 
3. Rb7+ Ka8 
4. Rxc8# *

[Event "Exposed King, Quiet Move, Mate - Lawnmower (+1, -0) "]
[Date "1497.??.??"]
[Site "106067"]
[FEN "1r4k1/3R4/5P2/2p3p1/2P3K1/rp2R3/8/8 w - - 0 1"]

1. Rg7+
( 1. Rg7+ Kf8 2. Rh3 b2 3. Rh8# )
1... Kf8 
2. Rh3 Ra1 
3. Rh8# *

[Event "Sacrifice, Distraction, Overloading, Exposed King, Mate - Lawnmower "]
[Date "1499.??.??"]
[Site "43248"]
[FEN "8/p2ppkrp/1p4qr/1N1P1p2/5b2/1PR2B1P/P7/3R1Q1K b - - 1 1"]

1... Qg1+
( 1... Qg1+ 2. Qxg1 Rxh3+ 3. Qh2 Rxh2# )
2. Qxg1 Rxh3+ 
3. Qh2 Rxh2# *

[Event "Discovered Attack, Double Check, Exposed King, Mate - Lawnmower "]
[Date "1500.??.??"]
[Site "43732"]
[FEN "4k1r1/1b6/p3p3/7p/PpQ1P3/4NB2/1P1r1b1K/1R2R3 b - - 0 1"]

1... Bg1+
( 1... Bg1+ 2. Kh1 Rh2# )
2. Kh1 Rh2# *

[Event "Exposed King, Coercion, Mate - Lawnmower "]
[Date "1500.??.??"]
[Site "44171"]
[FEN "4k3/3p2p1/p5r1/1pQ1Pp2/2b4P/P7/1PPR1K2/6r1 b - - 1 1"]

1... Rf1+
( 1... Rf1+ 2. Ke3 Rg3+ 3. Kd4 Rf4# )
2. Ke3 Rg3+ 
3. Kd4 Rf4# *

[Event "Sacrifice, Clearance, Discovered Attack (+3, -0), Exposed King (+4, -1), Capturing Defender (+3, -1), Mate - Lawnmower (+2, -1) "]
[Date "1500.??.??"]
[Site "99433"]
[FEN "1rr1k3/p7/2pp3Q/4b3/2qpPNR1/3R1Pp1/PP6/1K6 b - - 0 1"]

1... Rxb2+
( 1... Rxb2+ 2. Kxb2 Rb8+ 3. Rb3 d3+ 4. Kb1 Qc2# )
2. Kxb2 Rb8+ 
3. Rb3 d3+ 
4. Ka3 Qa6# *

[Event "Exposed King, Quiet Move, Sacrifice, Mate - Lawnmower "]
[Date "1501.??.??"]
[Site "51903"]
[FEN "5k2/2p3pp/p5r1/1p6/8/N1Pb1P1K/PPBP2rP/R1B5 b - - 1 1"]

1... Rg1
( 1... Rg1 2. Bxd3 Rh6# )
2. Bxd3 Rh6# *

[Event "Exposed King, Double Check, Coercion, Mate - Lawnmower "]
[Date "1501.??.??"]
[Site "91377"]
[FEN "6rk/p7/3NbR2/3pP3/3P2rp/3p3K/PP6/3R4 b - - 1 1"]

1... Rg3+
( 1... Rg3+ 2. Kxh4 Rh3# )
2. Kh2 Rh3# *

[Event "Exposed King, Coercion, Mate - Lawnmower "]
[Date "1504.??.??"]
[Site "99758"]
[FEN "3k3r/2R2R2/8/Bp2P3/2pp2p1/2P5/2P1KPb1/7r w - - 0 1"]

1. Rb7+
( 1. Rb7+ Kc8 2. Rfc7+ Kd8 3. Rb8# )
1... Kc8 
2. Rfc7+ Kd8 
3. Rb8# *

[Event "Sacrifice, Clearance, Exposed King, Distraction, Mate - Lawnmower, Coercion (+3, -0) "]
[Date "1505.??.??"]
[Site "75983"]
[FEN "5k2/7p/1pQ1p1r1/4Rp2/3P3q/1P4rP/P5BK/5R2 b - - 1 1"]

1... Rxh3+
( 1... Rxh3+ 2. Bxh3 Qg3+ 3. Kh1 Qxh3# )
2. Bxh3 Qg3+ 
3. Kh1 Qxh3# *

[Event "Exposed King, Mate - Lawnmower, Discovered Attack (+13, -13) "]
[Date "1513.??.??"]
[Site "75863"]
[FEN "4r3/R5pp/4B3/6b1/2R5/1k6/5r1P/7K w - - 1 1"]

1. Rb7+
( 1. Rb7+ Ka3 2. Rc3+ Ka4 3. Bd7+ Ka5 4. Ra3# )
1... Ka3 
2. Rc3+ Ka4 
3. Bd7+ Ka5 
4. Ra3# *

[Event "Exposed King, Weak Back Rank, Mate - Lawnmower, Coercion (+2, -1) "]
[Date "1517.??.??"]
[Site "50738"]
[FEN "2k3r1/2p5/p1r5/1p2RR2/1P3pp1/P7/5PP1/6K1 b - - 1 1"]

1... Rc1+
( 1... Rc1+ 2. Kh2 g3+ 3. fxg3 fxg3+ 4. Kh3 Rh1# )
2. Kh2 g3+ 
3. fxg3 fxg3+ 
4. Kh3 Rh1# *

[Event "Sacrifice, Distraction, Exposed King, Mate - Lawnmower, Overloading (+3, -5) "]
[Date "1518.??.??"]
[Site "99422"]
[FEN "8/5rp1/2Q5/1PB3k1/P4p2/4PK2/q7/7R w - - 0 1"]

1. Be7+
( 1. Be7+ Rxe7 2. exf4+ Kf5 3. Rh5+ g5 4. Rxg5# )
1... Rxe7 
2. exf4+ Kf5 
3. Rh5+ g5 
4. Rxg5# *

[Event "Sacrifice (+1, -0), Distraction (+1, -0), Mate - Arabian (+1, -0), Mate - Lawnmower (+1, -0) "]
[Date "1521.??.??"]
[Site "163244"]
[FEN "5rk1/2RR3p/1p2p1bP/2r1p1p1/4P1N1/pP3P2/P5P1/1K6 w - - 1 1"]

1. Nf6+
( 1. Nf6+ Rxf6 2. Rd8+ Be8 3. Rxe8+ Rf8 4. Rg7+ Kh8 5. Rxf8# )
1... Rxf6 
2. Rd8+ Be8 
3. Rxe8+ Rf8 
4. Rg7+ Kh8 
5. Rxf8# *

[Event "Sacrifice, Exposed King, Attraction, Mate - Lawnmower "]
[Date "1521.??.??"]
[Site "9891"]
[FEN "6rk/p6p/1p1nr2q/3B1n2/P2P4/7P/1PQ2B1K/2R3R1 b - - 0 1"]

1... Qxh3+
( 1... Qxh3+ 2. Kxh3 Rh6+ 3. Bh4 Rxh4# )
2. Kxh3 Rh6+ 
3. Bh4 Rxh4# *

[Event "Sacrifice, Clearance, Attraction, Exposed King, Mate - Lawnmower, Avoiding Perpetual (+13, -13) "]
[Date "1524.??.??"]
[Site "43813"]
[FEN "6rk/7p/p2Q4/1p2r3/8/4NP1q/PPP4P/5R1K b - - 0 1"]

1... Qxh2+
( 1... Qxh2+ 2. Kxh2 Rh5# )
2. Kxh2 Rh5# *

[Event "Exposed King, Mate - Lawnmower (+1, -0) "]
[Date "1525.??.??"]
[Site "41220"]
[FEN "6R1/5p2/4q3/2r3pk/2P5/2Q3P1/5P2/6K1 w - - 1 1"]

1. Qf3+
( 1. Qf3+ Qg4 2. Qxf7+ Kh6 3. Qg6# )
1... Kh6 
2. Qh1+ Qh3 
3. Qxh3# *

[Event "Double Check, Exposed King, Sacrifice, Discovered Attack, Attraction, Mate - Lawnmower "]
[Date "1525.??.??"]
[Site "59981"]
[FEN "2RQ4/3npk1p/q4np1/2p5/1p6/4B3/rP3PPP/3KR3 w - - 1 1"]

1. Qxe7+
( 1. Qxe7+ Kxe7 2. Bxc5+ Kf7 3. Re7# )
1... Kxe7 
2. Bxc5+ Kf7 
3. Re7# *

[Event "Pin (+2, -0), Clearance (+2, -0), Mate - Lawnmower (+1, -0) "]
[Date "1534.??.??"]
[Site "168086"]
[FEN "r2q3Q/2n2kp1/1r1p1bN1/2pPp3/2P1P3/p1N5/1Pn4P/2B2RRK w - - 1 1"]

1. Nxe5+
( 1. Nxe5+ Ke7 2. Rxg7+ Bxg7 3. Rf7# )
1... Ke7 
2. Rxg7+ Bxg7 
3. Rf7# *

[Event "Sacrifice, Attraction, Exposed King, Mate - Lawnmower "]
[Date "1536.??.??"]
[Site "60909"]
[FEN "1r2r3/3q3k/2bpnpRp/2p2p2/1P3P2/P1Q1PB2/7P/6RK w - - 0 1"]

1. Rxh6+
( 1. Rxh6+ Kxh6 2. Qxf6+ Kh7 3. Qh4# )
1... Kxh6 
2. Qxf6+ Kh7 
3. Qh4# *

[Event "Double Check, Discovered Attack, Exposed King (+4, -2), Mate - Lawnmower (+2, -0) "]
[Date "1540.??.??"]
[Site "43062"]
[FEN "r4k2/7Q/p4Np1/1p2p3/2qb4/8/PP4PP/5R1K w - - 1 1"]

1. Nd7+
( 1. Nd7+ Ke8 2. Rf8# )
1... Ke8 
2. Rf8# *

[Event "Distraction, Exposed King, Mate - Lawnmower "]
[Date "1541.??.??"]
[Site "97268"]
[FEN "7R/4r1k1/2R3P1/2p1pp2/4n3/1p3B2/r3P3/6K1 w - - 1 1"]

1. Rh7+
( 1. Rh7+ Kf8 2. Rc8+ Re8 3. Rf7+ Kg8 4. Rxe8# )
1... Kf8 
2. Rc8+ Re8 
3. Rf7+ Kg8 
4. Rxe8# *

[Event "Fork/Double Attack, Mate Threat, Sacrifice, Distraction, Mate - Lawnmower, Capturing Defender (+2, -0) "]
[Date "1542.??.??"]
[Site "103263"]
[FEN "8/7k/R4p1r/3p4/4r3/PR2nN2/1KP5/8 w - - 1 1"]

1. Ng5+
( 1. Ng5+ Kg6 2. Nxe4 Nd1+ 3. Kc1 dxe4 4. Kxd1 Kg5 5. Rb5+ Kf4 6. c4 Rh1+ 7. Kc2 Rh2+ 8. Kc3 )
1... Kg6 
2. Nxe4 dxe4 
3. Rxe3 *

[Event "Double Check, Sacrifice, Advanced Pawn, Exposed King, Clearance, Attraction, Mate - Lawnmower "]
[Date "1545.??.??"]
[Site "95506"]
[FEN "1rr2b2/p2R1P2/4pk1p/4p1pQ/1pq1P3/2N4R/PPP4P/2K5 w - - 0 1"]

1. Qxh6+
( 1. Qxh6+ Bxh6 2. Rxh6+ Kg7 3. f8=Q+ Kxf8 4. Rh8# )
1... Bxh6 
2. Rxh6+ Kg7 
3. f8=Q+ Kxf8 
4. Rh8# *

[Event "Exposed King, Coercion, Mate - Lawnmower (+2, -0) "]
[Date "1546.??.??"]
[Site "71420"]
[FEN "3k4/5p2/3P1p1Q/3R4/1p2P1r1/1P1K4/1P1R3P/2rq4 b - - 1 1"]

1... Qxb3+
( 1... Qxb3+ 2. Ke2 Rg2# )
2. Kd4 Rc4# *

[Event "Sacrifice, Clearance, Exposed King, Mate - Lawnmower (+2, -0), Different Opponent Move (2.Kh1 (+3, -1)) "]
[Date "1547.??.??"]
[Site "43922"]
[FEN "8/4k3/3p2pp/pBp1n1r1/P3Pr2/1PP5/4R1PK/3R4 b - - 1 1"]

1... Nf3+
( 1... Nf3+ 2. gxf3 Rh4# )
2. gxf3 Rh4# *

[Event "Sacrifice, Exposed King, Attraction, Clearance, Mate - Lawnmower "]
[Date "1547.??.??"]
[Site "78639"]
[FEN "1r5r/6k1/p2pb1p1/4q3/2p1PQ2/8/PPP5/1KB3RR w - - 1 1"]

1. Rxg6+
( 1. Rxg6+ Kxg6 2. Rg1+ Bg4 3. Rxg4+ Kh5 4. Rg5+ Qxg5 5. Qxg5# )
1... Kxg6 
2. Rg1+ Bg4 
3. Rxg4+ Kh5 
4. Rg5+ Kh6 
5. Qh4# *

[Event "Exposed King, Mate - Lawnmower (+3, -0) "]
[Date "1550.??.??"]
[Site "77620"]
[FEN "8/pp6/3p1R2/2pP3k/2P5/P1q1r2P/6P1/1B3R1K w - - 1 1"]

1. R1f5+
( 1. R1f5+ Kh4 2. Rh6+ Kg3 3. Rg6+ Kh4 4. Rg4# )
1... Kh4 
2. Rh6+ Kg3 
3. Rg6+ Kh4 
4. Rg4# *

[Event "Exposed King, Coercion, Mate - Lawnmower, Zwischenzug "]
[Date "1553.??.??"]
[Site "63408"]
[FEN "r4r2/pp3p1k/3p1B2/4nR2/5R2/8/2q3PP/7K w - - 0 1"]

1. Rh5+
( 1. Rh5+ Kg6 2. Rg5+ Kh6 3. Rh4# )
1... Kg6 
2. Rg5+ Kh7 
3. Rh4# *

[Event "Exposed King, Coercion, Clearance, Mate - Lawnmower (+2, -0) "]
[Date "1556.??.??"]
[Site "58677"]
[FEN "4r2r/7p/p2Q1R2/4n2k/4p3/1B2qb2/PP5P/1K4R1 w - - 0 1"]

1. Rf5+
( 1. Rf5+ Kh4 2. Qf6+ Kh3 3. Rg3+ Kxh2 4. Qh4# )
1... Kh4 
2. Qf6+ Kh3 
3. Rg3+ Kxh2 
4. Qh4# *

[Event "Sacrifice, Clearance, Exposed King, Mate - Lawnmower, Attraction, Coercion, Mate - Kill Box (+5, -4) "]
[Date "1558.??.??"]
[Site "73332"]
[FEN "3brr1k/2p3pp/p2p4/1p1q1NpR/3P2Q1/5R2/PPP3PP/6K1 w - - 0 1"]

1. Rxh7+
( 1. Rxh7+ Kxh7 2. Qh5+ Kg8 3. Nh6+ gxh6 4. Qg6+ Kh8 5. Qxh6+ Kg8 6. Qg6+ Kh8 7. Rh3# )
1... Kxh7 
2. Qh5+ Kg8 
3. Nh6+ gxh6 
4. Qg6+ Kh8 
5. Qxh6+ Kg8 
6. Qg6+ Kh8 
7. Rh3# *

[Event "Exposed King, Mate - Lawnmower "]
[Date "1568.??.??"]
[Site "105260"]
[FEN "Q7/R7/5pk1/8/1P1p4/8/4K3/3r3q w - - 1 1"]

1. Qg8+
( 1. Qg8+ Kf5 2. Ra5+ Kf4 3. Qb8+ Kg4 4. Qc8+ Kh4 5. Qh8+ Kg3 6. Qg7+ Kf4 7. Qxf6+ Kg4 8. Rg5+ Kh3 9. Qh6# )
1... Kf5 
2. Ra5+ Kf4 
3. Qb8+ Kg4 
4. Qc8+ Kg3 
5. Qc7+ Kg4 
6. Qg7+ Kf4 
7. Qxf6+ Kg3 
8. Rg5+ Kh2 
9. Qh6# *

[Event "Sacrifice, Clearance, Exposed King, Mate - Lawnmower (+3, -0) "]
[Date "1576.??.??"]
[Site "62793"]
[FEN "k7/1p3p2/p1p1R1p1/5r2/3P1P1B/2P5/Kb4QP/3q2R1 b - - 0 1"]

1... Ra5+
( 1... Ra5+ 2. Kxb2 Rb5+ 3. Ka2 Qa4# )
2. Kxb2 Rb5+ 
3. Ka2 Qa4# *

[Event "Discovered Attack (+3, -0), Exposed King (+3, -0), Double Check (+3, -0), Coercion (+2, -0), Mate - Lawnmower (+2, -0) "]
[Date "1577.??.??"]
[Site "159967"]
[FEN "2r2k2/4R2R/8/3B4/p7/3r4/5PK1/b7 w - - 1 1"]

1. Rhf7+
( 1. Rhf7+ Kg8 2. Rg7+ Kf8 3. Ref7+ Ke8 4. Rg8# )
1... Kg8 
2. Rg7+ Kf8 
3. Ref7+ Ke8 
4. Rg8# *

[Event "Sacrifice, Clearance, Back Rank Mate, Exposed King, Mate - Lawnmower, Distraction "]
[Date "1577.??.??"]
[Site "32906"]
[FEN "5kr1/2Q2p2/P3p1p1/2NpPnPp/3P1P2/q7/7P/1R4K1 w - - 1 1"]

1. Nxe6+
( 1. Nxe6+ fxe6 2. Rb8# )
1... fxe6 
2. Rb8# *

[Event "Exposed King, Coercion, Mate - Lawnmower "]
[Date "1580.??.??"]
[Site "90536"]
[FEN "8/4k3/5R2/p3pKp1/Pn1b4/5PB1/2p2P2/1r5R w - - 1 1"]

1. Rh7+
( 1. Rh7+ Ke8 2. Ke6 Rh1 3. Re7+ Kd8 4. Rf8# )
1... Ke8 
2. Ke6 Rh1 
3. Re7+ Kd8 
4. Rf8# *

[Event "Mate - Lawnmower, Exposed King, Coercion "]
[Date "1581.??.??"]
[Site "102036"]
[FEN "1r6/1r1R1p1b/2k4p/5p2/p1N1pPP1/P1b4P/K1P1B3/3R4 w - - 1 1"]

1. R1d6+
( 1. R1d6+ Kc5 2. Rd5+ Kc6 3. R7d6+ Kc7 4. Rc5# )
1... Kc5 
2. Rd5+ Kc6 
3. R7d6+ Kc7 
4. Rc5# *

[Event "Exposed King, Coercion, Mate - Lawnmower "]
[Date "1581.??.??"]
[Site "62213"]
[FEN "7k/1Q5p/2p5/4PB2/4K3/8/P2q2rP/5R2 b - - 1 1"]

1... Re2+
( 1... Re2+ 2. Kf3 Qe3+ 3. Kg4 Rg2+ 4. Kh5 Qg5# )
2. Kf3 Qe3+ 
3. Kg4 Rg2+ 
4. Kh4 Qh6# *

[Event "Exposed King, Discovered Attack, Mate - Lawnmower (+2, -1) "]
[Date "1581.??.??"]
[Site "76754"]
[FEN "6k1/4r1n1/p3N3/3P4/8/1p4R1/r5PP/5RK1 w - - 0 1"]

1. Rf8+
( 1. Rf8+ Kh7 2. Ng5+ Kg6 3. Ne4+ Kh7 4. Nf6+ Kh6 5. Rh8# )
1... Kh7 
2. Ng5+ Kg6 
3. Ne4+ Kh7 
4. Nf6+ Kh6 
5. Rh8# *

[Event "Exposed King, Sacrifice, Clearance, Attraction, Distraction, Coercion, Mate - Lawnmower, Zwischenzug (+5, -3) "]
[Date "1582.??.??"]
[Site "47866"]
[FEN "r1b3k1/pp4pp/4p3/3pP3/7q/3n1Q2/PP3P1P/R5RK w - - 0 1"]

1. Rxg7+
( 1. Rxg7+ Kxg7 2. Rg1+ Kh6 3. Qf8+ Kh5 4. Qf7+ Kh6 5. Qg7+ Kh5 6. Qxh7# )
1... Kxg7 
2. Rg1+ Kh6 
3. Qf8+ Kh5 
4. Qf7+ Kh6 
5. Qg7+ Kh5 
6. Qxh7# *

[Event "Exposed King, Mate - Lawnmower "]
[Date "1585.??.??"]
[Site "48745"]
[FEN "8/p1k4p/3Rp3/1B6/2PPK3/P1q5/3r4/5R2 w - - 1 1"]

1. Rf7+
( 1. Rf7+ Kc8 2. Ba6+ Kb8 3. Rd8# )
1... Kc8 
2. Ba6+ Kb8 
3. Rd8# *

[Event "Discovered Attack, Exposed King, Mate - Lawnmower "]
[Date "1587.??.??"]
[Site "64860"]
[FEN "6k1/8/4r1p1/1n4P1/4N3/1P3Q2/2r5/K7 b - - 1 1"]

1... Ra6+
( 1... Ra6+ 2. Kb1 Na3+ 3. Ka1 Nc4+ 4. Kb1 Rb2+ 5. Kc1 Ra1# )
2. Kb1 Na3+ 
3. Ka1 Nc4+ 
4. Kb1 Rb2+ 
5. Kc1 Ra1# *

[Event "Sacrifice, Mate - Lawnmower, Distraction, Exposed King "]
[Date "1588.??.??"]
[Site "105550"]
[FEN "4r2k/pp6/3Q1p2/8/3P3q/P4PRp/1P5P/4r1RK w - - 1 1"]

1. Qxf6+
( 1. Qxf6+ Qxf6 2. Rxh3+ Qh6 3. Rxh6# )
1... Qxf6 
2. Rxh3+ Qh4 
3. Rxh4# *

[Event "Exposed King, Quiet Move, Coercion, Mate - Lawnmower "]
[Date "1588.??.??"]
[Site "77000"]
[FEN "1r3r2/1k3pnp/2R5/8/8/8/4R2P/7K w - - 0 1"]

1. Rc1
( 1. Rc1 Ka6 2. Ra2+ Kb6 3. Rb2+ Ka5 4. Ra1# )
1... Ka6 
2. Ra2+ Kb5 
3. Rb2+ Ka4 
4. Ra1# *

[Event "Sacrifice, Exposed King, Clearance, Mate - Lawnmower "]
[Date "1592.??.??"]
[Site "54212"]
[FEN "8/2n3pk/1R5p/q3PP2/1n2N3/5KP1/6P1/3R4 w - - 0 1"]

1. Nf6+
( 1. Nf6+ gxf6 2. Rd7+ Kg8 3. Rb8+ Ne8 4. Rxe8# )
1... gxf6 
2. Rd7+ Kg8 
3. Rb8+ Ne8 
4. Rxe8# *

[Event "Sacrifice, Distraction, Attraction, Exposed King, Mate - Lawnmower "]
[Date "1593.??.??"]
[Site "64235"]
[FEN "4r3/R4p2/3ppkp1/1Q6/4q1P1/8/2r1NK2/7R w - - 1 1"]

1. g5+
( 1. g5+ Kg7 2. Rh7+ Kxh7 3. Rxf7+ Kg8 4. Qxe8# )
1... Kg7 
2. Rh7+ Kxh7 
3. Rxf7+ Kg8 
4. Qxe8# *

[Event "Clearance, Sacrifice, Exposed King, Mate - Lawnmower, Back Rank Mate (+14, -13) "]
[Date "1594.??.??"]
[Site "62781"]
[FEN "5kr1/R4p1p/2p1p1pn/2NpP3/p2P4/2K4P/P4rP1/1R6 w - - 1 1"]

1. Nxe6+
( 1. Nxe6+ fxe6 2. Rb8# )
1... fxe6 
2. Rb8# *

[Event "Sacrifice, Exposed King, Mate - Lawnmower "]
[Date "1594.??.??"]
[Site "72695"]
[FEN "2n1kr2/r6R/1qpQP2p/p2pPp2/1p3P2/7N/PPP4P/1K4R1 w - - 1 1"]

1. Qxf8+
( 1. Qxf8+ Kxf8 2. Rh8+ Ke7 3. Rg7+ Kxe6 4. Rxh6# )
1... Kxf8 
2. Rh8+ Ke7 
3. Rg7+ Kxe6 
4. Rxh6# *

[Event "Exposed King, Coercion, Mate - Lawnmower (+1, -0) "]
[Date "1596.??.??"]
[Site "56782"]
[FEN "1r3k2/R7/3b1r1q/1p1B3Q/2p5/8/5PPP/5RK1 w - - 1 1"]

1. Rf7+
( 1. Rf7+ Ke8 2. Bc6+ Kd8 3. Rd7+ Kc8 4. Qe8# )
1... Ke8 
2. Bc6+ Kd8 
3. Rd7+ Kc8 
4. Qe8# *

